(kicad_symbol_lib (version 20220914) (generator kicad_symbol_editor)
  (symbol "SML-D12FWT86" (pin_names (offset 1.016)) (in_bom yes) (on_board yes)
    (property "Reference" "D" (at -5.08 5.08 0)
      (effects (font (size 1.27 1.27)) (justify left bottom))
    )
    (property "Value" "SML-D12FWT86" (at -5.08 -3.81 0)
      (effects (font (size 1.27 1.27)) (justify left bottom))
    )
    (property "Footprint" "LED_SML-D12FWT86" (at 1.27 7.62 0)
      (effects (font (size 1.27 1.27)) (justify bottom) hide)
    )
    (property "Datasheet" "" (at 0 0 0)
      (effects (font (size 1.27 1.27)) hide)
    )
    (property "STANDARD" "Manufacturer Recommendation" (at 3.81 -8.89 0)
      (effects (font (size 1.27 1.27)) (justify bottom) hide)
    )
    (property "MANUFACTURER" "ROHM Semiconductor" (at 1.27 -6.35 0)
      (effects (font (size 1.27 1.27)) (justify bottom) hide)
    )
    (property "MAXIMUM_PACKAGE_HEIGHT" "0.65 mm" (at 7.62 2.54 0)
      (effects (font (size 1.27 1.27)) (justify bottom) hide)
    )
    (property "PARTREV" "007" (at 13.97 2.54 0)
      (effects (font (size 1.27 1.27)) (justify bottom) hide)
    )
    (symbol "SML-D12FWT86_0_0"
      (polyline
        (pts
          (xy -2.54 -1.524)
          (xy 0 0)
        )
        (stroke (width 0.254) (type default))
        (fill (type none))
      )
      (polyline
        (pts
          (xy -2.54 0)
          (xy -5.08 0)
        )
        (stroke (width 0.1524) (type default))
        (fill (type none))
      )
      (polyline
        (pts
          (xy -2.54 0)
          (xy -2.54 -1.524)
        )
        (stroke (width 0.254) (type default))
        (fill (type none))
      )
      (polyline
        (pts
          (xy -2.54 1.524)
          (xy -2.54 0)
        )
        (stroke (width 0.254) (type default))
        (fill (type none))
      )
      (polyline
        (pts
          (xy -1.1176 3.683)
          (xy -0.2286 4.1656)
        )
        (stroke (width 0.254) (type default))
        (fill (type none))
      )
      (polyline
        (pts
          (xy -0.9398 3.6068)
          (xy -0.7112 3.7592)
        )
        (stroke (width 0.254) (type default))
        (fill (type none))
      )
      (polyline
        (pts
          (xy -0.5588 3.2004)
          (xy -1.1176 3.683)
        )
        (stroke (width 0.254) (type default))
        (fill (type none))
      )
      (polyline
        (pts
          (xy -0.5588 3.2004)
          (xy -0.5334 3.937)
        )
        (stroke (width 0.254) (type default))
        (fill (type none))
      )
      (polyline
        (pts
          (xy -0.5334 3.937)
          (xy -0.6604 3.937)
        )
        (stroke (width 0.254) (type default))
        (fill (type none))
      )
      (polyline
        (pts
          (xy -0.2286 4.1656)
          (xy -2.0066 2.1336)
        )
        (stroke (width 0.254) (type default))
        (fill (type none))
      )
      (polyline
        (pts
          (xy -0.2286 4.1656)
          (xy -0.5588 3.2004)
        )
        (stroke (width 0.254) (type default))
        (fill (type none))
      )
      (polyline
        (pts
          (xy 0 0)
          (xy -2.54 1.524)
        )
        (stroke (width 0.254) (type default))
        (fill (type none))
      )
      (polyline
        (pts
          (xy 0 1.524)
          (xy 0 -1.524)
        )
        (stroke (width 0.254) (type default))
        (fill (type none))
      )
      (polyline
        (pts
          (xy 0.127 3.5814)
          (xy 1.016 4.064)
        )
        (stroke (width 0.254) (type default))
        (fill (type none))
      )
      (polyline
        (pts
          (xy 0.3048 3.5052)
          (xy 0.5334 3.6576)
        )
        (stroke (width 0.254) (type default))
        (fill (type none))
      )
      (polyline
        (pts
          (xy 0.6858 3.0988)
          (xy 0.127 3.5814)
        )
        (stroke (width 0.254) (type default))
        (fill (type none))
      )
      (polyline
        (pts
          (xy 0.6858 3.0988)
          (xy 0.7112 3.8354)
        )
        (stroke (width 0.254) (type default))
        (fill (type none))
      )
      (polyline
        (pts
          (xy 0.7112 3.8354)
          (xy 0.5842 3.8354)
        )
        (stroke (width 0.254) (type default))
        (fill (type none))
      )
      (polyline
        (pts
          (xy 1.016 4.064)
          (xy -0.762 2.032)
        )
        (stroke (width 0.254) (type default))
        (fill (type none))
      )
      (polyline
        (pts
          (xy 1.016 4.064)
          (xy 0.6858 3.0988)
        )
        (stroke (width 0.254) (type default))
        (fill (type none))
      )
      (pin passive line (at -7.62 0 0) (length 2.54)
        (name "~" (effects (font (size 1.016 1.016))))
        (number "A" (effects (font (size 1.016 1.016))))
      )
      (pin passive line (at 5.08 0 180) (length 5.08)
        (name "~" (effects (font (size 1.016 1.016))))
        (number "C" (effects (font (size 1.016 1.016))))
      )
    )
  )
)
