M48
; DRILL file {KiCad (7.0.0)} date Mon Apr  3 03:01:43 2023
; FORMAT={-:-/ absolute / inch / decimal}
; #@! TF.CreationDate,2023-04-03T03:01:43+02:00
; #@! TF.GenerationSoftware,Kicad,Pcbnew,(7.0.0)
; #@! TF.FileFunction,Plated,1,2,PTH
FMAT,2
INCH
; #@! TA.AperFunction,Plated,PTH,ViaDrill
T1C0.0157
; #@! TA.AperFunction,Plated,PTH,ComponentDrill
T2C0.0197
; #@! TA.AperFunction,Plated,PTH,ComponentDrill
T3C0.0276
; #@! TA.AperFunction,Plated,PTH,ComponentDrill
T4C0.0394
; #@! TA.AperFunction,Plated,PTH,ComponentDrill
T5C0.0543
%
G90
G05
T1
X4.4744Y-3.3996
X4.5295Y-3.1063
X4.5669Y-3.439
X4.6378Y-3.0
X4.7008Y-3.252
X4.815Y-3.5098
X4.8524Y-3.6831
X4.8661Y-2.626
X4.8701Y-2.5295
X4.9724Y-2.6929
X5.0709Y-5.0472
X5.1181Y-2.5256
X5.2Y-4.1
X5.2008Y-4.0039
X5.2067Y-2.626
X5.2224Y-2.7756
X5.313Y-4.0748
X5.3622Y-2.7717
X5.9Y-3.4
X5.9Y-3.8
X6.3Y-4.3
X6.4547Y-4.3642
X6.6Y-4.3
X6.9823Y-4.5925
X7.2205Y-4.185
X7.2205Y-4.5177
X7.3327Y-3.6319
X7.3425Y-3.435
X7.5276Y-3.7677
X7.5354Y-3.9744
T3
X4.4237Y-3.2599
X4.4237Y-3.4509
T4
X4.3622Y-1.6654
X4.3622Y-1.7654
X4.3622Y-1.8654
X4.3622Y-1.9654
X4.3622Y-2.0654
X4.3622Y-2.1654
X4.3622Y-2.2654
X4.3622Y-2.3654
X4.3622Y-2.4654
X4.3622Y-2.5654
X4.9705Y-2.8031
X4.9705Y-2.9031
X4.9705Y-3.0031
X4.9705Y-3.1031
X4.9705Y-3.2031
X4.9705Y-3.3031
X4.9705Y-3.4031
X4.9705Y-3.5031
X4.9705Y-3.6031
X4.9705Y-3.7031
X4.9705Y-3.8031
X4.9705Y-3.9031
X4.9705Y-4.0031
X4.9705Y-4.1031
X4.9705Y-4.2031
X4.9705Y-4.3031
X4.9705Y-4.4031
X4.9705Y-4.5031
X4.9705Y-4.6031
X4.9705Y-4.7031
X4.9705Y-4.8031
X4.9705Y-4.9031
X4.9705Y-5.0031
X4.9705Y-5.1031
X5.6201Y-2.8
X5.6201Y-2.9
X5.6201Y-3.0
X5.6201Y-3.1
X5.6201Y-3.2
X5.6201Y-3.3
X5.6201Y-3.4
X5.6201Y-3.5
X5.6201Y-3.6
X5.6201Y-3.7
X5.6201Y-3.8
X5.6201Y-3.9
X5.6201Y-4.0
X5.6201Y-4.1
X5.6201Y-4.2
X5.6201Y-4.3
X5.6201Y-4.4
X5.6201Y-4.5
X5.6201Y-4.6
X5.6201Y-4.7
X5.6201Y-4.8
X5.6201Y-4.9
X5.6201Y-5.0
X5.6201Y-5.1
X5.9469Y-3.5488
X5.9469Y-3.6488
X6.9776Y-3.7921
X6.9776Y-3.9931
X6.9778Y-3.5921
X6.9783Y-4.2421
X6.9783Y-4.4421
X6.9783Y-4.8421
X6.9783Y-5.0671
X7.0776Y-3.7921
X7.0776Y-3.9931
X7.0778Y-3.5921
X7.0783Y-4.2421
X7.0783Y-4.4421
X7.0783Y-4.8421
X7.0783Y-5.0671
T2
G00X4.3036Y-3.2137
M15
G01X4.3351Y-3.2137
M16
G05
G00X4.3036Y-3.4971
M15
G01X4.3351Y-3.4971
M16
G05
T5
G00X4.7461Y-2.028
M15
G01X4.7461Y-1.9878
M16
G05
G00X7.6161Y-2.028
M15
G01X7.6161Y-1.9878
M16
G05
T0
M30
