
(kicad_symbol_lib (version 20211014) (generator kicad_symbol_editor)
  (symbol "RC0603FR-0710KL" (pin_names (offset 1.016)) (in_bom yes) (on_board yes)
    (property "Reference" "R" (id 0) (at -3.81 1.4986 0)
      (effects (font (size 1.27 1.27)) (justify bottom left))
    )
    (property "Value" "RC0603FR-0710KL" (id 1) (at -3.81 -3.302 0)
      (effects (font (size 1.27 1.27)) (justify bottom left))
    )
    (property "Footprint" "RESC1607X60N" (id 2) (at 0 0 0)
      (effects (font (size 1.27 1.27)) (justify bottom) hide)
    )
    (symbol "RC0603FR-0710KL_0_0"
      (polyline
        (pts (xy -2.54 0.0) (xy -2.159 1.016)) (stroke (width 0.2032))
      )
      (polyline
        (pts (xy -2.159 1.016) (xy -1.524 -1.016)) (stroke (width 0.2032))
      )
      (polyline
        (pts (xy -1.524 -1.016) (xy -0.889 1.016)) (stroke (width 0.2032))
      )
      (polyline
        (pts (xy -0.889 1.016) (xy -0.254 -1.016)) (stroke (width 0.2032))
      )
      (polyline
        (pts (xy -0.254 -1.016) (xy 0.381 1.016)) (stroke (width 0.2032))
      )
      (polyline
        (pts (xy 0.381 1.016) (xy 1.016 -1.016)) (stroke (width 0.2032))
      )
      (polyline
        (pts (xy 1.016 -1.016) (xy 1.651 1.016)) (stroke (width 0.2032))
      )
      (polyline
        (pts (xy 1.651 1.016) (xy 2.286 -1.016)) (stroke (width 0.2032))
      )
      (polyline
        (pts (xy 2.286 -1.016) (xy 2.54 0.0)) (stroke (width 0.2032))
      )
      (pin passive line (at 7.62 0.0 180.0) (length 5.08)
        (name "~"
          (effects (font (size 1.016 1.016)))
        )
        (number "2"
          (effects (font (size 1.016 1.016)))
        )
      )
      (pin passive line (at -7.62 0.0 0) (length 5.08)
        (name "~"
          (effects (font (size 1.016 1.016)))
        )
        (number "1"
          (effects (font (size 1.016 1.016)))
        )
      )
    )
  )
)