
(kicad_symbol_lib (version 20211014) (generator kicad_symbol_editor)
  (symbol "SHTC3" (pin_names (offset 1.016)) (in_bom yes) (on_board yes)
    (property "Reference" "U" (id 0) (at -10.16 12.7 0)
      (effects (font (size 1.27 1.27)) (justify top left))
    )
    (property "Value" "SHTC3" (id 1) (at -10.16 -12.7 0)
      (effects (font (size 1.27 1.27)) (justify bottom left))
    )
    (property "Footprint" "SON100P200X200X80-5N" (id 2) (at 0 0 0)
      (effects (font (size 1.27 1.27)) (justify bottom) hide)
    )
    (property "STANDARD" "IPC-7351B" (id 4) (at 0 0 0)
      (effects (font (size 1.27 1.27)) (justify bottom) hide)
    )
    (property "PARTREV" "3" (id 5) (at 0 0 0)
      (effects (font (size 1.27 1.27)) (justify bottom) hide)
    )
    (property "MANUFACTURER" "Sensirion" (id 6) (at 0 0 0)
      (effects (font (size 1.27 1.27)) (justify bottom) hide)
    )
    (property "MAXIMUM_PACKAGE_HEIGHT" "0.80mm" (id 7) (at 0 0 0)
      (effects (font (size 1.27 1.27)) (justify bottom) hide)
    )
    (symbol "SHTC3_0_0"
      (rectangle (start -10.16 -10.16) (end 10.16 10.16)
        (stroke (width 0.254)) (fill (type background))
      )
      (pin power_in line (at 15.24 7.62 180.0) (length 5.08)
        (name "VDD"
          (effects (font (size 1.016 1.016)))
        )
        (number "1"
          (effects (font (size 1.016 1.016)))
        )
      )
      (pin power_in line (at 15.24 -5.08 180.0) (length 5.08)
        (name "VSS"
          (effects (font (size 1.016 1.016)))
        )
        (number "4"
          (effects (font (size 1.016 1.016)))
        )
      )
      (pin bidirectional clock (at -15.24 2.54 0) (length 5.08)
        (name "SCL"
          (effects (font (size 1.016 1.016)))
        )
        (number "2"
          (effects (font (size 1.016 1.016)))
        )
      )
      (pin bidirectional line (at -15.24 0.0 0) (length 5.08)
        (name "SDA"
          (effects (font (size 1.016 1.016)))
        )
        (number "3"
          (effects (font (size 1.016 1.016)))
        )
      )
      (pin power_in line (at 15.24 -7.62 180.0) (length 5.08)
        (name "EXP"
          (effects (font (size 1.016 1.016)))
        )
        (number "5"
          (effects (font (size 1.016 1.016)))
        )
      )
    )
  )
)