
(footprint LEDC1608X35N (layer F.Cu) (tedit 6404FFFA)
  (descr "")
  (attr smd)
  (fp_text reference REF** (at 1.14732 -1.573661 0) (layer F.SilkS)
    (effects (font (size 1.00288188976 1.00288188976) (thickness 0.15)))
  )
  (fp_text value LEDC1608X35N (at 5.60084 1.67287 0) (layer F.Fab)
    (effects (font (size 1.00226771654 1.00226771654) (thickness 0.15)))
  )
  (pad C smd rect (at -0.81 0.0) (size 0.81 0.93) (layers F.Cu F.Mask F.Paste))
  (pad A smd rect (at 0.81 0.0) (size 0.81 0.93) (layers F.Cu F.Mask F.Paste))
  (fp_line (start -0.85 0.45) (end -0.85 -0.45) (layer F.Fab) (width 0.127))
  (fp_line (start -0.085 -0.45) (end 0.085 -0.45) (layer F.SilkS) (width 0.127))
  (fp_line (start 0.85 -0.45) (end 0.85 0.45) (layer F.Fab) (width 0.127))
  (fp_line (start 0.085 0.45) (end -0.085 0.45) (layer F.SilkS) (width 0.127))
  (fp_line (start -0.85 -0.45) (end 0.85 -0.45) (layer F.Fab) (width 0.127))
  (fp_line (start 0.85 0.45) (end -0.85 0.45) (layer F.Fab) (width 0.127))
  (fp_circle (center -2.0 0.0) (end -1.9 0.0) (layer F.SilkS) (width 0.2))
  (fp_circle (center -2.0 0.0) (end -1.9 0.0) (layer F.Fab) (width 0.2))
  (fp_line (start -1.465 0.715) (end -1.465 -0.715) (layer F.CrtYd) (width 0.05))
  (fp_line (start -1.465 -0.715) (end 1.465 -0.715) (layer F.CrtYd) (width 0.05))
  (fp_line (start 1.465 -0.715) (end 1.465 0.715) (layer F.CrtYd) (width 0.05))
  (fp_line (start 1.465 0.715) (end -1.465 0.715) (layer F.CrtYd) (width 0.05))
)