
(footprint CAPC1608X90 (layer F.Cu) (tedit 64101CDA)
  (descr "<b>CAPACITOR</b>")
  (attr smd)
  (fp_text reference REF** (at -0.2358075 -1.2392525 0) (layer F.SilkS)
    (effects (font (size 0.474066929134 0.474066929134) (thickness 0.15)))
  )
  (fp_text value CAPC1608X90 (at 1.5673185 1.2067865 0) (layer F.Fab)
    (effects (font (size 0.473139370079 0.473139370079) (thickness 0.15)))
  )
  (pad 1 smd rect (at -0.85 0.0) (size 1.1 1.0) (layers F.Cu F.Mask F.Paste))
  (pad 2 smd rect (at 0.85 0.0) (size 1.1 1.0) (layers F.Cu F.Mask F.Paste))
  (fp_line (start -1.673 -0.783) (end 1.673 -0.783) (layer F.CrtYd) (width 0.0508))
  (fp_line (start 1.673 -0.783) (end 1.673 0.783) (layer F.CrtYd) (width 0.0508))
  (fp_line (start 1.673 0.783) (end -1.673 0.783) (layer F.CrtYd) (width 0.0508))
  (fp_line (start -1.673 0.783) (end -1.673 -0.783) (layer F.CrtYd) (width 0.0508))
  (fp_line (start -0.356 -0.432) (end 0.356 -0.432) (layer F.Fab) (width 0.1016))
  (fp_line (start -0.356 0.419) (end 0.356 0.419) (layer F.Fab) (width 0.1016))
  (fp_poly
    (pts
      (xy -0.838606 -0.4801)
      (xy -0.3381 -0.4801)
      (xy -0.3381 0.470129)
      (xy -0.838606 0.470129)
    ) (layer F.Fab) (width 0.01)
  )
  (fp_poly
    (pts
      (xy 0.330881 -0.4801)
      (xy 0.8303 -0.4801)
      (xy 0.8303 0.470869)
      (xy 0.330881 0.470869)
    ) (layer F.Fab) (width 0.01)
  )
  (fp_line (start -0.15 -0.45) (end 0.15 -0.45) (layer F.SilkS) (width 0.127))
  (fp_line (start -0.15 0.45) (end 0.15 0.45) (layer F.SilkS) (width 0.127))
)