../Core/Src/main.c:57:6:HAL_GPIO_EXTI_Callback	8	static
../Core/Src/main.c:135:6:SystemClock_Config	72	static,ignoring_inline_asm
../Core/Src/main.c:86:5:main	48	static
../Core/Src/main.c:212:6:Error_Handler	0	static,ignoring_inline_asm
