../Core/Src/stm32f0xx_it.c:69:6:NMI_Handler	0	static
../Core/Src/stm32f0xx_it.c:84:6:HardFault_Handler	0	static
../Core/Src/stm32f0xx_it.c:99:6:SVC_Handler	0	static
../Core/Src/stm32f0xx_it.c:112:6:PendSV_Handler	0	static
../Core/Src/stm32f0xx_it.c:125:6:SysTick_Handler	8	static
../Core/Src/stm32f0xx_it.c:146:6:EXTI0_1_IRQHandler	8	static
../Core/Src/stm32f0xx_it.c:161:6:EXTI2_3_IRQHandler	8	static
