(kicad_sch (version 20230121) (generator eeschema)

  (uuid fc7757d1-4611-41ab-a56f-6d2d707ef854)

  (paper "A4")

  (lib_symbols
    (symbol "Connector:Conn_01x24_Pin" (pin_names (offset 1.016) hide) (in_bom yes) (on_board yes)
      (property "Reference" "J" (at 0 30.48 0)
        (effects (font (size 1.27 1.27)))
      )
      (property "Value" "Conn_01x24_Pin" (at 0 -33.02 0)
        (effects (font (size 1.27 1.27)))
      )
      (property "Footprint" "" (at 0 0 0)
        (effects (font (size 1.27 1.27)) hide)
      )
      (property "Datasheet" "~" (at 0 0 0)
        (effects (font (size 1.27 1.27)) hide)
      )
      (property "ki_locked" "" (at 0 0 0)
        (effects (font (size 1.27 1.27)))
      )
      (property "ki_keywords" "connector" (at 0 0 0)
        (effects (font (size 1.27 1.27)) hide)
      )
      (property "ki_description" "Generic connector, single row, 01x24, script generated" (at 0 0 0)
        (effects (font (size 1.27 1.27)) hide)
      )
      (property "ki_fp_filters" "Connector*:*_1x??_*" (at 0 0 0)
        (effects (font (size 1.27 1.27)) hide)
      )
      (symbol "Conn_01x24_Pin_1_1"
        (polyline
          (pts
            (xy 1.27 -30.48)
            (xy 0.8636 -30.48)
          )
          (stroke (width 0.1524) (type default))
          (fill (type none))
        )
        (polyline
          (pts
            (xy 1.27 -27.94)
            (xy 0.8636 -27.94)
          )
          (stroke (width 0.1524) (type default))
          (fill (type none))
        )
        (polyline
          (pts
            (xy 1.27 -25.4)
            (xy 0.8636 -25.4)
          )
          (stroke (width 0.1524) (type default))
          (fill (type none))
        )
        (polyline
          (pts
            (xy 1.27 -22.86)
            (xy 0.8636 -22.86)
          )
          (stroke (width 0.1524) (type default))
          (fill (type none))
        )
        (polyline
          (pts
            (xy 1.27 -20.32)
            (xy 0.8636 -20.32)
          )
          (stroke (width 0.1524) (type default))
          (fill (type none))
        )
        (polyline
          (pts
            (xy 1.27 -17.78)
            (xy 0.8636 -17.78)
          )
          (stroke (width 0.1524) (type default))
          (fill (type none))
        )
        (polyline
          (pts
            (xy 1.27 -15.24)
            (xy 0.8636 -15.24)
          )
          (stroke (width 0.1524) (type default))
          (fill (type none))
        )
        (polyline
          (pts
            (xy 1.27 -12.7)
            (xy 0.8636 -12.7)
          )
          (stroke (width 0.1524) (type default))
          (fill (type none))
        )
        (polyline
          (pts
            (xy 1.27 -10.16)
            (xy 0.8636 -10.16)
          )
          (stroke (width 0.1524) (type default))
          (fill (type none))
        )
        (polyline
          (pts
            (xy 1.27 -7.62)
            (xy 0.8636 -7.62)
          )
          (stroke (width 0.1524) (type default))
          (fill (type none))
        )
        (polyline
          (pts
            (xy 1.27 -5.08)
            (xy 0.8636 -5.08)
          )
          (stroke (width 0.1524) (type default))
          (fill (type none))
        )
        (polyline
          (pts
            (xy 1.27 -2.54)
            (xy 0.8636 -2.54)
          )
          (stroke (width 0.1524) (type default))
          (fill (type none))
        )
        (polyline
          (pts
            (xy 1.27 0)
            (xy 0.8636 0)
          )
          (stroke (width 0.1524) (type default))
          (fill (type none))
        )
        (polyline
          (pts
            (xy 1.27 2.54)
            (xy 0.8636 2.54)
          )
          (stroke (width 0.1524) (type default))
          (fill (type none))
        )
        (polyline
          (pts
            (xy 1.27 5.08)
            (xy 0.8636 5.08)
          )
          (stroke (width 0.1524) (type default))
          (fill (type none))
        )
        (polyline
          (pts
            (xy 1.27 7.62)
            (xy 0.8636 7.62)
          )
          (stroke (width 0.1524) (type default))
          (fill (type none))
        )
        (polyline
          (pts
            (xy 1.27 10.16)
            (xy 0.8636 10.16)
          )
          (stroke (width 0.1524) (type default))
          (fill (type none))
        )
        (polyline
          (pts
            (xy 1.27 12.7)
            (xy 0.8636 12.7)
          )
          (stroke (width 0.1524) (type default))
          (fill (type none))
        )
        (polyline
          (pts
            (xy 1.27 15.24)
            (xy 0.8636 15.24)
          )
          (stroke (width 0.1524) (type default))
          (fill (type none))
        )
        (polyline
          (pts
            (xy 1.27 17.78)
            (xy 0.8636 17.78)
          )
          (stroke (width 0.1524) (type default))
          (fill (type none))
        )
        (polyline
          (pts
            (xy 1.27 20.32)
            (xy 0.8636 20.32)
          )
          (stroke (width 0.1524) (type default))
          (fill (type none))
        )
        (polyline
          (pts
            (xy 1.27 22.86)
            (xy 0.8636 22.86)
          )
          (stroke (width 0.1524) (type default))
          (fill (type none))
        )
        (polyline
          (pts
            (xy 1.27 25.4)
            (xy 0.8636 25.4)
          )
          (stroke (width 0.1524) (type default))
          (fill (type none))
        )
        (polyline
          (pts
            (xy 1.27 27.94)
            (xy 0.8636 27.94)
          )
          (stroke (width 0.1524) (type default))
          (fill (type none))
        )
        (rectangle (start 0.8636 -30.353) (end 0 -30.607)
          (stroke (width 0.1524) (type default))
          (fill (type outline))
        )
        (rectangle (start 0.8636 -27.813) (end 0 -28.067)
          (stroke (width 0.1524) (type default))
          (fill (type outline))
        )
        (rectangle (start 0.8636 -25.273) (end 0 -25.527)
          (stroke (width 0.1524) (type default))
          (fill (type outline))
        )
        (rectangle (start 0.8636 -22.733) (end 0 -22.987)
          (stroke (width 0.1524) (type default))
          (fill (type outline))
        )
        (rectangle (start 0.8636 -20.193) (end 0 -20.447)
          (stroke (width 0.1524) (type default))
          (fill (type outline))
        )
        (rectangle (start 0.8636 -17.653) (end 0 -17.907)
          (stroke (width 0.1524) (type default))
          (fill (type outline))
        )
        (rectangle (start 0.8636 -15.113) (end 0 -15.367)
          (stroke (width 0.1524) (type default))
          (fill (type outline))
        )
        (rectangle (start 0.8636 -12.573) (end 0 -12.827)
          (stroke (width 0.1524) (type default))
          (fill (type outline))
        )
        (rectangle (start 0.8636 -10.033) (end 0 -10.287)
          (stroke (width 0.1524) (type default))
          (fill (type outline))
        )
        (rectangle (start 0.8636 -7.493) (end 0 -7.747)
          (stroke (width 0.1524) (type default))
          (fill (type outline))
        )
        (rectangle (start 0.8636 -4.953) (end 0 -5.207)
          (stroke (width 0.1524) (type default))
          (fill (type outline))
        )
        (rectangle (start 0.8636 -2.413) (end 0 -2.667)
          (stroke (width 0.1524) (type default))
          (fill (type outline))
        )
        (rectangle (start 0.8636 0.127) (end 0 -0.127)
          (stroke (width 0.1524) (type default))
          (fill (type outline))
        )
        (rectangle (start 0.8636 2.667) (end 0 2.413)
          (stroke (width 0.1524) (type default))
          (fill (type outline))
        )
        (rectangle (start 0.8636 5.207) (end 0 4.953)
          (stroke (width 0.1524) (type default))
          (fill (type outline))
        )
        (rectangle (start 0.8636 7.747) (end 0 7.493)
          (stroke (width 0.1524) (type default))
          (fill (type outline))
        )
        (rectangle (start 0.8636 10.287) (end 0 10.033)
          (stroke (width 0.1524) (type default))
          (fill (type outline))
        )
        (rectangle (start 0.8636 12.827) (end 0 12.573)
          (stroke (width 0.1524) (type default))
          (fill (type outline))
        )
        (rectangle (start 0.8636 15.367) (end 0 15.113)
          (stroke (width 0.1524) (type default))
          (fill (type outline))
        )
        (rectangle (start 0.8636 17.907) (end 0 17.653)
          (stroke (width 0.1524) (type default))
          (fill (type outline))
        )
        (rectangle (start 0.8636 20.447) (end 0 20.193)
          (stroke (width 0.1524) (type default))
          (fill (type outline))
        )
        (rectangle (start 0.8636 22.987) (end 0 22.733)
          (stroke (width 0.1524) (type default))
          (fill (type outline))
        )
        (rectangle (start 0.8636 25.527) (end 0 25.273)
          (stroke (width 0.1524) (type default))
          (fill (type outline))
        )
        (rectangle (start 0.8636 28.067) (end 0 27.813)
          (stroke (width 0.1524) (type default))
          (fill (type outline))
        )
        (pin passive line (at 5.08 27.94 180) (length 3.81)
          (name "Pin_1" (effects (font (size 1.27 1.27))))
          (number "1" (effects (font (size 1.27 1.27))))
        )
        (pin passive line (at 5.08 5.08 180) (length 3.81)
          (name "Pin_10" (effects (font (size 1.27 1.27))))
          (number "10" (effects (font (size 1.27 1.27))))
        )
        (pin passive line (at 5.08 2.54 180) (length 3.81)
          (name "Pin_11" (effects (font (size 1.27 1.27))))
          (number "11" (effects (font (size 1.27 1.27))))
        )
        (pin passive line (at 5.08 0 180) (length 3.81)
          (name "Pin_12" (effects (font (size 1.27 1.27))))
          (number "12" (effects (font (size 1.27 1.27))))
        )
        (pin passive line (at 5.08 -2.54 180) (length 3.81)
          (name "Pin_13" (effects (font (size 1.27 1.27))))
          (number "13" (effects (font (size 1.27 1.27))))
        )
        (pin passive line (at 5.08 -5.08 180) (length 3.81)
          (name "Pin_14" (effects (font (size 1.27 1.27))))
          (number "14" (effects (font (size 1.27 1.27))))
        )
        (pin passive line (at 5.08 -7.62 180) (length 3.81)
          (name "Pin_15" (effects (font (size 1.27 1.27))))
          (number "15" (effects (font (size 1.27 1.27))))
        )
        (pin passive line (at 5.08 -10.16 180) (length 3.81)
          (name "Pin_16" (effects (font (size 1.27 1.27))))
          (number "16" (effects (font (size 1.27 1.27))))
        )
        (pin passive line (at 5.08 -12.7 180) (length 3.81)
          (name "Pin_17" (effects (font (size 1.27 1.27))))
          (number "17" (effects (font (size 1.27 1.27))))
        )
        (pin passive line (at 5.08 -15.24 180) (length 3.81)
          (name "Pin_18" (effects (font (size 1.27 1.27))))
          (number "18" (effects (font (size 1.27 1.27))))
        )
        (pin passive line (at 5.08 -17.78 180) (length 3.81)
          (name "Pin_19" (effects (font (size 1.27 1.27))))
          (number "19" (effects (font (size 1.27 1.27))))
        )
        (pin passive line (at 5.08 25.4 180) (length 3.81)
          (name "Pin_2" (effects (font (size 1.27 1.27))))
          (number "2" (effects (font (size 1.27 1.27))))
        )
        (pin passive line (at 5.08 -20.32 180) (length 3.81)
          (name "Pin_20" (effects (font (size 1.27 1.27))))
          (number "20" (effects (font (size 1.27 1.27))))
        )
        (pin passive line (at 5.08 -22.86 180) (length 3.81)
          (name "Pin_21" (effects (font (size 1.27 1.27))))
          (number "21" (effects (font (size 1.27 1.27))))
        )
        (pin passive line (at 5.08 -25.4 180) (length 3.81)
          (name "Pin_22" (effects (font (size 1.27 1.27))))
          (number "22" (effects (font (size 1.27 1.27))))
        )
        (pin passive line (at 5.08 -27.94 180) (length 3.81)
          (name "Pin_23" (effects (font (size 1.27 1.27))))
          (number "23" (effects (font (size 1.27 1.27))))
        )
        (pin passive line (at 5.08 -30.48 180) (length 3.81)
          (name "Pin_24" (effects (font (size 1.27 1.27))))
          (number "24" (effects (font (size 1.27 1.27))))
        )
        (pin passive line (at 5.08 22.86 180) (length 3.81)
          (name "Pin_3" (effects (font (size 1.27 1.27))))
          (number "3" (effects (font (size 1.27 1.27))))
        )
        (pin passive line (at 5.08 20.32 180) (length 3.81)
          (name "Pin_4" (effects (font (size 1.27 1.27))))
          (number "4" (effects (font (size 1.27 1.27))))
        )
        (pin passive line (at 5.08 17.78 180) (length 3.81)
          (name "Pin_5" (effects (font (size 1.27 1.27))))
          (number "5" (effects (font (size 1.27 1.27))))
        )
        (pin passive line (at 5.08 15.24 180) (length 3.81)
          (name "Pin_6" (effects (font (size 1.27 1.27))))
          (number "6" (effects (font (size 1.27 1.27))))
        )
        (pin passive line (at 5.08 12.7 180) (length 3.81)
          (name "Pin_7" (effects (font (size 1.27 1.27))))
          (number "7" (effects (font (size 1.27 1.27))))
        )
        (pin passive line (at 5.08 10.16 180) (length 3.81)
          (name "Pin_8" (effects (font (size 1.27 1.27))))
          (number "8" (effects (font (size 1.27 1.27))))
        )
        (pin passive line (at 5.08 7.62 180) (length 3.81)
          (name "Pin_9" (effects (font (size 1.27 1.27))))
          (number "9" (effects (font (size 1.27 1.27))))
        )
      )
    )
    (symbol "Connector_Generic:Conn_01x02" (pin_names (offset 1.016) hide) (in_bom yes) (on_board yes)
      (property "Reference" "J" (at 0 2.54 0)
        (effects (font (size 1.27 1.27)))
      )
      (property "Value" "Conn_01x02" (at 0 -5.08 0)
        (effects (font (size 1.27 1.27)))
      )
      (property "Footprint" "" (at 0 0 0)
        (effects (font (size 1.27 1.27)) hide)
      )
      (property "Datasheet" "~" (at 0 0 0)
        (effects (font (size 1.27 1.27)) hide)
      )
      (property "ki_keywords" "connector" (at 0 0 0)
        (effects (font (size 1.27 1.27)) hide)
      )
      (property "ki_description" "Generic connector, single row, 01x02, script generated (kicad-library-utils/schlib/autogen/connector/)" (at 0 0 0)
        (effects (font (size 1.27 1.27)) hide)
      )
      (property "ki_fp_filters" "Connector*:*_1x??_*" (at 0 0 0)
        (effects (font (size 1.27 1.27)) hide)
      )
      (symbol "Conn_01x02_1_1"
        (rectangle (start -1.27 -2.413) (end 0 -2.667)
          (stroke (width 0.1524) (type default))
          (fill (type none))
        )
        (rectangle (start -1.27 0.127) (end 0 -0.127)
          (stroke (width 0.1524) (type default))
          (fill (type none))
        )
        (rectangle (start -1.27 1.27) (end 1.27 -3.81)
          (stroke (width 0.254) (type default))
          (fill (type background))
        )
        (pin passive line (at -5.08 0 0) (length 3.81)
          (name "Pin_1" (effects (font (size 1.27 1.27))))
          (number "1" (effects (font (size 1.27 1.27))))
        )
        (pin passive line (at -5.08 -2.54 0) (length 3.81)
          (name "Pin_2" (effects (font (size 1.27 1.27))))
          (number "2" (effects (font (size 1.27 1.27))))
        )
      )
    )
    (symbol "MySymbols:AT24C256C-SSHL-T" (pin_names (offset 1.016)) (in_bom yes) (on_board yes)
      (property "Reference" "U" (at -7.6427 10.1903 0)
        (effects (font (size 1.27 1.27)) (justify left bottom))
      )
      (property "Value" "AT24C256C-SSHL-T" (at -7.6309 -12.7181 0)
        (effects (font (size 1.27 1.27)) (justify left bottom))
      )
      (property "Footprint" "SOIC127P600X175-8N" (at 0 0 0)
        (effects (font (size 1.27 1.27)) (justify bottom) hide)
      )
      (property "Datasheet" "" (at 0 0 0)
        (effects (font (size 1.27 1.27)) hide)
      )
      (property "MANUFACTURER" "Atmel" (at 0 0 0)
        (effects (font (size 1.27 1.27)) (justify bottom) hide)
      )
      (symbol "AT24C256C-SSHL-T_0_0"
        (rectangle (start -7.62 -10.16) (end 7.62 10.16)
          (stroke (width 0.254) (type default))
          (fill (type background))
        )
        (pin input line (at -10.16 0 0) (length 2.54)
          (name "A0" (effects (font (size 1.016 1.016))))
          (number "1" (effects (font (size 1.016 1.016))))
        )
        (pin input line (at -10.16 -2.54 0) (length 2.54)
          (name "A1" (effects (font (size 1.016 1.016))))
          (number "2" (effects (font (size 1.016 1.016))))
        )
        (pin input line (at -10.16 -5.08 0) (length 2.54)
          (name "A2" (effects (font (size 1.016 1.016))))
          (number "3" (effects (font (size 1.016 1.016))))
        )
        (pin power_in line (at 10.16 -7.62 180) (length 2.54)
          (name "GND" (effects (font (size 1.016 1.016))))
          (number "4" (effects (font (size 1.016 1.016))))
        )
        (pin bidirectional line (at 10.16 0 180) (length 2.54)
          (name "SDA" (effects (font (size 1.016 1.016))))
          (number "5" (effects (font (size 1.016 1.016))))
        )
        (pin input clock (at 10.16 2.54 180) (length 2.54)
          (name "SCL" (effects (font (size 1.016 1.016))))
          (number "6" (effects (font (size 1.016 1.016))))
        )
        (pin input line (at -10.16 7.62 0) (length 2.54)
          (name "WP" (effects (font (size 1.016 1.016))))
          (number "7" (effects (font (size 1.016 1.016))))
        )
        (pin power_in line (at 10.16 7.62 180) (length 2.54)
          (name "VCC" (effects (font (size 1.016 1.016))))
          (number "8" (effects (font (size 1.016 1.016))))
        )
      )
    )
    (symbol "MySymbols:FT234XD-R" (pin_names (offset 1.016)) (in_bom yes) (on_board yes)
      (property "Reference" "U" (at -10.16 13.97 0)
        (effects (font (size 1.27 1.27)) (justify left bottom))
      )
      (property "Value" "FT234XD-R" (at -10.16 -11.43 0)
        (effects (font (size 1.27 1.27)) (justify left top))
      )
      (property "Footprint" "SON45P300X300X80-13N" (at 0 0 0)
        (effects (font (size 1.27 1.27)) (justify bottom) hide)
      )
      (property "Datasheet" "" (at 0 0 0)
        (effects (font (size 1.27 1.27)) hide)
      )
      (property "STANDARD" "IPC-7351B" (at 0 0 0)
        (effects (font (size 1.27 1.27)) (justify bottom) hide)
      )
      (property "MAXIMUM_PACKAGE_HEIGHT" "0.8mm" (at 0 0 0)
        (effects (font (size 1.27 1.27)) (justify bottom) hide)
      )
      (property "MANUFACTURER" "FTDI" (at 0 0 0)
        (effects (font (size 1.27 1.27)) (justify bottom) hide)
      )
      (property "PARTREV" "Version 1.2" (at 0 0 0)
        (effects (font (size 1.27 1.27)) (justify bottom) hide)
      )
      (symbol "FT234XD-R_0_0"
        (rectangle (start -10.16 -10.16) (end 10.16 12.7)
          (stroke (width 0.254) (type default))
          (fill (type background))
        )
        (pin bidirectional line (at 15.24 0 180) (length 5.08)
          (name "USBDM" (effects (font (size 1.016 1.016))))
          (number "1" (effects (font (size 1.016 1.016))))
        )
        (pin input line (at -15.24 2.54 0) (length 5.08)
          (name "RXD" (effects (font (size 1.016 1.016))))
          (number "10" (effects (font (size 1.016 1.016))))
        )
        (pin input line (at -15.24 0 0) (length 5.08)
          (name "CTS#" (effects (font (size 1.016 1.016))))
          (number "11" (effects (font (size 1.016 1.016))))
        )
        (pin bidirectional line (at 15.24 -2.54 180) (length 5.08)
          (name "USBDP" (effects (font (size 1.016 1.016))))
          (number "12" (effects (font (size 1.016 1.016))))
        )
        (pin power_in line (at 15.24 -7.62 180) (length 5.08)
          (name "GND" (effects (font (size 1.016 1.016))))
          (number "13" (effects (font (size 1.016 1.016))))
        )
        (pin input line (at -15.24 10.16 0) (length 5.08)
          (name "~{RESET#}" (effects (font (size 1.016 1.016))))
          (number "2" (effects (font (size 1.016 1.016))))
        )
        (pin output line (at 15.24 5.08 180) (length 5.08)
          (name "3V3OUT" (effects (font (size 1.016 1.016))))
          (number "3" (effects (font (size 1.016 1.016))))
        )
        (pin power_in line (at 15.24 10.16 180) (length 5.08)
          (name "VCC" (effects (font (size 1.016 1.016))))
          (number "4" (effects (font (size 1.016 1.016))))
        )
        (pin power_in line (at 15.24 -7.62 180) (length 5.08)
          (name "GND" (effects (font (size 1.016 1.016))))
          (number "5" (effects (font (size 1.016 1.016))))
        )
        (pin bidirectional line (at -15.24 -7.62 0) (length 5.08)
          (name "CBUS0" (effects (font (size 1.016 1.016))))
          (number "6" (effects (font (size 1.016 1.016))))
        )
        (pin output line (at -15.24 5.08 0) (length 5.08)
          (name "TXD" (effects (font (size 1.016 1.016))))
          (number "7" (effects (font (size 1.016 1.016))))
        )
        (pin output line (at -15.24 -2.54 0) (length 5.08)
          (name "RTS#" (effects (font (size 1.016 1.016))))
          (number "8" (effects (font (size 1.016 1.016))))
        )
        (pin power_in line (at 15.24 7.62 180) (length 5.08)
          (name "VCCIO" (effects (font (size 1.016 1.016))))
          (number "9" (effects (font (size 1.016 1.016))))
        )
      )
    )
    (symbol "MySymbols:MICROXNJ" (pin_names (offset 1.016)) (in_bom yes) (on_board yes)
      (property "Reference" "J" (at -5.0828 10.9278 0)
        (effects (font (size 1.27 1.27)) (justify left bottom))
      )
      (property "Value" "MICROXNJ" (at -5.0823 -10.9276 0)
        (effects (font (size 1.27 1.27)) (justify left top))
      )
      (property "Footprint" "SHOUHAN_MICROXNJ" (at 0 0 0)
        (effects (font (size 1.27 1.27)) (justify bottom) hide)
      )
      (property "Datasheet" "" (at 0 0 0)
        (effects (font (size 1.27 1.27)) hide)
      )
      (property "STANDARD" "Manufacturer Recommendations" (at 0 0 0)
        (effects (font (size 1.27 1.27)) (justify bottom) hide)
      )
      (property "MAXIMUM_PACKAGE_HEIGHT" "3mm" (at 0 0 0)
        (effects (font (size 1.27 1.27)) (justify bottom) hide)
      )
      (property "PARTREV" "A" (at 0 0 0)
        (effects (font (size 1.27 1.27)) (justify bottom) hide)
      )
      (property "MANUFACTURER" "SHOUHAN" (at 0 0 0)
        (effects (font (size 1.27 1.27)) (justify bottom) hide)
      )
      (symbol "MICROXNJ_0_0"
        (rectangle (start -5.08 -10.16) (end 5.08 10.16)
          (stroke (width 0.254) (type default))
          (fill (type background))
        )
        (pin power_in line (at -10.16 7.62 0) (length 5.08)
          (name "VBUS" (effects (font (size 1.016 1.016))))
          (number "1" (effects (font (size 1.016 1.016))))
        )
        (pin bidirectional line (at -10.16 5.08 0) (length 5.08)
          (name "D-" (effects (font (size 1.016 1.016))))
          (number "2" (effects (font (size 1.016 1.016))))
        )
        (pin bidirectional line (at -10.16 2.54 0) (length 5.08)
          (name "D+" (effects (font (size 1.016 1.016))))
          (number "3" (effects (font (size 1.016 1.016))))
        )
        (pin bidirectional line (at -10.16 0 0) (length 5.08)
          (name "ID" (effects (font (size 1.016 1.016))))
          (number "4" (effects (font (size 1.016 1.016))))
        )
        (pin power_in line (at -10.16 -2.54 0) (length 5.08)
          (name "GND" (effects (font (size 1.016 1.016))))
          (number "5" (effects (font (size 1.016 1.016))))
        )
        (pin passive line (at -10.16 -7.62 0) (length 5.08)
          (name "SHIELD" (effects (font (size 1.016 1.016))))
          (number "S1" (effects (font (size 1.016 1.016))))
        )
        (pin passive line (at -10.16 -7.62 0) (length 5.08)
          (name "SHIELD" (effects (font (size 1.016 1.016))))
          (number "S2" (effects (font (size 1.016 1.016))))
        )
        (pin passive line (at -10.16 -7.62 0) (length 5.08)
          (name "SHIELD" (effects (font (size 1.016 1.016))))
          (number "S3" (effects (font (size 1.016 1.016))))
        )
        (pin passive line (at -10.16 -7.62 0) (length 5.08)
          (name "SHIELD" (effects (font (size 1.016 1.016))))
          (number "S4" (effects (font (size 1.016 1.016))))
        )
        (pin passive line (at -10.16 -7.62 0) (length 5.08)
          (name "SHIELD" (effects (font (size 1.016 1.016))))
          (number "S5" (effects (font (size 1.016 1.016))))
        )
        (pin passive line (at -10.16 -7.62 0) (length 5.08)
          (name "SHIELD" (effects (font (size 1.016 1.016))))
          (number "S6" (effects (font (size 1.016 1.016))))
        )
      )
    )
    (symbol "power:+5V" (power) (pin_names (offset 0)) (in_bom yes) (on_board yes)
      (property "Reference" "#PWR" (at 0 -3.81 0)
        (effects (font (size 1.27 1.27)) hide)
      )
      (property "Value" "+5V" (at 0 3.556 0)
        (effects (font (size 1.27 1.27)))
      )
      (property "Footprint" "" (at 0 0 0)
        (effects (font (size 1.27 1.27)) hide)
      )
      (property "Datasheet" "" (at 0 0 0)
        (effects (font (size 1.27 1.27)) hide)
      )
      (property "ki_keywords" "global power" (at 0 0 0)
        (effects (font (size 1.27 1.27)) hide)
      )
      (property "ki_description" "Power symbol creates a global label with name \"+5V\"" (at 0 0 0)
        (effects (font (size 1.27 1.27)) hide)
      )
      (symbol "+5V_0_1"
        (polyline
          (pts
            (xy -0.762 1.27)
            (xy 0 2.54)
          )
          (stroke (width 0) (type default))
          (fill (type none))
        )
        (polyline
          (pts
            (xy 0 0)
            (xy 0 2.54)
          )
          (stroke (width 0) (type default))
          (fill (type none))
        )
        (polyline
          (pts
            (xy 0 2.54)
            (xy 0.762 1.27)
          )
          (stroke (width 0) (type default))
          (fill (type none))
        )
      )
      (symbol "+5V_1_1"
        (pin power_in line (at 0 0 90) (length 0) hide
          (name "+5V" (effects (font (size 1.27 1.27))))
          (number "1" (effects (font (size 1.27 1.27))))
        )
      )
    )
    (symbol "power:GND" (power) (pin_names (offset 0)) (in_bom yes) (on_board yes)
      (property "Reference" "#PWR" (at 0 -6.35 0)
        (effects (font (size 1.27 1.27)) hide)
      )
      (property "Value" "GND" (at 0 -3.81 0)
        (effects (font (size 1.27 1.27)))
      )
      (property "Footprint" "" (at 0 0 0)
        (effects (font (size 1.27 1.27)) hide)
      )
      (property "Datasheet" "" (at 0 0 0)
        (effects (font (size 1.27 1.27)) hide)
      )
      (property "ki_keywords" "global power" (at 0 0 0)
        (effects (font (size 1.27 1.27)) hide)
      )
      (property "ki_description" "Power symbol creates a global label with name \"GND\" , ground" (at 0 0 0)
        (effects (font (size 1.27 1.27)) hide)
      )
      (symbol "GND_0_1"
        (polyline
          (pts
            (xy 0 0)
            (xy 0 -1.27)
            (xy 1.27 -1.27)
            (xy 0 -2.54)
            (xy -1.27 -1.27)
            (xy 0 -1.27)
          )
          (stroke (width 0) (type default))
          (fill (type none))
        )
      )
      (symbol "GND_1_1"
        (pin power_in line (at 0 0 270) (length 0) hide
          (name "GND" (effects (font (size 1.27 1.27))))
          (number "1" (effects (font (size 1.27 1.27))))
        )
      )
    )
    (symbol "power:PWR_FLAG" (power) (pin_numbers hide) (pin_names (offset 0) hide) (in_bom yes) (on_board yes)
      (property "Reference" "#FLG" (at 0 1.905 0)
        (effects (font (size 1.27 1.27)) hide)
      )
      (property "Value" "PWR_FLAG" (at 0 3.81 0)
        (effects (font (size 1.27 1.27)))
      )
      (property "Footprint" "" (at 0 0 0)
        (effects (font (size 1.27 1.27)) hide)
      )
      (property "Datasheet" "~" (at 0 0 0)
        (effects (font (size 1.27 1.27)) hide)
      )
      (property "ki_keywords" "flag power" (at 0 0 0)
        (effects (font (size 1.27 1.27)) hide)
      )
      (property "ki_description" "Special symbol for telling ERC where power comes from" (at 0 0 0)
        (effects (font (size 1.27 1.27)) hide)
      )
      (symbol "PWR_FLAG_0_0"
        (pin power_out line (at 0 0 90) (length 0)
          (name "pwr" (effects (font (size 1.27 1.27))))
          (number "1" (effects (font (size 1.27 1.27))))
        )
      )
      (symbol "PWR_FLAG_0_1"
        (polyline
          (pts
            (xy 0 0)
            (xy 0 1.27)
            (xy -1.016 1.905)
            (xy 0 2.54)
            (xy 1.016 1.905)
            (xy 0 1.27)
          )
          (stroke (width 0) (type default))
          (fill (type none))
        )
      )
    )
  )

  (junction (at 113.03 104.14) (diameter 0) (color 0 0 0 0)
    (uuid 1fcb63d4-111b-4008-896c-9341b3765deb)
  )
  (junction (at 179.07 59.69) (diameter 0) (color 0 0 0 0)
    (uuid 268d51b8-f41d-4321-946b-db0ea58e93b8)
  )
  (junction (at 133.35 93.98) (diameter 0) (color 0 0 0 0)
    (uuid 5f6dd11e-f7ed-420d-bc0f-c50a28ff5c03)
  )
  (junction (at 133.35 104.14) (diameter 0) (color 0 0 0 0)
    (uuid 66b17397-0fba-457a-9391-23841346b321)
  )
  (junction (at 133.35 91.44) (diameter 0) (color 0 0 0 0)
    (uuid 9add1f6d-3a2d-43f2-a0f8-dfb68b6202bb)
  )
  (junction (at 153.67 99.06) (diameter 0) (color 0 0 0 0)
    (uuid cc889764-1a85-41cf-aa67-2465523699e4)
  )
  (junction (at 133.35 96.52) (diameter 0) (color 0 0 0 0)
    (uuid eae9cd4c-84f8-4b5b-a3ea-391042b58aee)
  )

  (no_connect (at 39.37 96.52) (uuid 081f0b26-00ad-4e11-93bd-c4ac0e4cd2b3))
  (no_connect (at 39.37 93.98) (uuid 0c0e2b24-8fb2-46f5-a2db-1b895f70a791))
  (no_connect (at 90.17 91.44) (uuid 0c7e966f-b48c-46ac-8cf5-206453e2413d))
  (no_connect (at 139.7 55.88) (uuid 216aab48-f766-47fd-a861-91a3ce42ce1d))
  (no_connect (at 39.37 55.88) (uuid 22c8696f-8ebd-436e-bcb5-e0c720f14d20))
  (no_connect (at 90.17 86.36) (uuid 291f82e9-bf37-4b88-9183-8a742584bf82))
  (no_connect (at 39.37 43.18) (uuid 31123f0d-81ba-45f6-a984-db9317951b6d))
  (no_connect (at 139.7 60.96) (uuid 3ebbb765-9791-4849-9299-50d98c5069bb))
  (no_connect (at 39.37 50.8) (uuid 3fcf2857-0669-4001-854f-7d1290b45bfe))
  (no_connect (at 170.18 45.72) (uuid 50745c9c-c17e-41c6-8b8c-d5965526776c))
  (no_connect (at 39.37 78.74) (uuid 51ad3a5f-c7e4-43ae-aebd-beb6a9c1df7e))
  (no_connect (at 39.37 58.42) (uuid 535a7077-3325-4803-bea6-d94c62d418e3))
  (no_connect (at 90.17 76.2) (uuid 6642fb45-548c-48ff-87a2-8354a241c33e))
  (no_connect (at 39.37 48.26) (uuid 702a5d6c-4957-4ad3-babd-9744f8bf54d0))
  (no_connect (at 90.17 96.52) (uuid 716de8b1-f1b9-415d-8ce3-05463ceabf09))
  (no_connect (at 90.17 68.58) (uuid 7554645c-2302-4283-9db9-f12dddd634fe))
  (no_connect (at 90.17 99.06) (uuid 7e3ca930-f599-4740-b45d-479771777822))
  (no_connect (at 39.37 81.28) (uuid 882059ee-ea2f-4612-8759-c2e3a6d4c7a6))
  (no_connect (at 39.37 68.58) (uuid 93256c0a-ee39-42e3-8514-a337c8b7cb47))
  (no_connect (at 179.07 52.07) (uuid a8a66c99-5b28-4c45-933e-a71e4939e0ec))
  (no_connect (at 39.37 71.12) (uuid b047b4a6-1827-418a-9f0d-1b13621ea68d))
  (no_connect (at 90.17 78.74) (uuid b22fdde0-48e9-48f1-83f5-4c8fbb27ada5))
  (no_connect (at 139.7 53.34) (uuid b78ded17-283c-4226-b045-0b4abea2d4ca))
  (no_connect (at 139.7 43.18) (uuid bd2bd73e-3d95-497e-9374-169b49fdc476))
  (no_connect (at 90.17 71.12) (uuid cea79da3-6df3-45e8-997b-20bc844b2874))
  (no_connect (at 39.37 45.72) (uuid dc1243a0-6205-4f29-89b8-7c07bd0ce49f))
  (no_connect (at 90.17 73.66) (uuid dcbf2afa-7757-4fe4-88c3-62378c63ad7a))
  (no_connect (at 90.17 101.6) (uuid de6e6a0a-862d-47b4-88de-f94e4ca6c815))
  (no_connect (at 39.37 53.34) (uuid dfbb8371-f771-431d-86bd-e590df410155))
  (no_connect (at 90.17 88.9) (uuid e3ef1c5a-0922-4b5d-b2d0-a25ad20ab7e3))
  (no_connect (at 39.37 83.82) (uuid ea67070e-4c96-4795-8e66-803da1f69405))
  (no_connect (at 170.18 48.26) (uuid ec3ab104-5f02-4e51-ae56-400d22527ca9))
  (no_connect (at 90.17 53.34) (uuid ed071c43-0c52-43a0-9be5-55900aa79ee1))
  (no_connect (at 90.17 93.98) (uuid fcefa76b-a800-43cb-a07f-e5c0aa92fa2f))

  (wire (pts (xy 44.45 90.17) (xy 55.88 90.17))
    (stroke (width 0) (type default))
    (uuid 17c6ce10-6787-4d04-a337-f098265e6fde)
  )
  (wire (pts (xy 46.99 63.5) (xy 55.88 63.5))
    (stroke (width 0) (type default))
    (uuid 18af0e03-2e33-4c80-a38b-29680786f747)
  )
  (wire (pts (xy 102.87 104.14) (xy 113.03 104.14))
    (stroke (width 0) (type default))
    (uuid 1f81f26d-67fc-406f-8e2c-4c6227c82cc5)
  )
  (wire (pts (xy 101.6 44.45) (xy 111.76 44.45))
    (stroke (width 0) (type default))
    (uuid 21f42cc8-2cef-44f7-896b-1c0df5cd5a2c)
  )
  (wire (pts (xy 106.68 85.09) (xy 111.76 85.09))
    (stroke (width 0) (type default))
    (uuid 23b1a842-d05a-49b6-8fc2-9bae07dfe909)
  )
  (wire (pts (xy 101.6 49.53) (xy 111.76 49.53))
    (stroke (width 0) (type default))
    (uuid 2474a17b-8ae8-4225-8bef-c52e1c6035f7)
  )
  (wire (pts (xy 39.37 76.2) (xy 44.45 76.2))
    (stroke (width 0) (type default))
    (uuid 2d756fa5-2ca2-4af9-83cb-19b1be555c0f)
  )
  (wire (pts (xy 48.26 73.66) (xy 48.26 87.63))
    (stroke (width 0) (type default))
    (uuid 2ff9db1d-27af-4d66-86b1-c7943cf26674)
  )
  (wire (pts (xy 48.26 107.95) (xy 60.96 107.95))
    (stroke (width 0) (type default))
    (uuid 31586307-18c3-43fa-9ce7-0e4fb57fe9c6)
  )
  (wire (pts (xy 133.35 93.98) (xy 133.35 96.52))
    (stroke (width 0) (type default))
    (uuid 35bed2f9-0201-4be7-a0ff-d63614b0b051)
  )
  (wire (pts (xy 187.96 88.9) (xy 194.31 88.9))
    (stroke (width 0) (type default))
    (uuid 3b0fbc2d-392e-4a1e-a5dc-a364049a6ae6)
  )
  (wire (pts (xy 133.35 91.44) (xy 133.35 93.98))
    (stroke (width 0) (type default))
    (uuid 3c055856-baee-4d51-9839-79a7581ba3b5)
  )
  (wire (pts (xy 153.67 99.06) (xy 153.67 104.14))
    (stroke (width 0) (type default))
    (uuid 423a36c7-5b47-40c2-b404-88ec1031bcbf)
  )
  (wire (pts (xy 156.21 99.06) (xy 156.21 97.79))
    (stroke (width 0) (type default))
    (uuid 68f0f753-50f4-46d7-8a22-9cdf5b692479)
  )
  (wire (pts (xy 106.68 81.28) (xy 111.76 81.28))
    (stroke (width 0) (type default))
    (uuid 6bbe6fd3-c2e0-4719-93a1-5686f97c4017)
  )
  (wire (pts (xy 187.96 97.79) (xy 187.96 106.68))
    (stroke (width 0) (type default))
    (uuid 78e13011-7de4-4a83-a9c6-0912dc6115f7)
  )
  (wire (pts (xy 153.67 104.14) (xy 133.35 104.14))
    (stroke (width 0) (type default))
    (uuid 8b3e3233-4a36-4781-bc5a-cf72959efc81)
  )
  (wire (pts (xy 48.26 87.63) (xy 55.88 87.63))
    (stroke (width 0) (type default))
    (uuid 8c570e50-c7fd-48bf-b200-5e7edbd1dfdc)
  )
  (wire (pts (xy 133.35 104.14) (xy 133.35 96.52))
    (stroke (width 0) (type default))
    (uuid 8cc7738e-406f-4a43-a26f-6666726c0e12)
  )
  (wire (pts (xy 101.6 68.58) (xy 111.76 68.58))
    (stroke (width 0) (type default))
    (uuid 9216c8fe-efaa-4f90-ad36-4333940faecf)
  )
  (wire (pts (xy 101.6 72.39) (xy 111.76 72.39))
    (stroke (width 0) (type default))
    (uuid 9f1aa53e-0bf2-4cc0-8be7-a0d7a1a5ed42)
  )
  (wire (pts (xy 153.67 99.06) (xy 156.21 99.06))
    (stroke (width 0) (type default))
    (uuid a6c65a93-0606-4ceb-93ce-c3fb9a359b81)
  )
  (wire (pts (xy 113.03 99.06) (xy 113.03 104.14))
    (stroke (width 0) (type default))
    (uuid bf939d3c-856e-46cd-808e-ee8a1c0717ed)
  )
  (wire (pts (xy 46.99 67.31) (xy 55.88 67.31))
    (stroke (width 0) (type default))
    (uuid bfe6befe-cf98-41ff-bbdf-0d2d2753b20c)
  )
  (wire (pts (xy 102.87 99.06) (xy 113.03 99.06))
    (stroke (width 0) (type default))
    (uuid c0d89ca6-6058-4d68-86a6-1f2138985708)
  )
  (wire (pts (xy 44.45 76.2) (xy 44.45 90.17))
    (stroke (width 0) (type default))
    (uuid c6180999-0729-4f13-8948-6b1733116b4c)
  )
  (wire (pts (xy 48.26 104.14) (xy 60.96 104.14))
    (stroke (width 0) (type default))
    (uuid c9ed8513-2145-4436-8d7c-0602f7606751)
  )
  (wire (pts (xy 177.8 92.71) (xy 177.8 102.87))
    (stroke (width 0) (type default))
    (uuid e3cfb738-e215-4bd2-a8c7-a142993485b3)
  )
  (wire (pts (xy 133.35 83.82) (xy 133.35 91.44))
    (stroke (width 0) (type default))
    (uuid e56d2aac-954a-4cbb-83ca-333e997a01b5)
  )
  (wire (pts (xy 48.26 100.33) (xy 60.96 100.33))
    (stroke (width 0) (type default))
    (uuid e80d3991-04a1-438e-836a-6abf737be44a)
  )
  (wire (pts (xy 39.37 73.66) (xy 48.26 73.66))
    (stroke (width 0) (type default))
    (uuid ed2ca060-f40d-43b3-bcde-455aa53eed50)
  )
  (wire (pts (xy 101.6 63.5) (xy 111.76 63.5))
    (stroke (width 0) (type default))
    (uuid f0c0aeeb-6711-4392-9380-2f6707e0ad0e)
  )
  (wire (pts (xy 179.07 54.61) (xy 179.07 59.69))
    (stroke (width 0) (type default))
    (uuid f8c02544-ec42-49cf-8e60-ec7f151646e6)
  )

  (rectangle (start 49.53 81.28) (end 74.93 95.25)
    (stroke (width 0) (type default))
    (fill (type none))
    (uuid 35a1a4ed-17f7-42dd-b661-d1079a79915f)
  )
  (rectangle (start 24.13 27.94) (end 124.46 110.49)
    (stroke (width 0) (type default))
    (fill (type none))
    (uuid 6dccc099-efc9-4938-9d53-88eae8807555)
  )
  (rectangle (start 128.27 76.2) (end 172.72 110.49)
    (stroke (width 0) (type default))
    (fill (type none))
    (uuid b5ff6c75-a884-4ea7-81f1-f752ff1603b7)
  )
  (rectangle (start 128.27 31.75) (end 210.82 71.12)
    (stroke (width 0) (type default))
    (fill (type none))
    (uuid e358a4dc-2858-4a6f-ba11-05738a75fbc5)
  )

  (text "Header Pins for Debug\n" (at 72.39 83.82 0)
    (effects (font (size 1.27 1.27)) (justify right bottom))
    (uuid 3ed7e577-4ca4-4fbe-9c18-04f073c525b0)
  )
  (text "Pins to connect to STM\n" (at 76.2 35.56 0)
    (effects (font (size 1.27 1.27)) (justify right bottom))
    (uuid 51c032d1-e607-4e50-9dc2-6594d9ef492a)
  )
  (text "EEPROM\n" (at 147.32 76.2 0)
    (effects (font (size 1.27 1.27)) (justify right bottom))
    (uuid 650366f6-303c-4d01-8dfc-fb89cf72ee41)
  )
  (text "Communications\n" (at 176.53 30.48 0)
    (effects (font (size 1.27 1.27)) (justify right bottom))
    (uuid d4f9b952-8da1-481e-837a-06f40e152ee4)
  )

  (label "PB8" (at 90.17 50.8 0) (fields_autoplaced)
    (effects (font (size 1.27 1.27)) (justify left bottom))
    (uuid 00856614-09f6-4d6f-b3ff-91cfc00644b4)
  )
  (label "PB1" (at 39.37 88.9 0) (fields_autoplaced)
    (effects (font (size 1.27 1.27)) (justify left bottom))
    (uuid 07b4b837-136b-40fb-b6b7-83aca37614de)
  )
  (label "VSS" (at 102.87 104.14 0) (fields_autoplaced)
    (effects (font (size 1.27 1.27)) (justify left bottom))
    (uuid 09056ff4-0f7b-49aa-9f7f-ee3332deb236)
  )
  (label "PA0" (at 46.99 67.31 0) (fields_autoplaced)
    (effects (font (size 1.27 1.27)) (justify left bottom))
    (uuid 0fe2447b-fdb7-4d3f-a755-e503c3860c9f)
  )
  (label "VDD" (at 187.96 106.68 0) (fields_autoplaced)
    (effects (font (size 1.27 1.27)) (justify left bottom))
    (uuid 1aa77878-e5b4-4e5d-a7a6-8ec4affc3f75)
  )
  (label "PB3" (at 101.6 72.39 0) (fields_autoplaced)
    (effects (font (size 1.27 1.27)) (justify left bottom))
    (uuid 1c6c2c94-f68c-4742-824a-9cc0391deaa5)
  )
  (label "VSSA" (at 39.37 60.96 0) (fields_autoplaced)
    (effects (font (size 1.27 1.27)) (justify left bottom))
    (uuid 20baf8be-45e5-425d-a181-cf2dce94f8ff)
  )
  (label "PA12" (at 139.7 50.8 180) (fields_autoplaced)
    (effects (font (size 1.27 1.27)) (justify right bottom))
    (uuid 29255fd4-b8e8-4b27-bcee-ac6bc4c69209)
  )
  (label "PB4" (at 101.6 68.58 0) (fields_autoplaced)
    (effects (font (size 1.27 1.27)) (justify left bottom))
    (uuid 2b70c309-9efc-46da-887a-3162ea0b597f)
  )
  (label "VSS" (at 90.17 45.72 0) (fields_autoplaced)
    (effects (font (size 1.27 1.27)) (justify left bottom))
    (uuid 2bb12a4d-f554-44b7-8a27-b72fadafbbdc)
  )
  (label "VDD" (at 187.96 88.9 0) (fields_autoplaced)
    (effects (font (size 1.27 1.27)) (justify left bottom))
    (uuid 3120979a-8713-4be4-9873-f3aa1a52515e)
  )
  (label "PA12" (at 90.17 81.28 0) (fields_autoplaced)
    (effects (font (size 1.27 1.27)) (justify left bottom))
    (uuid 32cbf73d-acbf-41c4-a8bf-4129ca81a814)
  )
  (label "D+" (at 170.18 55.88 0) (fields_autoplaced)
    (effects (font (size 1.27 1.27)) (justify left bottom))
    (uuid 34ee16a6-3d99-4eb4-9e1f-f8c540029aca)
  )
  (label "PA0" (at 39.37 66.04 0) (fields_autoplaced)
    (effects (font (size 1.27 1.27)) (justify left bottom))
    (uuid 39d10484-dd68-4d7b-9b1d-008760a3f16b)
  )
  (label "PB9" (at 90.17 48.26 0) (fields_autoplaced)
    (effects (font (size 1.27 1.27)) (justify left bottom))
    (uuid 3c11745d-bcbb-4667-86b1-0198dc5676a0)
  )
  (label "PB3" (at 90.17 66.04 0) (fields_autoplaced)
    (effects (font (size 1.27 1.27)) (justify left bottom))
    (uuid 3fbb0c95-3b32-4563-bc58-de02202c5df1)
  )
  (label "D-" (at 179.07 46.99 180) (fields_autoplaced)
    (effects (font (size 1.27 1.27)) (justify right bottom))
    (uuid 408881f2-cccd-41f5-9f75-f153fe1802a7)
  )
  (label "PB5" (at 101.6 63.5 0) (fields_autoplaced)
    (effects (font (size 1.27 1.27)) (justify left bottom))
    (uuid 45e0fa9f-2d58-4fa3-bd3b-eba34f812040)
  )
  (label "PA11" (at 139.7 48.26 180) (fields_autoplaced)
    (effects (font (size 1.27 1.27)) (justify right bottom))
    (uuid 49606f48-eb77-4405-bb41-804704aba0cf)
  )
  (label "VDDA" (at 46.99 63.5 0) (fields_autoplaced)
    (effects (font (size 1.27 1.27)) (justify left bottom))
    (uuid 4d0a6eba-13b0-4903-9b16-7bfff3c733f0)
  )
  (label "VDD" (at 90.17 43.18 0) (fields_autoplaced)
    (effects (font (size 1.27 1.27)) (justify left bottom))
    (uuid 517e0fe9-b20a-4fde-8533-4c10957ffd6b)
  )
  (label "PA11" (at 106.68 81.28 180) (fields_autoplaced)
    (effects (font (size 1.27 1.27)) (justify right bottom))
    (uuid 555fb049-2221-441c-93d4-d216271d5054)
  )
  (label "PB7" (at 90.17 55.88 0) (fields_autoplaced)
    (effects (font (size 1.27 1.27)) (justify left bottom))
    (uuid 57156e82-1072-474f-9293-8da9eac56f23)
  )
  (label "D-" (at 170.18 53.34 0) (fields_autoplaced)
    (effects (font (size 1.27 1.27)) (justify left bottom))
    (uuid 57cdaf55-4f97-4ceb-b37a-4ef6d6ea2d7f)
  )
  (label "VSS" (at 39.37 99.06 0) (fields_autoplaced)
    (effects (font (size 1.27 1.27)) (justify left bottom))
    (uuid 5bfeea7e-ace0-4b72-bd5d-60467cc9f505)
  )
  (label "D+" (at 179.07 49.53 180) (fields_autoplaced)
    (effects (font (size 1.27 1.27)) (justify right bottom))
    (uuid 6298b67a-a205-44ef-87f5-7128e50b9cea)
  )
  (label "PB4" (at 90.17 63.5 0) (fields_autoplaced)
    (effects (font (size 1.27 1.27)) (justify left bottom))
    (uuid 656b47ae-1c87-4a89-886e-43ac429108ae)
  )
  (label "VDD" (at 39.37 101.6 0) (fields_autoplaced)
    (effects (font (size 1.27 1.27)) (justify left bottom))
    (uuid 6a49d5e2-d335-4af3-9c1d-3c8c71d99711)
  )
  (label "PB5" (at 90.17 60.96 0) (fields_autoplaced)
    (effects (font (size 1.27 1.27)) (justify left bottom))
    (uuid 6ad0c28e-1645-4fad-8654-60af299d4418)
  )
  (label "PB6" (at 153.67 88.9 0) (fields_autoplaced)
    (effects (font (size 1.27 1.27)) (justify left bottom))
    (uuid 6b7f9b66-e5b6-43a6-91d2-706bbfea3ac7)
  )
  (label "VDD" (at 55.88 63.5 0) (fields_autoplaced)
    (effects (font (size 1.27 1.27)) (justify left bottom))
    (uuid 804acf33-6120-469e-8fa3-8bd26aa699a7)
  )
  (label "PB6" (at 90.17 58.42 0) (fields_autoplaced)
    (effects (font (size 1.27 1.27)) (justify left bottom))
    (uuid 868f00c1-da09-4f0d-9e66-eee4fdd06df6)
  )
  (label "PA11" (at 90.17 83.82 0) (fields_autoplaced)
    (effects (font (size 1.27 1.27)) (justify left bottom))
    (uuid 933ded13-0f6b-4ade-8b4c-7751299188be)
  )
  (label "PB9" (at 101.6 44.45 0) (fields_autoplaced)
    (effects (font (size 1.27 1.27)) (justify left bottom))
    (uuid 9999fdef-f1e8-4f92-bb95-68a3fbebf22c)
  )
  (label "PB0" (at 48.26 100.33 0) (fields_autoplaced)
    (effects (font (size 1.27 1.27)) (justify left bottom))
    (uuid 9c09aeec-4dec-4db5-b9eb-4df804fecf46)
  )
  (label "PB1" (at 48.26 104.14 0) (fields_autoplaced)
    (effects (font (size 1.27 1.27)) (justify left bottom))
    (uuid a62a7814-53dc-4dee-9768-28dd1521a2eb)
  )
  (label "PB2" (at 48.26 107.95 0) (fields_autoplaced)
    (effects (font (size 1.27 1.27)) (justify left bottom))
    (uuid c9fb56f6-4eb2-40dc-a1cd-33f6150d408d)
  )
  (label "PB0" (at 39.37 86.36 0) (fields_autoplaced)
    (effects (font (size 1.27 1.27)) (justify left bottom))
    (uuid d36d141f-0249-4c76-a2ee-e4381b21eb9b)
  )
  (label "VSSA" (at 102.87 99.06 0) (fields_autoplaced)
    (effects (font (size 1.27 1.27)) (justify left bottom))
    (uuid d4babc54-4471-4e27-8b11-e08bfbff8de5)
  )
  (label "VDDA" (at 39.37 63.5 0) (fields_autoplaced)
    (effects (font (size 1.27 1.27)) (justify left bottom))
    (uuid df5dc9aa-dddc-4253-87b5-e5a8a0940b21)
  )
  (label "PB2" (at 39.37 91.44 0) (fields_autoplaced)
    (effects (font (size 1.27 1.27)) (justify left bottom))
    (uuid eb416f2c-7915-4a08-863a-6dbc51dbff5b)
  )
  (label "PA12" (at 106.68 85.09 180) (fields_autoplaced)
    (effects (font (size 1.27 1.27)) (justify right bottom))
    (uuid ebacae5d-e2fc-421e-91dc-e3d19ae05f9d)
  )
  (label "PB8" (at 101.6 49.53 0) (fields_autoplaced)
    (effects (font (size 1.27 1.27)) (justify left bottom))
    (uuid ed8ab3d5-994e-440a-bc21-cda32ef63de7)
  )
  (label "PB7" (at 153.67 91.44 0) (fields_autoplaced)
    (effects (font (size 1.27 1.27)) (justify left bottom))
    (uuid f93eac1e-a161-418b-874f-e0cddcbedc72)
  )
  (label "VDD" (at 153.67 83.82 0) (fields_autoplaced)
    (effects (font (size 1.27 1.27)) (justify left bottom))
    (uuid fef3385b-d261-46e0-a46a-2cc2f3b6232e)
  )

  (hierarchical_label "PA0" (shape output) (at 55.88 67.31 0) (fields_autoplaced)
    (effects (font (size 1.27 1.27)) (justify left))
    (uuid 0a7ef2fb-e15c-4d4f-bce9-c2537dff5263)
  )
  (hierarchical_label "PB2" (shape output) (at 60.96 107.95 0) (fields_autoplaced)
    (effects (font (size 1.27 1.27)) (justify left))
    (uuid 4454171f-bf4e-468c-ba3b-0948bab62943)
  )
  (hierarchical_label "PB0" (shape output) (at 60.96 100.33 0) (fields_autoplaced)
    (effects (font (size 1.27 1.27)) (justify left))
    (uuid 514872c2-f99c-428a-ad85-dc36fda047fa)
  )
  (hierarchical_label "PA12" (shape output) (at 111.76 85.09 0) (fields_autoplaced)
    (effects (font (size 1.27 1.27)) (justify left))
    (uuid 5c3e6114-96a4-4b6f-b8bf-d60214e47070)
  )
  (hierarchical_label "PB8" (shape output) (at 111.76 49.53 0) (fields_autoplaced)
    (effects (font (size 1.27 1.27)) (justify left))
    (uuid 63d418ed-d986-45e7-bdd9-97713cb4667f)
  )
  (hierarchical_label "GND" (shape input) (at 195.58 82.55 0) (fields_autoplaced)
    (effects (font (size 1.27 1.27)) (justify left))
    (uuid 6d560e0e-80ad-47ca-94a8-b7045652246f)
  )
  (hierarchical_label "PA11" (shape output) (at 111.76 81.28 0) (fields_autoplaced)
    (effects (font (size 1.27 1.27)) (justify left))
    (uuid 8dffe60a-bef1-4634-80f8-ccdfb9aeadf8)
  )
  (hierarchical_label "PB9" (shape output) (at 111.76 44.45 0) (fields_autoplaced)
    (effects (font (size 1.27 1.27)) (justify left))
    (uuid 918faacd-9a39-443a-a77c-cdd6c8475649)
  )
  (hierarchical_label "PB3" (shape output) (at 111.76 72.39 0) (fields_autoplaced)
    (effects (font (size 1.27 1.27)) (justify left))
    (uuid a3b38940-ea10-4c36-9408-4d0e464182bb)
  )
  (hierarchical_label "PB1" (shape output) (at 60.96 104.14 0) (fields_autoplaced)
    (effects (font (size 1.27 1.27)) (justify left))
    (uuid a429fbbe-4cc3-4e5c-bb02-5ebcc997f9f2)
  )
  (hierarchical_label "3v3" (shape input) (at 194.31 88.9 0) (fields_autoplaced)
    (effects (font (size 1.27 1.27)) (justify left))
    (uuid d00a6d7e-e75e-45e1-8331-b311842b8d65)
  )
  (hierarchical_label "PB5" (shape output) (at 111.76 63.5 0) (fields_autoplaced)
    (effects (font (size 1.27 1.27)) (justify left))
    (uuid d0c47df9-b849-4aa0-916a-245aae8a1b2b)
  )
  (hierarchical_label "PB4" (shape output) (at 111.76 68.58 0) (fields_autoplaced)
    (effects (font (size 1.27 1.27)) (justify left))
    (uuid e668337d-7fe0-4b8c-b038-a08efe1505aa)
  )
  (hierarchical_label "5V" (shape input) (at 195.58 77.47 0) (fields_autoplaced)
    (effects (font (size 1.27 1.27)) (justify left))
    (uuid f18683e2-e35c-46f1-b58f-8b8c9cdd2be6)
  )

  (symbol (lib_id "power:+5V") (at 195.58 77.47 90) (unit 1)
    (in_bom yes) (on_board yes) (dnp no) (fields_autoplaced)
    (uuid 115791a8-4485-418e-b24b-c787ff1bdf6a)
    (property "Reference" "#PWR013" (at 199.39 77.47 0)
      (effects (font (size 1.27 1.27)) hide)
    )
    (property "Value" "+5V" (at 191.77 78.105 90)
      (effects (font (size 1.27 1.27)) (justify left))
    )
    (property "Footprint" "" (at 195.58 77.47 0)
      (effects (font (size 1.27 1.27)) hide)
    )
    (property "Datasheet" "" (at 195.58 77.47 0)
      (effects (font (size 1.27 1.27)) hide)
    )
    (pin "1" (uuid 118d1260-03a5-4a3c-9c84-8dab5ebb9a4c))
    (instances
      (project "EEE3088F_Proj"
        (path "/f523ed7a-5296-4d26-9011-c5e23571cbe4/b1a0767b-28ab-47ae-aab2-03717e06a303"
          (reference "#PWR013") (unit 1)
        )
      )
    )
  )

  (symbol (lib_id "MySymbols:FT234XD-R") (at 154.94 53.34 0) (unit 1)
    (in_bom yes) (on_board yes) (dnp no) (fields_autoplaced)
    (uuid 1410b5a2-2695-48c6-a631-2eb6a71883f4)
    (property "Reference" "U4" (at 154.94 36.83 0)
      (effects (font (size 1.27 1.27)))
    )
    (property "Value" "FT234XD-R" (at 154.94 39.37 0)
      (effects (font (size 1.27 1.27)))
    )
    (property "Footprint" "SON45P300X300X80-13N:SON45P300X300X80-13N" (at 154.94 53.34 0)
      (effects (font (size 1.27 1.27)) (justify bottom) hide)
    )
    (property "Datasheet" "" (at 154.94 53.34 0)
      (effects (font (size 1.27 1.27)) hide)
    )
    (property "STANDARD" "IPC-7351B" (at 154.94 53.34 0)
      (effects (font (size 1.27 1.27)) (justify bottom) hide)
    )
    (property "MAXIMUM_PACKAGE_HEIGHT" "0.8mm" (at 154.94 53.34 0)
      (effects (font (size 1.27 1.27)) (justify bottom) hide)
    )
    (property "MANUFACTURER" "FTDI" (at 154.94 53.34 0)
      (effects (font (size 1.27 1.27)) (justify bottom) hide)
    )
    (property "PARTREV" "Version 1.2" (at 154.94 53.34 0)
      (effects (font (size 1.27 1.27)) (justify bottom) hide)
    )
    (property "Extended" "1" (at 154.94 53.34 0)
      (effects (font (size 1.27 1.27)) hide)
    )
    (property "Popluate" "1" (at 154.94 53.34 0)
      (effects (font (size 1.27 1.27)) hide)
    )
    (property "JLCPCB" "C132158" (at 154.94 53.34 0)
      (effects (font (size 1.27 1.27)) hide)
    )
    (property "Price" "2,448" (at 154.94 53.34 0)
      (effects (font (size 1.27 1.27)) hide)
    )
    (pin "1" (uuid 7376e4ec-ae85-4179-9b03-8b15959a0a4c))
    (pin "10" (uuid 9eb58919-ef4e-42d0-9664-e22b4972c236))
    (pin "11" (uuid 607785f1-6552-443f-ae9f-caeeadd58745))
    (pin "12" (uuid 140ed09a-3c04-4ae4-a44f-a621cb63f5fa))
    (pin "13" (uuid 934a1bec-cb8f-4c35-9ae0-789eb508a3c5))
    (pin "2" (uuid 64bc9509-971b-4b06-8fa7-dbe0067e5176))
    (pin "3" (uuid 1dd846ca-d9cd-450d-b294-8fa2327a946b))
    (pin "4" (uuid e867c59b-2887-4717-ab16-01b67e05fcc1))
    (pin "5" (uuid 37798ec7-76c4-425c-a0e6-b5af66ff9a6e))
    (pin "6" (uuid 4100cf9a-4248-4e72-b07c-30a167a67ea2))
    (pin "7" (uuid df956439-8b0c-49e2-a144-4c3b151b4a77))
    (pin "8" (uuid 55d27bbb-1431-4801-8086-65ceb24a2cd4))
    (pin "9" (uuid 89049499-927b-4d43-86a7-919854c4c1ba))
    (instances
      (project "EEE3088F_Proj"
        (path "/f523ed7a-5296-4d26-9011-c5e23571cbe4/b1a0767b-28ab-47ae-aab2-03717e06a303"
          (reference "U4") (unit 1)
        )
      )
    )
  )

  (symbol (lib_id "Connector_Generic:Conn_01x02") (at 60.96 87.63 0) (unit 1)
    (in_bom yes) (on_board yes) (dnp no)
    (uuid 15af0b99-ba0c-49fa-9041-b8a71e7499f9)
    (property "Reference" "J8" (at 63.5 88.265 0)
      (effects (font (size 1.27 1.27)) (justify left))
    )
    (property "Value" "Conn_01x02" (at 63.5 90.805 0)
      (effects (font (size 1.27 1.27)) (justify left))
    )
    (property "Footprint" "Connector_PinSocket_2.54mm:PinSocket_1x02_P2.54mm_Vertical" (at 60.96 87.63 0)
      (effects (font (size 1.27 1.27)) hide)
    )
    (property "Datasheet" "~" (at 60.96 87.63 0)
      (effects (font (size 1.27 1.27)) hide)
    )
    (property "Extended" "" (at 60.96 87.63 0)
      (effects (font (size 1.27 1.27)) hide)
    )
    (property "Popluate" "0" (at 60.96 87.63 0)
      (effects (font (size 1.27 1.27)) hide)
    )
    (pin "1" (uuid a0609339-62f0-4ca2-95b3-6e1843260851))
    (pin "2" (uuid 094ee395-8950-4c27-bea1-8e7813835493))
    (instances
      (project "EEE3088F_Proj"
        (path "/f523ed7a-5296-4d26-9011-c5e23571cbe4/b1a0767b-28ab-47ae-aab2-03717e06a303"
          (reference "J8") (unit 1)
        )
      )
    )
  )

  (symbol (lib_id "power:GND") (at 179.07 59.69 0) (unit 1)
    (in_bom yes) (on_board yes) (dnp no) (fields_autoplaced)
    (uuid 1639dda9-df93-47aa-87c9-c950624cb4ce)
    (property "Reference" "#PWR012" (at 179.07 66.04 0)
      (effects (font (size 1.27 1.27)) hide)
    )
    (property "Value" "GND" (at 179.07 64.77 0)
      (effects (font (size 1.27 1.27)))
    )
    (property "Footprint" "" (at 179.07 59.69 0)
      (effects (font (size 1.27 1.27)) hide)
    )
    (property "Datasheet" "" (at 179.07 59.69 0)
      (effects (font (size 1.27 1.27)) hide)
    )
    (pin "1" (uuid 9033834d-a7de-418f-bd19-f63f8b30f7b3))
    (instances
      (project "EEE3088F_Proj"
        (path "/f523ed7a-5296-4d26-9011-c5e23571cbe4/b1a0767b-28ab-47ae-aab2-03717e06a303"
          (reference "#PWR012") (unit 1)
        )
      )
    )
  )

  (symbol (lib_id "power:GND") (at 170.18 60.96 0) (unit 1)
    (in_bom yes) (on_board yes) (dnp no) (fields_autoplaced)
    (uuid 4bdd7915-fb80-40b1-ad00-df9241e1c4e9)
    (property "Reference" "#PWR010" (at 170.18 67.31 0)
      (effects (font (size 1.27 1.27)) hide)
    )
    (property "Value" "GND" (at 170.18 66.04 0)
      (effects (font (size 1.27 1.27)))
    )
    (property "Footprint" "" (at 170.18 60.96 0)
      (effects (font (size 1.27 1.27)) hide)
    )
    (property "Datasheet" "" (at 170.18 60.96 0)
      (effects (font (size 1.27 1.27)) hide)
    )
    (pin "1" (uuid e0d38dd2-96c0-4f06-8f07-4f4269da2ac0))
    (instances
      (project "EEE3088F_Proj"
        (path "/f523ed7a-5296-4d26-9011-c5e23571cbe4/b1a0767b-28ab-47ae-aab2-03717e06a303"
          (reference "#PWR010") (unit 1)
        )
      )
    )
  )

  (symbol (lib_id "power:+5V") (at 179.07 44.45 0) (unit 1)
    (in_bom yes) (on_board yes) (dnp no) (fields_autoplaced)
    (uuid 62e3da29-dcc5-4b96-92ad-97bb234cd1ff)
    (property "Reference" "#PWR011" (at 179.07 48.26 0)
      (effects (font (size 1.27 1.27)) hide)
    )
    (property "Value" "+5V" (at 179.07 40.64 0)
      (effects (font (size 1.27 1.27)))
    )
    (property "Footprint" "" (at 179.07 44.45 0)
      (effects (font (size 1.27 1.27)) hide)
    )
    (property "Datasheet" "" (at 179.07 44.45 0)
      (effects (font (size 1.27 1.27)) hide)
    )
    (pin "1" (uuid a7a772d5-1d3c-4485-8288-0a6bcc719869))
    (instances
      (project "EEE3088F_Proj"
        (path "/f523ed7a-5296-4d26-9011-c5e23571cbe4/b1a0767b-28ab-47ae-aab2-03717e06a303"
          (reference "#PWR011") (unit 1)
        )
      )
    )
  )

  (symbol (lib_id "MySymbols:AT24C256C-SSHL-T") (at 143.51 91.44 0) (unit 1)
    (in_bom yes) (on_board yes) (dnp no) (fields_autoplaced)
    (uuid 7ebb2999-5aef-4a55-918d-37ffc6aded1b)
    (property "Reference" "U5" (at 143.51 77.47 0)
      (effects (font (size 1.27 1.27)))
    )
    (property "Value" "AT24C256C-SSHL-T" (at 143.51 80.01 0)
      (effects (font (size 1.27 1.27)))
    )
    (property "Footprint" "SOIC127P600X175-8N:SOIC127P600X175-8N" (at 143.51 91.44 0)
      (effects (font (size 1.27 1.27)) (justify bottom) hide)
    )
    (property "Datasheet" "" (at 143.51 91.44 0)
      (effects (font (size 1.27 1.27)) hide)
    )
    (property "MANUFACTURER" "Atmel" (at 143.51 91.44 0)
      (effects (font (size 1.27 1.27)) (justify bottom) hide)
    )
    (property "Extended" "" (at 143.51 91.44 0)
      (effects (font (size 1.27 1.27)) hide)
    )
    (property "Popluate" "1" (at 143.51 91.44 0)
      (effects (font (size 1.27 1.27)) hide)
    )
    (property "JLCPCB" "C6482" (at 143.51 91.44 0)
      (effects (font (size 1.27 1.27)) hide)
    )
    (property "Price" "0,5172" (at 143.51 91.44 0)
      (effects (font (size 1.27 1.27)) hide)
    )
    (pin "1" (uuid 2fe369af-9b29-41fb-aac6-6bcafe45fb60))
    (pin "2" (uuid d5fbf7ed-dde6-44b6-92d9-e80a8453d42b))
    (pin "3" (uuid 21cd70e3-dd3a-4d91-8874-c16b35ef612b))
    (pin "4" (uuid 3ef6231c-a460-4c01-8c94-7a878e83489a))
    (pin "5" (uuid a19732f9-6190-418c-a441-e147a0ae9799))
    (pin "6" (uuid 83d94332-76b7-419b-9bcd-90b8a1346cb9))
    (pin "7" (uuid 738b5ff7-193a-4737-ba0e-cbd113fc53f8))
    (pin "8" (uuid 1707c5f8-0576-4dfb-9c50-14b86b12e189))
    (instances
      (project "EEE3088F_Proj"
        (path "/f523ed7a-5296-4d26-9011-c5e23571cbe4/b1a0767b-28ab-47ae-aab2-03717e06a303"
          (reference "U5") (unit 1)
        )
      )
    )
  )

  (symbol (lib_id "power:GND") (at 195.58 82.55 270) (unit 1)
    (in_bom yes) (on_board yes) (dnp no) (fields_autoplaced)
    (uuid 7faf35eb-a7d9-452f-80a2-dbb308f90a45)
    (property "Reference" "#PWR014" (at 189.23 82.55 0)
      (effects (font (size 1.27 1.27)) hide)
    )
    (property "Value" "GND" (at 191.77 83.185 90)
      (effects (font (size 1.27 1.27)) (justify right))
    )
    (property "Footprint" "" (at 195.58 82.55 0)
      (effects (font (size 1.27 1.27)) hide)
    )
    (property "Datasheet" "" (at 195.58 82.55 0)
      (effects (font (size 1.27 1.27)) hide)
    )
    (pin "1" (uuid dfa88bfb-c874-4263-8bfd-38a4da8e10bc))
    (instances
      (project "EEE3088F_Proj"
        (path "/f523ed7a-5296-4d26-9011-c5e23571cbe4/b1a0767b-28ab-47ae-aab2-03717e06a303"
          (reference "#PWR014") (unit 1)
        )
      )
    )
  )

  (symbol (lib_id "Connector:Conn_01x24_Pin") (at 85.09 71.12 0) (unit 1)
    (in_bom yes) (on_board yes) (dnp no)
    (uuid 80145dd4-33ed-40c6-ad4b-cd83fecb8bb3)
    (property "Reference" "J9" (at 90.17 34.29 0)
      (effects (font (size 1.27 1.27)))
    )
    (property "Value" "Conn_01x24_Pin" (at 90.17 36.83 0)
      (effects (font (size 1.27 1.27)))
    )
    (property "Footprint" "Connector_PinSocket_2.54mm:PinSocket_1x24_P2.54mm_Vertical" (at 85.09 71.12 0)
      (effects (font (size 1.27 1.27)) hide)
    )
    (property "Datasheet" "~" (at 85.09 71.12 0)
      (effects (font (size 1.27 1.27)) hide)
    )
    (property "Popluate" "0" (at 85.09 71.12 0)
      (effects (font (size 1.27 1.27)) hide)
    )
    (pin "1" (uuid 2b87acf6-7271-4d25-bcc5-c57f4ab99707))
    (pin "10" (uuid 836ba09b-bc25-4a68-9779-3d96efa38043))
    (pin "11" (uuid 6e960063-2b95-4724-af53-247e8f136f4e))
    (pin "12" (uuid 93d15861-ecb0-471f-99cb-6894e68251a6))
    (pin "13" (uuid e8c14a44-db96-4542-86e0-4d2b868525dc))
    (pin "14" (uuid 9b064b23-1576-47f0-86d5-b6ce9df49c03))
    (pin "15" (uuid 2300998f-8ec8-445d-9316-964c20e67cce))
    (pin "16" (uuid 1994e197-9f45-44d3-b489-607f200a6032))
    (pin "17" (uuid 68bfc11a-58b1-4450-936b-1c4943d1c176))
    (pin "18" (uuid 10639df0-ac51-4661-b9b8-c4632332a0e1))
    (pin "19" (uuid b8c9848b-c835-48c0-bbc2-c1777a16be7a))
    (pin "2" (uuid ca51ec00-d225-4c49-9357-1ae2f479db0b))
    (pin "20" (uuid a09c27d0-78e4-4f73-b824-04ffad277929))
    (pin "21" (uuid 5a48a166-a784-48be-8978-90e9bc916cae))
    (pin "22" (uuid 69619e92-13ac-40ab-bbb8-38645983a54b))
    (pin "23" (uuid 7c0126e1-eaf9-479e-aa7a-83b121916945))
    (pin "24" (uuid 13f32d40-a967-415f-9c16-13bc7119c3ba))
    (pin "3" (uuid ad804438-922e-44a9-a242-3006662bf1c9))
    (pin "4" (uuid 5dacef0f-854c-4e29-80d0-7d13c42555bd))
    (pin "5" (uuid 56b79057-04c6-40a5-978e-8676271c0685))
    (pin "6" (uuid 31e2b01a-0482-4fc8-bc0a-34110a2824a0))
    (pin "7" (uuid 9511905e-100b-4c42-82f4-4fc5f3afa954))
    (pin "8" (uuid be40e89c-d0f6-464a-b5bc-5413bc446327))
    (pin "9" (uuid c55a79e5-6ac0-49bb-90eb-ea58a30c37e0))
    (instances
      (project "EEE3088F_Proj"
        (path "/f523ed7a-5296-4d26-9011-c5e23571cbe4/b1a0767b-28ab-47ae-aab2-03717e06a303"
          (reference "J9") (unit 1)
        )
      )
    )
  )

  (symbol (lib_id "power:+5V") (at 177.8 102.87 180) (unit 1)
    (in_bom yes) (on_board yes) (dnp no) (fields_autoplaced)
    (uuid a21fce2f-0829-477c-983a-8b8e30f21cc0)
    (property "Reference" "#PWR024" (at 177.8 99.06 0)
      (effects (font (size 1.27 1.27)) hide)
    )
    (property "Value" "+5V" (at 177.8 107.95 0)
      (effects (font (size 1.27 1.27)))
    )
    (property "Footprint" "" (at 177.8 102.87 0)
      (effects (font (size 1.27 1.27)) hide)
    )
    (property "Datasheet" "" (at 177.8 102.87 0)
      (effects (font (size 1.27 1.27)) hide)
    )
    (pin "1" (uuid 89426020-cc35-4fa6-89f4-f56bd7a7ecf2))
    (instances
      (project "EEE3088F_Proj"
        (path "/f523ed7a-5296-4d26-9011-c5e23571cbe4/b1a0767b-28ab-47ae-aab2-03717e06a303"
          (reference "#PWR024") (unit 1)
        )
      )
    )
  )

  (symbol (lib_id "power:PWR_FLAG") (at 187.96 97.79 0) (unit 1)
    (in_bom yes) (on_board yes) (dnp no)
    (uuid a3eaca16-b07d-4871-bd2e-2617532a8336)
    (property "Reference" "#FLG02" (at 187.96 95.885 0)
      (effects (font (size 1.27 1.27)) hide)
    )
    (property "Value" "PWR_FLAG" (at 187.96 93.98 0)
      (effects (font (size 1.27 1.27)))
    )
    (property "Footprint" "" (at 187.96 97.79 0)
      (effects (font (size 1.27 1.27)) hide)
    )
    (property "Datasheet" "~" (at 187.96 97.79 0)
      (effects (font (size 1.27 1.27)) hide)
    )
    (pin "1" (uuid 62777181-46a2-4aa7-9afa-3d310de58d3b))
    (instances
      (project "EEE3088F_Proj"
        (path "/f523ed7a-5296-4d26-9011-c5e23571cbe4/b1a0767b-28ab-47ae-aab2-03717e06a303"
          (reference "#FLG02") (unit 1)
        )
      )
    )
  )

  (symbol (lib_id "power:GND") (at 133.35 104.14 0) (unit 1)
    (in_bom yes) (on_board yes) (dnp no) (fields_autoplaced)
    (uuid b0f24e8c-9b71-4818-8a3b-d5c5cb904258)
    (property "Reference" "#PWR08" (at 133.35 110.49 0)
      (effects (font (size 1.27 1.27)) hide)
    )
    (property "Value" "GND" (at 133.35 109.22 0)
      (effects (font (size 1.27 1.27)))
    )
    (property "Footprint" "" (at 133.35 104.14 0)
      (effects (font (size 1.27 1.27)) hide)
    )
    (property "Datasheet" "" (at 133.35 104.14 0)
      (effects (font (size 1.27 1.27)) hide)
    )
    (pin "1" (uuid 95f84771-44d5-4b56-9636-2181683c1e8d))
    (instances
      (project "EEE3088F_Proj"
        (path "/f523ed7a-5296-4d26-9011-c5e23571cbe4/b1a0767b-28ab-47ae-aab2-03717e06a303"
          (reference "#PWR08") (unit 1)
        )
      )
    )
  )

  (symbol (lib_id "power:PWR_FLAG") (at 177.8 92.71 0) (unit 1)
    (in_bom yes) (on_board yes) (dnp no) (fields_autoplaced)
    (uuid c0694b81-68b0-46b4-b456-8fa39af2c9b1)
    (property "Reference" "#FLG03" (at 177.8 90.805 0)
      (effects (font (size 1.27 1.27)) hide)
    )
    (property "Value" "PWR_FLAG" (at 177.8 88.9 0)
      (effects (font (size 1.27 1.27)))
    )
    (property "Footprint" "" (at 177.8 92.71 0)
      (effects (font (size 1.27 1.27)) hide)
    )
    (property "Datasheet" "~" (at 177.8 92.71 0)
      (effects (font (size 1.27 1.27)) hide)
    )
    (pin "1" (uuid 903427c8-862d-474d-a665-aa31b5e98758))
    (instances
      (project "EEE3088F_Proj"
        (path "/f523ed7a-5296-4d26-9011-c5e23571cbe4/b1a0767b-28ab-47ae-aab2-03717e06a303"
          (reference "#FLG03") (unit 1)
        )
      )
    )
  )

  (symbol (lib_id "power:PWR_FLAG") (at 156.21 97.79 0) (unit 1)
    (in_bom yes) (on_board yes) (dnp no) (fields_autoplaced)
    (uuid c9ba1034-4ff4-4e78-ae5a-8770eb5456a6)
    (property "Reference" "#FLG04" (at 156.21 95.885 0)
      (effects (font (size 1.27 1.27)) hide)
    )
    (property "Value" "PWR_FLAG" (at 156.21 93.98 0)
      (effects (font (size 1.27 1.27)))
    )
    (property "Footprint" "" (at 156.21 97.79 0)
      (effects (font (size 1.27 1.27)) hide)
    )
    (property "Datasheet" "~" (at 156.21 97.79 0)
      (effects (font (size 1.27 1.27)) hide)
    )
    (pin "1" (uuid 901c7256-4598-4817-9473-d57fbe417b1c))
    (instances
      (project "EEE3088F_Proj"
        (path "/f523ed7a-5296-4d26-9011-c5e23571cbe4/b1a0767b-28ab-47ae-aab2-03717e06a303"
          (reference "#FLG04") (unit 1)
        )
      )
    )
  )

  (symbol (lib_id "power:GND") (at 113.03 104.14 0) (unit 1)
    (in_bom yes) (on_board yes) (dnp no) (fields_autoplaced)
    (uuid cf3ecab3-2a8f-46ae-b9cb-dc853905a1eb)
    (property "Reference" "#PWR07" (at 113.03 110.49 0)
      (effects (font (size 1.27 1.27)) hide)
    )
    (property "Value" "GND" (at 113.03 109.22 0)
      (effects (font (size 1.27 1.27)))
    )
    (property "Footprint" "" (at 113.03 104.14 0)
      (effects (font (size 1.27 1.27)) hide)
    )
    (property "Datasheet" "" (at 113.03 104.14 0)
      (effects (font (size 1.27 1.27)) hide)
    )
    (pin "1" (uuid 87abba3e-3a52-453a-a8e4-cb982009abae))
    (instances
      (project "EEE3088F_Proj"
        (path "/f523ed7a-5296-4d26-9011-c5e23571cbe4/b1a0767b-28ab-47ae-aab2-03717e06a303"
          (reference "#PWR07") (unit 1)
        )
      )
    )
  )

  (symbol (lib_id "power:+5V") (at 170.18 43.18 0) (unit 1)
    (in_bom yes) (on_board yes) (dnp no) (fields_autoplaced)
    (uuid dca4dd1c-19c7-42e4-ac40-3847ff72376f)
    (property "Reference" "#PWR09" (at 170.18 46.99 0)
      (effects (font (size 1.27 1.27)) hide)
    )
    (property "Value" "+5V" (at 170.18 39.37 0)
      (effects (font (size 1.27 1.27)))
    )
    (property "Footprint" "" (at 170.18 43.18 0)
      (effects (font (size 1.27 1.27)) hide)
    )
    (property "Datasheet" "" (at 170.18 43.18 0)
      (effects (font (size 1.27 1.27)) hide)
    )
    (pin "1" (uuid 4fc5521c-ae64-4a00-8611-276b54d579f8))
    (instances
      (project "EEE3088F_Proj"
        (path "/f523ed7a-5296-4d26-9011-c5e23571cbe4/b1a0767b-28ab-47ae-aab2-03717e06a303"
          (reference "#PWR09") (unit 1)
        )
      )
    )
  )

  (symbol (lib_id "MySymbols:MICROXNJ") (at 189.23 52.07 0) (unit 1)
    (in_bom yes) (on_board yes) (dnp no) (fields_autoplaced)
    (uuid de54d865-fa65-4c31-9f9a-af61d20fd72d)
    (property "Reference" "J10" (at 195.58 51.435 0)
      (effects (font (size 1.27 1.27)) (justify left))
    )
    (property "Value" "MICROXNJ" (at 195.58 53.975 0)
      (effects (font (size 1.27 1.27)) (justify left))
    )
    (property "Footprint" "SHOUHAN_MICROXNJ:SHOUHAN_MICROXNJ" (at 189.23 52.07 0)
      (effects (font (size 1.27 1.27)) (justify bottom) hide)
    )
    (property "Datasheet" "" (at 189.23 52.07 0)
      (effects (font (size 1.27 1.27)) hide)
    )
    (property "STANDARD" "Manufacturer Recommendations" (at 189.23 52.07 0)
      (effects (font (size 1.27 1.27)) (justify bottom) hide)
    )
    (property "MAXIMUM_PACKAGE_HEIGHT" "3mm" (at 189.23 52.07 0)
      (effects (font (size 1.27 1.27)) (justify bottom) hide)
    )
    (property "PARTREV" "A" (at 189.23 52.07 0)
      (effects (font (size 1.27 1.27)) (justify bottom) hide)
    )
    (property "MANUFACTURER" "SHOUHAN" (at 189.23 52.07 0)
      (effects (font (size 1.27 1.27)) (justify bottom) hide)
    )
    (property "Extended" "1" (at 189.23 52.07 0)
      (effects (font (size 1.27 1.27)) hide)
    )
    (property "Popluate" "1" (at 189.23 52.07 0)
      (effects (font (size 1.27 1.27)) hide)
    )
    (property "JLCPCB" "C404969" (at 189.23 52.07 0)
      (effects (font (size 1.27 1.27)) hide)
    )
    (property "Price" "0,0333" (at 189.23 52.07 0)
      (effects (font (size 1.27 1.27)) hide)
    )
    (pin "1" (uuid c621e70a-4f47-4257-b101-1fc0fb8b3408))
    (pin "2" (uuid f3b5de40-ba5f-486b-858b-7af8d1c1956c))
    (pin "3" (uuid 4057154c-02da-431e-b9ca-7d7dfd29ecbe))
    (pin "4" (uuid d8b0e3c7-962b-424a-9c8a-82f0f2e13437))
    (pin "5" (uuid ecc87459-308e-47b8-a5b2-33505e1f7408))
    (pin "S1" (uuid 5202178b-b728-47ab-96f8-c5b9d746e5ce))
    (pin "S2" (uuid 3415179b-eb9a-486e-a9e4-99038550e4e3))
    (pin "S3" (uuid 695ebcb2-5e7d-4047-9b00-656ba5748fc5))
    (pin "S4" (uuid 54dcc9c6-5db9-481f-9433-0d6e9612ce36))
    (pin "S5" (uuid a9d8646a-0e40-4c75-b509-e44e98eec9b5))
    (pin "S6" (uuid 6ed11524-08e5-43b9-88a7-134ca3433155))
    (instances
      (project "EEE3088F_Proj"
        (path "/f523ed7a-5296-4d26-9011-c5e23571cbe4/b1a0767b-28ab-47ae-aab2-03717e06a303"
          (reference "J10") (unit 1)
        )
      )
    )
  )

  (symbol (lib_id "Connector:Conn_01x24_Pin") (at 34.29 71.12 0) (unit 1)
    (in_bom yes) (on_board yes) (dnp no)
    (uuid f2d5926d-ba7a-441e-b19f-1523cbbb39d2)
    (property "Reference" "J7" (at 35.56 35.56 0)
      (effects (font (size 1.27 1.27)))
    )
    (property "Value" "Conn_01x24_Pin" (at 35.56 38.1 0)
      (effects (font (size 1.27 1.27)))
    )
    (property "Footprint" "Connector_PinSocket_2.54mm:PinSocket_1x24_P2.54mm_Vertical" (at 34.29 71.12 0)
      (effects (font (size 1.27 1.27)) hide)
    )
    (property "Datasheet" "~" (at 34.29 71.12 0)
      (effects (font (size 1.27 1.27)) hide)
    )
    (property "Popluate" "0" (at 34.29 71.12 0)
      (effects (font (size 1.27 1.27)) hide)
    )
    (pin "1" (uuid fbc6e807-adc8-42fe-9967-ca9d75195cb9))
    (pin "10" (uuid 86a74d2b-aebd-4a9c-8256-91a1c73c37ce))
    (pin "11" (uuid c4f689d5-c2b9-4edf-a36a-c78f6d79838c))
    (pin "12" (uuid 0bcb61e3-3be9-4e11-b5c7-2adf106b9068))
    (pin "13" (uuid e70ed36b-bae8-4274-b92d-ec2f6b47afa2))
    (pin "14" (uuid bcb7b620-378e-4f27-9379-cd5c1551d1ce))
    (pin "15" (uuid c2c5f3b8-12b6-44b1-a988-0e8b8a6dd87c))
    (pin "16" (uuid c175172d-e2f5-48b1-8e8d-fe1f6f0d4a85))
    (pin "17" (uuid e5b36173-aa8a-4d66-8259-0234da3b1b67))
    (pin "18" (uuid f5f91ab8-d2f3-4379-b31e-c69769b3039c))
    (pin "19" (uuid 32c2d724-15d2-42c3-9fff-43e81e71fd8e))
    (pin "2" (uuid 0107f466-a556-4067-9106-0c78c15b814e))
    (pin "20" (uuid fc802e11-3d46-490a-80c2-46c50f5a46f4))
    (pin "21" (uuid 50a2b11d-d444-4deb-a792-4f9df94ed4e5))
    (pin "22" (uuid 046cd220-debe-44a8-973a-90589afbac8d))
    (pin "23" (uuid 72d5f5f3-b87a-420a-b4ae-2492b4f4fc72))
    (pin "24" (uuid 6da68816-d48f-4477-ad07-5f1106ab19ae))
    (pin "3" (uuid 3db76b8e-dbb9-4021-8f84-ea5895b46614))
    (pin "4" (uuid dbfa8f5d-9186-4061-8317-1433a6f89921))
    (pin "5" (uuid e8e34190-c91f-4edc-85c6-ea7ed3cb0ab0))
    (pin "6" (uuid 57460403-f426-4359-873c-be2bd93bd4ab))
    (pin "7" (uuid 1bac9d36-9b48-438f-a37d-581418a9b841))
    (pin "8" (uuid a454f483-bc42-4373-892c-6a40437d36c7))
    (pin "9" (uuid a3f81c40-9aab-4205-b2d8-a5f76bc50005))
    (instances
      (project "EEE3088F_Proj"
        (path "/f523ed7a-5296-4d26-9011-c5e23571cbe4/b1a0767b-28ab-47ae-aab2-03717e06a303"
          (reference "J7") (unit 1)
        )
      )
    )
  )
)
