(kicad_sch (version 20230121) (generator eeschema)

  (uuid 97701437-29db-41d0-a372-827fa98e4b32)

  (paper "A4")

  (title_block
    (title "Sensing Subsystem")
    (date "2023-03-19")
    (rev "1.1.2")
    (company "By Md Shaihan Islam")
    (comment 1 "Group 29")
  )

  (lib_symbols
    (symbol "Device:C_Polarized_Small_US" (pin_numbers hide) (pin_names (offset 0.254) hide) (in_bom yes) (on_board yes)
      (property "Reference" "C" (at 0.254 1.778 0)
        (effects (font (size 1.27 1.27)) (justify left))
      )
      (property "Value" "C_Polarized_Small_US" (at 0.254 -2.032 0)
        (effects (font (size 1.27 1.27)) (justify left))
      )
      (property "Footprint" "" (at 0 0 0)
        (effects (font (size 1.27 1.27)) hide)
      )
      (property "Datasheet" "~" (at 0 0 0)
        (effects (font (size 1.27 1.27)) hide)
      )
      (property "ki_keywords" "cap capacitor" (at 0 0 0)
        (effects (font (size 1.27 1.27)) hide)
      )
      (property "ki_description" "Polarized capacitor, small US symbol" (at 0 0 0)
        (effects (font (size 1.27 1.27)) hide)
      )
      (property "ki_fp_filters" "CP_*" (at 0 0 0)
        (effects (font (size 1.27 1.27)) hide)
      )
      (symbol "C_Polarized_Small_US_0_1"
        (polyline
          (pts
            (xy -1.524 0.508)
            (xy 1.524 0.508)
          )
          (stroke (width 0.3048) (type default))
          (fill (type none))
        )
        (polyline
          (pts
            (xy -1.27 1.524)
            (xy -0.762 1.524)
          )
          (stroke (width 0) (type default))
          (fill (type none))
        )
        (polyline
          (pts
            (xy -1.016 1.27)
            (xy -1.016 1.778)
          )
          (stroke (width 0) (type default))
          (fill (type none))
        )
        (arc (start 1.524 -0.762) (mid 0 -0.3734) (end -1.524 -0.762)
          (stroke (width 0.3048) (type default))
          (fill (type none))
        )
      )
      (symbol "C_Polarized_Small_US_1_1"
        (pin passive line (at 0 2.54 270) (length 2.032)
          (name "~" (effects (font (size 1.27 1.27))))
          (number "1" (effects (font (size 1.27 1.27))))
        )
        (pin passive line (at 0 -2.54 90) (length 2.032)
          (name "~" (effects (font (size 1.27 1.27))))
          (number "2" (effects (font (size 1.27 1.27))))
        )
      )
    )
    (symbol "Device:R_Small_US" (pin_numbers hide) (pin_names (offset 0.254) hide) (in_bom yes) (on_board yes)
      (property "Reference" "R" (at 0.762 0.508 0)
        (effects (font (size 1.27 1.27)) (justify left))
      )
      (property "Value" "R_Small_US" (at 0.762 -1.016 0)
        (effects (font (size 1.27 1.27)) (justify left))
      )
      (property "Footprint" "" (at 0 0 0)
        (effects (font (size 1.27 1.27)) hide)
      )
      (property "Datasheet" "~" (at 0 0 0)
        (effects (font (size 1.27 1.27)) hide)
      )
      (property "ki_keywords" "r resistor" (at 0 0 0)
        (effects (font (size 1.27 1.27)) hide)
      )
      (property "ki_description" "Resistor, small US symbol" (at 0 0 0)
        (effects (font (size 1.27 1.27)) hide)
      )
      (property "ki_fp_filters" "R_*" (at 0 0 0)
        (effects (font (size 1.27 1.27)) hide)
      )
      (symbol "R_Small_US_1_1"
        (polyline
          (pts
            (xy 0 0)
            (xy 1.016 -0.381)
            (xy 0 -0.762)
            (xy -1.016 -1.143)
            (xy 0 -1.524)
          )
          (stroke (width 0) (type default))
          (fill (type none))
        )
        (polyline
          (pts
            (xy 0 1.524)
            (xy 1.016 1.143)
            (xy 0 0.762)
            (xy -1.016 0.381)
            (xy 0 0)
          )
          (stroke (width 0) (type default))
          (fill (type none))
        )
        (pin passive line (at 0 2.54 270) (length 1.016)
          (name "~" (effects (font (size 1.27 1.27))))
          (number "1" (effects (font (size 1.27 1.27))))
        )
        (pin passive line (at 0 -2.54 90) (length 1.016)
          (name "~" (effects (font (size 1.27 1.27))))
          (number "2" (effects (font (size 1.27 1.27))))
        )
      )
    )
    (symbol "GT36516:GT36516" (pin_names hide) (in_bom yes) (on_board yes)
      (property "Reference" "U" (at 0 1.27 0)
        (effects (font (size 1.27 1.27)))
      )
      (property "Value" "GT36516" (at 0 -2.54 0)
        (effects (font (size 1.27 1.27)))
      )
      (property "Footprint" "footprint:RES-SMD_L3.6-W2.4" (at 0 -10.16 0)
        (effects (font (size 1.27 1.27) italic) hide)
      )
      (property "Datasheet" "https://atta.szlcsc.com/upload/public/pdf/source/20211015/E4E926A8609BA345C43880BD5DEBDBFD.pdf" (at -2.286 0.127 0)
        (effects (font (size 1.27 1.27)) (justify left) hide)
      )
      (property "LCSC" "C2904880" (at 0 0 0)
        (effects (font (size 1.27 1.27)) hide)
      )
      (property "ki_keywords" "C2904880" (at 0 0 0)
        (effects (font (size 1.27 1.27)) hide)
      )
      (symbol "GT36516_0_1"
        (rectangle (start -2.54 1.27) (end 2.54 -1.27)
          (stroke (width 0) (type default))
          (fill (type background))
        )
        (polyline
          (pts
            (xy 0 2.032)
            (xy 0.254 2.794)
          )
          (stroke (width 0) (type default))
          (fill (type none))
        )
        (polyline
          (pts
            (xy 0 2.032)
            (xy 0.762 2.286)
          )
          (stroke (width 0) (type default))
          (fill (type none))
        )
        (polyline
          (pts
            (xy 0 2.032)
            (xy 1.524 3.556)
          )
          (stroke (width 0) (type default))
          (fill (type none))
        )
        (polyline
          (pts
            (xy 1.27 2.032)
            (xy 1.524 2.794)
          )
          (stroke (width 0) (type default))
          (fill (type none))
        )
        (polyline
          (pts
            (xy 1.27 2.032)
            (xy 2.032 2.286)
          )
          (stroke (width 0) (type default))
          (fill (type none))
        )
        (polyline
          (pts
            (xy 1.27 2.032)
            (xy 2.54 3.302)
          )
          (stroke (width 0) (type default))
          (fill (type none))
        )
        (pin unspecified line (at -5.08 0 0) (length 2.54)
          (name "1" (effects (font (size 1 1))))
          (number "1" (effects (font (size 1 1))))
        )
        (pin unspecified line (at 5.08 0 180) (length 2.54)
          (name "2" (effects (font (size 1 1))))
          (number "2" (effects (font (size 1 1))))
        )
      )
    )
    (symbol "LTST-C190KRKT:LTST-C190KRKT" (pin_names (offset 1.016)) (in_bom yes) (on_board yes)
      (property "Reference" "D" (at -2.0351 4.0703 0)
        (effects (font (size 1.27 1.27)) (justify left bottom))
      )
      (property "Value" "LTST-C190KRKT" (at -2.0337 -3.8132 0)
        (effects (font (size 1.27 1.27)) (justify left bottom))
      )
      (property "Footprint" "LEDC1608X35N" (at 0 0 0)
        (effects (font (size 1.27 1.27)) (justify bottom) hide)
      )
      (property "Datasheet" "" (at 0 0 0)
        (effects (font (size 1.27 1.27)) hide)
      )
      (symbol "LTST-C190KRKT_0_0"
        (polyline
          (pts
            (xy -5.08 0)
            (xy 0 0)
          )
          (stroke (width 0.254) (type default))
          (fill (type none))
        )
        (polyline
          (pts
            (xy 0 -1.27)
            (xy 0 0)
          )
          (stroke (width 0.254) (type default))
          (fill (type none))
        )
        (polyline
          (pts
            (xy 0 0)
            (xy 0 1.27)
          )
          (stroke (width 0.254) (type default))
          (fill (type none))
        )
        (polyline
          (pts
            (xy 0 0)
            (xy 2.54 1.27)
          )
          (stroke (width 0.254) (type default))
          (fill (type none))
        )
        (polyline
          (pts
            (xy 0.635 1.905)
            (xy -0.762 3.302)
          )
          (stroke (width 0.1524) (type default))
          (fill (type none))
        )
        (polyline
          (pts
            (xy 1.778 2.032)
            (xy 0.381 3.429)
          )
          (stroke (width 0.1524) (type default))
          (fill (type none))
        )
        (polyline
          (pts
            (xy 2.54 -1.27)
            (xy 0 0)
          )
          (stroke (width 0.254) (type default))
          (fill (type none))
        )
        (polyline
          (pts
            (xy 2.54 -1.27)
            (xy 2.54 0)
          )
          (stroke (width 0.254) (type default))
          (fill (type none))
        )
        (polyline
          (pts
            (xy 2.54 0)
            (xy 2.54 1.27)
          )
          (stroke (width 0.254) (type default))
          (fill (type none))
        )
        (polyline
          (pts
            (xy 2.54 0)
            (xy 7.62 0)
          )
          (stroke (width 0.254) (type default))
          (fill (type none))
        )
        (polyline
          (pts
            (xy -0.762 3.302)
            (xy 0.127 2.921)
            (xy -0.381 2.413)
            (xy -0.762 3.302)
          )
          (stroke (width 0.1524) (type default))
          (fill (type outline))
        )
        (polyline
          (pts
            (xy 0.381 3.429)
            (xy 1.27 3.048)
            (xy 0.762 2.54)
            (xy 0.381 3.429)
          )
          (stroke (width 0.1524) (type default))
          (fill (type outline))
        )
        (pin passive line (at 10.16 0 180) (length 2.54)
          (name "A" (effects (font (size 1.016 1.016))))
          (number "A" (effects (font (size 1.016 1.016))))
        )
        (pin passive line (at -7.62 0 0) (length 2.54)
          (name "C" (effects (font (size 1.016 1.016))))
          (number "C" (effects (font (size 1.016 1.016))))
        )
      )
    )
    (symbol "SHTC3:SHTC3" (pin_names (offset 1.016)) (in_bom yes) (on_board yes)
      (property "Reference" "U" (at -10.16 12.7 0)
        (effects (font (size 1.27 1.27)) (justify left top))
      )
      (property "Value" "SHTC3" (at -10.16 -12.7 0)
        (effects (font (size 1.27 1.27)) (justify left bottom))
      )
      (property "Footprint" "SON100P200X200X80-5N" (at 0 0 0)
        (effects (font (size 1.27 1.27)) (justify bottom) hide)
      )
      (property "Datasheet" "" (at 0 0 0)
        (effects (font (size 1.27 1.27)) hide)
      )
      (property "STANDARD" "IPC-7351B" (at 0 0 0)
        (effects (font (size 1.27 1.27)) (justify bottom) hide)
      )
      (property "PARTREV" "3" (at 0 0 0)
        (effects (font (size 1.27 1.27)) (justify bottom) hide)
      )
      (property "MANUFACTURER" "Sensirion" (at 0 0 0)
        (effects (font (size 1.27 1.27)) (justify bottom) hide)
      )
      (property "MAXIMUM_PACKAGE_HEIGHT" "0.80mm" (at 0 0 0)
        (effects (font (size 1.27 1.27)) (justify bottom) hide)
      )
      (symbol "SHTC3_0_0"
        (rectangle (start -10.16 -10.16) (end 10.16 10.16)
          (stroke (width 0.254) (type default))
          (fill (type background))
        )
        (pin power_in line (at 15.24 7.62 180) (length 5.08)
          (name "VDD" (effects (font (size 1.016 1.016))))
          (number "1" (effects (font (size 1.016 1.016))))
        )
        (pin bidirectional clock (at -15.24 2.54 0) (length 5.08)
          (name "SCL" (effects (font (size 1.016 1.016))))
          (number "2" (effects (font (size 1.016 1.016))))
        )
        (pin bidirectional line (at -15.24 0 0) (length 5.08)
          (name "SDA" (effects (font (size 1.016 1.016))))
          (number "3" (effects (font (size 1.016 1.016))))
        )
        (pin power_in line (at 15.24 -5.08 180) (length 5.08)
          (name "VSS" (effects (font (size 1.016 1.016))))
          (number "4" (effects (font (size 1.016 1.016))))
        )
        (pin power_in line (at 15.24 -7.62 180) (length 5.08)
          (name "EXP" (effects (font (size 1.016 1.016))))
          (number "5" (effects (font (size 1.016 1.016))))
        )
      )
    )
    (symbol "SML-D12FWT86:SML-D12FWT86" (pin_names (offset 1.016)) (in_bom yes) (on_board yes)
      (property "Reference" "D" (at -5.08 5.08 0)
        (effects (font (size 1.27 1.27)) (justify left bottom))
      )
      (property "Value" "SML-D12FWT86" (at -5.08 -3.81 0)
        (effects (font (size 1.27 1.27)) (justify left bottom))
      )
      (property "Footprint" "LED_SML-D12FWT86" (at 1.27 7.62 0)
        (effects (font (size 1.27 1.27)) (justify bottom) hide)
      )
      (property "Datasheet" "" (at 0 0 0)
        (effects (font (size 1.27 1.27)) hide)
      )
      (property "STANDARD" "Manufacturer Recommendation" (at 3.81 -8.89 0)
        (effects (font (size 1.27 1.27)) (justify bottom) hide)
      )
      (property "MANUFACTURER" "ROHM Semiconductor" (at 1.27 -6.35 0)
        (effects (font (size 1.27 1.27)) (justify bottom) hide)
      )
      (property "MAXIMUM_PACKAGE_HEIGHT" "0.65 mm" (at 7.62 2.54 0)
        (effects (font (size 1.27 1.27)) (justify bottom) hide)
      )
      (property "PARTREV" "007" (at 13.97 2.54 0)
        (effects (font (size 1.27 1.27)) (justify bottom) hide)
      )
      (symbol "SML-D12FWT86_0_0"
        (polyline
          (pts
            (xy -2.54 -1.524)
            (xy 0 0)
          )
          (stroke (width 0.254) (type default))
          (fill (type none))
        )
        (polyline
          (pts
            (xy -2.54 0)
            (xy -5.08 0)
          )
          (stroke (width 0.1524) (type default))
          (fill (type none))
        )
        (polyline
          (pts
            (xy -2.54 0)
            (xy -2.54 -1.524)
          )
          (stroke (width 0.254) (type default))
          (fill (type none))
        )
        (polyline
          (pts
            (xy -2.54 1.524)
            (xy -2.54 0)
          )
          (stroke (width 0.254) (type default))
          (fill (type none))
        )
        (polyline
          (pts
            (xy -1.1176 3.683)
            (xy -0.2286 4.1656)
          )
          (stroke (width 0.254) (type default))
          (fill (type none))
        )
        (polyline
          (pts
            (xy -0.9398 3.6068)
            (xy -0.7112 3.7592)
          )
          (stroke (width 0.254) (type default))
          (fill (type none))
        )
        (polyline
          (pts
            (xy -0.5588 3.2004)
            (xy -1.1176 3.683)
          )
          (stroke (width 0.254) (type default))
          (fill (type none))
        )
        (polyline
          (pts
            (xy -0.5588 3.2004)
            (xy -0.5334 3.937)
          )
          (stroke (width 0.254) (type default))
          (fill (type none))
        )
        (polyline
          (pts
            (xy -0.5334 3.937)
            (xy -0.6604 3.937)
          )
          (stroke (width 0.254) (type default))
          (fill (type none))
        )
        (polyline
          (pts
            (xy -0.2286 4.1656)
            (xy -2.0066 2.1336)
          )
          (stroke (width 0.254) (type default))
          (fill (type none))
        )
        (polyline
          (pts
            (xy -0.2286 4.1656)
            (xy -0.5588 3.2004)
          )
          (stroke (width 0.254) (type default))
          (fill (type none))
        )
        (polyline
          (pts
            (xy 0 0)
            (xy -2.54 1.524)
          )
          (stroke (width 0.254) (type default))
          (fill (type none))
        )
        (polyline
          (pts
            (xy 0 1.524)
            (xy 0 -1.524)
          )
          (stroke (width 0.254) (type default))
          (fill (type none))
        )
        (polyline
          (pts
            (xy 0.127 3.5814)
            (xy 1.016 4.064)
          )
          (stroke (width 0.254) (type default))
          (fill (type none))
        )
        (polyline
          (pts
            (xy 0.3048 3.5052)
            (xy 0.5334 3.6576)
          )
          (stroke (width 0.254) (type default))
          (fill (type none))
        )
        (polyline
          (pts
            (xy 0.6858 3.0988)
            (xy 0.127 3.5814)
          )
          (stroke (width 0.254) (type default))
          (fill (type none))
        )
        (polyline
          (pts
            (xy 0.6858 3.0988)
            (xy 0.7112 3.8354)
          )
          (stroke (width 0.254) (type default))
          (fill (type none))
        )
        (polyline
          (pts
            (xy 0.7112 3.8354)
            (xy 0.5842 3.8354)
          )
          (stroke (width 0.254) (type default))
          (fill (type none))
        )
        (polyline
          (pts
            (xy 1.016 4.064)
            (xy -0.762 2.032)
          )
          (stroke (width 0.254) (type default))
          (fill (type none))
        )
        (polyline
          (pts
            (xy 1.016 4.064)
            (xy 0.6858 3.0988)
          )
          (stroke (width 0.254) (type default))
          (fill (type none))
        )
        (pin passive line (at -7.62 0 0) (length 2.54)
          (name "~" (effects (font (size 1.016 1.016))))
          (number "A" (effects (font (size 1.016 1.016))))
        )
        (pin passive line (at 5.08 0 180) (length 5.08)
          (name "~" (effects (font (size 1.016 1.016))))
          (number "C" (effects (font (size 1.016 1.016))))
        )
      )
    )
    (symbol "power:GND" (power) (pin_names (offset 0)) (in_bom yes) (on_board yes)
      (property "Reference" "#PWR" (at 0 -6.35 0)
        (effects (font (size 1.27 1.27)) hide)
      )
      (property "Value" "GND" (at 0 -3.81 0)
        (effects (font (size 1.27 1.27)))
      )
      (property "Footprint" "" (at 0 0 0)
        (effects (font (size 1.27 1.27)) hide)
      )
      (property "Datasheet" "" (at 0 0 0)
        (effects (font (size 1.27 1.27)) hide)
      )
      (property "ki_keywords" "global power" (at 0 0 0)
        (effects (font (size 1.27 1.27)) hide)
      )
      (property "ki_description" "Power symbol creates a global label with name \"GND\" , ground" (at 0 0 0)
        (effects (font (size 1.27 1.27)) hide)
      )
      (symbol "GND_0_1"
        (polyline
          (pts
            (xy 0 0)
            (xy 0 -1.27)
            (xy 1.27 -1.27)
            (xy 0 -2.54)
            (xy -1.27 -1.27)
            (xy 0 -1.27)
          )
          (stroke (width 0) (type default))
          (fill (type none))
        )
      )
      (symbol "GND_1_1"
        (pin power_in line (at 0 0 270) (length 0) hide
          (name "GND" (effects (font (size 1.27 1.27))))
          (number "1" (effects (font (size 1.27 1.27))))
        )
      )
    )
  )

  (junction (at 134.62 55.88) (diameter 0) (color 0 0 0 0)
    (uuid 21c0ccf1-57ca-4a1f-86ac-1735f8ea8857)
  )
  (junction (at 110.49 58.42) (diameter 0) (color 0 0 0 0)
    (uuid 5e07fdb1-365b-4488-aef6-8cc840f4df2a)
  )
  (junction (at 130.81 119.38) (diameter 0) (color 0 0 0 0)
    (uuid a487261a-8785-41e6-964b-91b9dc13af41)
  )
  (junction (at 175.26 63.5) (diameter 0) (color 0 0 0 0)
    (uuid da7193ca-ddbe-4609-965a-e4da2ce6f9b6)
  )
  (junction (at 175.26 50.8) (diameter 0) (color 0 0 0 0)
    (uuid f9af2e7e-7393-40da-bbad-1b17d7f62531)
  )

  (wire (pts (xy 134.62 44.45) (xy 134.62 55.88))
    (stroke (width 0) (type default))
    (uuid 06a76311-7a93-4fa7-ab02-9cb5402a27b1)
  )
  (polyline (pts (xy 176.53 92.71) (xy 284.48 92.71))
    (stroke (width 0) (type default))
    (uuid 073f39b0-5d42-4e83-b90b-80448fb6ce9a)
  )

  (wire (pts (xy 20.32 100.33) (xy 25.4 100.33))
    (stroke (width 0) (type default))
    (uuid 0e0763cd-09b7-4a30-874d-0628f27d60f9)
  )
  (wire (pts (xy 130.81 119.38) (xy 130.81 127))
    (stroke (width 0) (type default))
    (uuid 11e39f5b-b391-4cbf-81ba-475c8367c13c)
  )
  (wire (pts (xy 80.01 168.91) (xy 91.44 168.91))
    (stroke (width 0) (type default))
    (uuid 14f73eb8-42f3-4f77-a7e9-8c8d71b17a46)
  )
  (wire (pts (xy 146.05 135.89) (xy 162.56 135.89))
    (stroke (width 0) (type default))
    (uuid 15ad82a5-e2dc-424e-8244-35666e41f018)
  )
  (polyline (pts (xy 12.7 106.68) (xy 99.06 106.68))
    (stroke (width 0) (type default))
    (uuid 18c8cdbd-b903-4ad7-9428-0f58ca3fb09e)
  )

  (wire (pts (xy 130.81 100.33) (xy 130.81 104.14))
    (stroke (width 0) (type default))
    (uuid 205c9ce8-3da7-4279-85f4-beb3c9a48dd3)
  )
  (wire (pts (xy 101.6 52.07) (xy 101.6 55.88))
    (stroke (width 0) (type default))
    (uuid 2498d991-9e87-4e10-97dd-e12b15d5f148)
  )
  (wire (pts (xy 162.56 184.15) (xy 162.56 186.69))
    (stroke (width 0) (type default))
    (uuid 2dbf4fbc-209b-486e-bb22-d2cf635f07aa)
  )
  (polyline (pts (xy 176.53 74.93) (xy 284.48 74.93))
    (stroke (width 0) (type default))
    (uuid 2edf39d4-0b8b-44bd-ab9f-d4df8b335160)
  )

  (wire (pts (xy 72.39 74.93) (xy 74.93 74.93))
    (stroke (width 0) (type default))
    (uuid 32684a1f-65e0-486d-9423-09b31de9a127)
  )
  (wire (pts (xy 242.57 57.15) (xy 257.81 57.15))
    (stroke (width 0) (type default))
    (uuid 374f1644-1fd6-40d6-91c1-9379bf0c6481)
  )
  (polyline (pts (xy 99.06 106.68) (xy 99.06 50.8))
    (stroke (width 0) (type default))
    (uuid 3c684865-6674-4430-8594-027a2cb3da67)
  )
  (polyline (pts (xy 99.06 83.82) (xy 176.53 83.82))
    (stroke (width 0) (type default))
    (uuid 3c75a2a7-1be6-4ae5-8e9c-b6d59fa5c4b9)
  )

  (wire (pts (xy 204.47 58.42) (xy 215.9 58.42))
    (stroke (width 0) (type default))
    (uuid 3ef87637-45b6-4132-9ea5-ff85ff823493)
  )
  (wire (pts (xy 204.47 66.04) (xy 215.9 66.04))
    (stroke (width 0) (type default))
    (uuid 3f72c06e-4667-4901-a7f5-49a0395a132f)
  )
  (wire (pts (xy 80.01 157.48) (xy 91.44 157.48))
    (stroke (width 0) (type default))
    (uuid 48fc053e-46a5-4bcb-804d-0bcea831d990)
  )
  (polyline (pts (xy 139.7 11.43) (xy 139.7 20.32))
    (stroke (width 0) (type default))
    (uuid 4d43fcb4-878d-4b9e-8fb3-a65e586fb164)
  )
  (polyline (pts (xy 176.53 124.46) (xy 176.53 92.71))
    (stroke (width 0) (type default))
    (uuid 51801bfb-2e44-4a8f-b0e5-51a6dfcca484)
  )

  (wire (pts (xy 20.32 74.93) (xy 25.4 74.93))
    (stroke (width 0) (type default))
    (uuid 5273a9e2-2678-4772-a4e7-5ec1ab016104)
  )
  (wire (pts (xy 72.39 90.17) (xy 74.93 90.17))
    (stroke (width 0) (type default))
    (uuid 556a603e-b492-4159-845c-b842a2ad01a9)
  )
  (wire (pts (xy 49.53 74.93) (xy 54.61 74.93))
    (stroke (width 0) (type default))
    (uuid 567eba64-fd23-4646-a2ea-91bc5b93f8ba)
  )
  (wire (pts (xy 110.49 29.21) (xy 110.49 39.37))
    (stroke (width 0) (type default))
    (uuid 56a3a5e7-ce83-4cf3-9fb3-2da461968d0c)
  )
  (polyline (pts (xy 217.17 12.7) (xy 217.17 45.72))
    (stroke (width 0) (type default))
    (uuid 5cbd60c8-3a46-4e16-8a9b-0494d1ec93fa)
  )

  (wire (pts (xy 175.26 63.5) (xy 184.15 63.5))
    (stroke (width 0) (type default))
    (uuid 6089753b-c550-41fa-811e-c8ce6ba19b92)
  )
  (wire (pts (xy 80.01 133.35) (xy 91.44 133.35))
    (stroke (width 0) (type default))
    (uuid 63854192-c1c6-45fc-bf9a-09b5cb633198)
  )
  (wire (pts (xy 34.29 157.48) (xy 49.53 157.48))
    (stroke (width 0) (type default))
    (uuid 67440029-0e1c-4307-b6a6-9480731d3a6c)
  )
  (wire (pts (xy 110.49 58.42) (xy 101.6 58.42))
    (stroke (width 0) (type default))
    (uuid 67752390-9d8a-4958-b7e0-1c7d24d6ae64)
  )
  (polyline (pts (xy 99.06 12.7) (xy 99.06 50.8))
    (stroke (width 0) (type default))
    (uuid 6bd523aa-fae5-47eb-8c1e-11a6ec853858)
  )
  (polyline (pts (xy 99.06 166.37) (xy 176.53 166.37))
    (stroke (width 0) (type default))
    (uuid 6c96f83e-91d5-4c86-afa3-84b5068b7a93)
  )

  (wire (pts (xy 175.26 50.8) (xy 175.26 54.61))
    (stroke (width 0) (type default))
    (uuid 73f541c7-df2d-4c83-8614-9f405aa1a44c)
  )
  (wire (pts (xy 80.01 180.34) (xy 91.44 180.34))
    (stroke (width 0) (type default))
    (uuid 752b7f4a-6169-4305-bb64-4d7d103137c4)
  )
  (wire (pts (xy 175.26 50.8) (xy 184.15 50.8))
    (stroke (width 0) (type default))
    (uuid 76f810b3-c203-4b6f-ac76-f701320babf3)
  )
  (wire (pts (xy 80.01 146.05) (xy 91.44 146.05))
    (stroke (width 0) (type default))
    (uuid 8271a6ec-9013-4f37-8c3c-896674b4b2a9)
  )
  (wire (pts (xy 110.49 44.45) (xy 110.49 58.42))
    (stroke (width 0) (type default))
    (uuid 8649ac1c-d20c-493e-aed9-a6b743377268)
  )
  (wire (pts (xy 130.81 119.38) (xy 144.78 119.38))
    (stroke (width 0) (type default))
    (uuid 871329a4-7107-48a1-91fd-fe28b82baa00)
  )
  (wire (pts (xy 34.29 180.34) (xy 49.53 180.34))
    (stroke (width 0) (type default))
    (uuid 8b65f5fb-102b-4222-8c24-30b70b54072f)
  )
  (wire (pts (xy 54.61 180.34) (xy 71.12 180.34))
    (stroke (width 0) (type default))
    (uuid 8ddc2bde-5cba-49b7-b022-d509de0b1eba)
  )
  (polyline (pts (xy 176.53 124.46) (xy 284.48 124.46))
    (stroke (width 0) (type default))
    (uuid 917f4507-741d-4611-94a9-5a25a98eeda8)
  )

  (wire (pts (xy 54.61 157.48) (xy 69.85 157.48))
    (stroke (width 0) (type default))
    (uuid 9d2c528c-fa3e-47d7-b73d-b00d96c66033)
  )
  (wire (pts (xy 34.29 133.35) (xy 49.53 133.35))
    (stroke (width 0) (type default))
    (uuid a4d1fd8d-f0cd-4c0b-9bf9-32e580d47540)
  )
  (wire (pts (xy 54.61 168.91) (xy 69.85 168.91))
    (stroke (width 0) (type default))
    (uuid a6d24944-f2d9-456d-98e5-02addeb076d4)
  )
  (wire (pts (xy 110.49 58.42) (xy 144.78 58.42))
    (stroke (width 0) (type default))
    (uuid ab4be45e-9075-4af2-8d95-8c1cb5a40c72)
  )
  (polyline (pts (xy 217.17 45.72) (xy 217.17 48.26))
    (stroke (width 0) (type default))
    (uuid ac3076a3-e2ee-4dd8-b469-7ca87680031a)
  )

  (wire (pts (xy 134.62 55.88) (xy 144.78 55.88))
    (stroke (width 0) (type default))
    (uuid ad3d6224-a8a5-4c9f-abab-a50ea95415b2)
  )
  (wire (pts (xy 130.81 114.3) (xy 130.81 119.38))
    (stroke (width 0) (type default))
    (uuid b0a0cd59-1376-4bf5-a85f-1c519090ca82)
  )
  (wire (pts (xy 34.29 168.91) (xy 49.53 168.91))
    (stroke (width 0) (type default))
    (uuid b187740c-23bb-4e39-a0fa-56821e7fe0f4)
  )
  (wire (pts (xy 130.81 132.08) (xy 130.81 142.24))
    (stroke (width 0) (type default))
    (uuid b61ab96c-7d47-40f8-8de0-ba1e8adf0e94)
  )
  (polyline (pts (xy 176.53 166.37) (xy 176.53 124.46))
    (stroke (width 0) (type default))
    (uuid b75e740a-cf99-405d-a3d2-fa3467845a6e)
  )

  (wire (pts (xy 101.6 55.88) (xy 134.62 55.88))
    (stroke (width 0) (type default))
    (uuid bbdbe8a1-9ba1-45fd-a529-ecd465761482)
  )
  (wire (pts (xy 74.93 90.17) (xy 74.93 92.71))
    (stroke (width 0) (type default))
    (uuid bc289419-87ad-4ccf-9f37-f58d2d0cbbcb)
  )
  (wire (pts (xy 83.82 190.5) (xy 91.44 190.5))
    (stroke (width 0) (type default))
    (uuid bdb3ec6b-9dd5-411b-88d1-dd4e275e6955)
  )
  (wire (pts (xy 38.1 100.33) (xy 43.18 100.33))
    (stroke (width 0) (type default))
    (uuid bf3203b5-8e08-4b85-a1b4-36d4b0844755)
  )
  (wire (pts (xy 160.02 184.15) (xy 162.56 184.15))
    (stroke (width 0) (type default))
    (uuid c2ba4500-2348-42a7-aa97-759d5c8cbe20)
  )
  (polyline (pts (xy 176.53 92.71) (xy 176.53 74.93))
    (stroke (width 0) (type default))
    (uuid c57f7cb7-e690-44ad-bc78-9c08a496791a)
  )

  (wire (pts (xy 137.16 184.15) (xy 142.24 184.15))
    (stroke (width 0) (type default))
    (uuid cbc0c811-29f0-4af8-8974-08d49dc37523)
  )
  (polyline (pts (xy 217.17 48.26) (xy 284.48 48.26))
    (stroke (width 0) (type default))
    (uuid cccfa813-5e06-49d3-902e-ee2b9236c496)
  )

  (wire (pts (xy 54.61 133.35) (xy 69.85 133.35))
    (stroke (width 0) (type default))
    (uuid d656e64f-7537-4b07-963d-984c74afea47)
  )
  (wire (pts (xy 242.57 67.31) (xy 257.81 67.31))
    (stroke (width 0) (type default))
    (uuid d717fdd5-9dbe-4eca-9f9d-effb3943bcb8)
  )
  (wire (pts (xy 101.6 58.42) (xy 101.6 63.5))
    (stroke (width 0) (type default))
    (uuid dc1f1eff-e561-40f7-9cc9-a747fe9b0ab9)
  )
  (wire (pts (xy 38.1 74.93) (xy 43.18 74.93))
    (stroke (width 0) (type default))
    (uuid ddfb63b6-a28c-4ce7-9a41-0ddb3313855a)
  )
  (wire (pts (xy 34.29 146.05) (xy 49.53 146.05))
    (stroke (width 0) (type default))
    (uuid e09e8d7f-a925-4f50-9de5-b3eb30ed8264)
  )
  (polyline (pts (xy 99.06 106.68) (xy 99.06 196.85))
    (stroke (width 0) (type default))
    (uuid e6771ad2-7b12-4704-9672-29d0baec211a)
  )

  (wire (pts (xy 38.1 87.63) (xy 43.18 87.63))
    (stroke (width 0) (type default))
    (uuid e6bc2b57-1533-4b12-a3db-554ea71d4892)
  )
  (polyline (pts (xy 12.7 50.8) (xy 99.06 50.8))
    (stroke (width 0) (type default))
    (uuid e8bc3c56-6871-4090-ae44-71fcc8af9476)
  )

  (wire (pts (xy 134.62 29.21) (xy 134.62 39.37))
    (stroke (width 0) (type default))
    (uuid ebac728d-460c-4d08-b997-3ca64787fac5)
  )
  (wire (pts (xy 20.32 87.63) (xy 25.4 87.63))
    (stroke (width 0) (type default))
    (uuid ed3cd3e0-b5ea-467f-a421-de9b9c19e3ae)
  )
  (polyline (pts (xy 99.06 20.32) (xy 139.7 20.32))
    (stroke (width 0) (type default))
    (uuid ef23de30-43c0-4458-b060-ecf1a9ac6534)
  )

  (wire (pts (xy 116.84 184.15) (xy 132.08 184.15))
    (stroke (width 0) (type default))
    (uuid f4f95815-05d9-4e68-a908-acc68e17ae5d)
  )
  (wire (pts (xy 175.26 59.69) (xy 175.26 63.5))
    (stroke (width 0) (type default))
    (uuid f77c7174-6af5-43c0-9428-bef875e90aa9)
  )
  (wire (pts (xy 49.53 90.17) (xy 54.61 90.17))
    (stroke (width 0) (type default))
    (uuid f9bbb6fe-1a35-4c33-9613-987844043667)
  )
  (wire (pts (xy 74.93 74.93) (xy 74.93 77.47))
    (stroke (width 0) (type default))
    (uuid faae0ae3-6fea-4b35-a039-0450dc0069dd)
  )
  (wire (pts (xy 54.61 146.05) (xy 69.85 146.05))
    (stroke (width 0) (type default))
    (uuid ff5c829f-b059-4d9d-92e7-71d7cf712095)
  )

  (text "Light sensor" (at 119.38 160.02 0)
    (effects (font (size 2.54 2.54)) (justify left bottom))
    (uuid 01d278b2-8af4-4113-bf29-921267de46f2)
  )
  (text "Note:\nThe connection netlabels, e.g. PA0, PB8, etc. \nrefer to the particular pin headers that the \nsensors will be connected to. These pin headers \nwill be connected to their respective pins on the \nSTM32F051C6 chip.\nIn this case, pins SCL and SDA are connected to\npins PB8 and PB9 due to those pins having I2C\ncompatibility. "
    (at 185.42 163.83 0)
    (effects (font (size 2.54 2.54)) (justify left bottom))
    (uuid 18e72a91-1c8a-4fea-82f8-645ad248ac40)
  )
  (text "Revisions:\nInitially, the DHT11 sensor was used,\nhowever the issue with using this sensor \nwas that it has low stock and high demand.\nAs a result, the decision was taken to use \nthe SHTC3 with an I2C bus."
    (at 185.42 119.38 0)
    (effects (font (size 2.54 2.54)) (justify left bottom))
    (uuid 2eaccdcc-54dc-4968-8b01-4bbefa6cbb7f)
  )
  (text "Sensor Connections" (at 100.33 17.78 0)
    (effects (font (size 2.54 2.54)) (justify left bottom))
    (uuid 37181b86-c40d-4a9d-8b63-9e38fdad2dc2)
  )
  (text "Note: The different colour diodes can be \nidentified with their \nrespective specified naming conventions \nas follows:\nSML-D12FWT86: Green LED\nLTST-C190KRKT: Red LED\n"
    (at 15.24 41.91 0)
    (effects (font (size 2.54 2.54)) (justify left bottom))
    (uuid 546b798b-9370-4e6c-ba01-1982ff15e34f)
  )
  (text "LED Connections\n" (at 19.05 58.42 0)
    (effects (font (size 2.54 2.54)) (justify left bottom))
    (uuid c7f8a656-124f-496b-b46c-932fe47f4408)
  )
  (text "Temperature and Humidity sensor" (at 104.14 74.93 0)
    (effects (font (size 2.54 2.54)) (justify left bottom) (href "#1"))
    (uuid d3dabb79-4603-46d8-bb08-abb449a75df1)
  )
  (text "Resistor code values:\nRC0603FR-0710KL - 10 kΩ\nAC0603JR-07150RL - 150 Ω\n0603WAF1003T5E - 100 kΩ\n\nCapacitor code values:\nCC0603KRX7R9BB104 - 100 nF\n"
    (at 222.25 44.45 0)
    (effects (font (size 2.54 2.54)) (justify left bottom))
    (uuid e9be29b1-8b03-4e97-a678-0179c4bc08ae)
  )
  (text "LED Resistor connections (150Ω resistors \nused to restrict flow of current to the LEDs)"
    (at 13.97 116.84 0)
    (effects (font (size 2.54 2.54)) (justify left bottom))
    (uuid ec7dda97-2d9c-4e39-897e-c65080b16fb6)
  )
  (text "Note: Resistors R7 and R8 are pull-up resistors, \nsince both the SCL and SDA have to be driven\nLOW. C1 is a decoupling capacitor"
    (at 184.15 88.9 0)
    (effects (font (size 2.54 2.54)) (justify left bottom))
    (uuid f4456c40-4bed-4f99-b233-a7fcd6dadcd6)
  )
  (text "Example of an LED connection" (at 105.41 175.26 0)
    (effects (font (size 2.54 2.54)) (justify left bottom))
    (uuid f55ac6eb-ac96-43d8-9e49-da5fcea0125d)
  )

  (label "R3" (at 34.29 168.91 0) (fields_autoplaced)
    (effects (font (size 1.27 1.27)) (justify left bottom))
    (uuid 0e11ad02-de34-4eba-b34e-88f3e3a05d79)
  )
  (label "PB3" (at 80.01 168.91 0) (fields_autoplaced)
    (effects (font (size 1.27 1.27)) (justify left bottom))
    (uuid 13c770df-985c-4872-bc9b-7f28f7cff004)
  )
  (label "R3" (at 49.53 74.93 0) (fields_autoplaced)
    (effects (font (size 1.27 1.27)) (justify left bottom))
    (uuid 1caee1cb-9051-4d7f-88c4-03ee7649278b)
  )
  (label "R4" (at 34.29 180.34 0) (fields_autoplaced)
    (effects (font (size 1.27 1.27)) (justify left bottom))
    (uuid 1e5be688-1c1f-419d-a4fb-5765ebc449a3)
  )
  (label "VDD" (at 134.62 29.21 0) (fields_autoplaced)
    (effects (font (size 1.27 1.27)) (justify left bottom))
    (uuid 1e9dcc5f-9d0d-437f-8dd2-7aca4f34e042)
  )
  (label "VSS" (at 242.57 67.31 0) (fields_autoplaced)
    (effects (font (size 1.27 1.27)) (justify left bottom))
    (uuid 22ba288e-37be-4aab-ac24-8e33c21410eb)
  )
  (label "PB1" (at 69.85 146.05 0) (fields_autoplaced)
    (effects (font (size 1.27 1.27)) (justify left bottom))
    (uuid 3cb030a7-e6c7-4972-abbc-5ba7b4cc7a3d)
  )
  (label "PB8" (at 101.6 52.07 0) (fields_autoplaced)
    (effects (font (size 1.27 1.27)) (justify left bottom))
    (uuid 3d042bc5-6284-487c-802d-15b622a84512)
  )
  (label "VDD" (at 110.49 29.21 0) (fields_autoplaced)
    (effects (font (size 1.27 1.27)) (justify left bottom))
    (uuid 41cf7426-643d-4590-a379-99a82b06850f)
  )
  (label "PB5" (at 83.82 190.5 180) (fields_autoplaced)
    (effects (font (size 1.27 1.27)) (justify right bottom))
    (uuid 4d0d729f-5c78-42d0-839b-05d66d6f49e5)
  )
  (label "PA0" (at 144.78 119.38 0) (fields_autoplaced)
    (effects (font (size 1.27 1.27)) (justify left bottom))
    (uuid 4e614fa8-4a1f-41f6-ad26-bbe0defd186d)
  )
  (label "R1" (at 20.32 87.63 0) (fields_autoplaced)
    (effects (font (size 1.27 1.27)) (justify left bottom))
    (uuid 4f3394d2-9731-4c6f-9188-7966d5e0c2ec)
  )
  (label "PB1" (at 80.01 146.05 0) (fields_autoplaced)
    (effects (font (size 1.27 1.27)) (justify left bottom))
    (uuid 550ec8e0-1bce-4bd4-9c91-78bc75a54dc3)
  )
  (label "PB4" (at 71.12 180.34 0) (fields_autoplaced)
    (effects (font (size 1.27 1.27)) (justify left bottom))
    (uuid 57dc3d70-c5cc-4970-aa12-8e15d571dbb4)
  )
  (label "R1" (at 34.29 146.05 0) (fields_autoplaced)
    (effects (font (size 1.27 1.27)) (justify left bottom))
    (uuid 59d6705a-94fb-44c0-ba2f-4652d65506f9)
  )
  (label "VDD" (at 242.57 57.15 0) (fields_autoplaced)
    (effects (font (size 1.27 1.27)) (justify left bottom))
    (uuid 5aec0743-32c1-45d0-810e-aacf8b9d71bf)
  )
  (label "R4" (at 49.53 90.17 0) (fields_autoplaced)
    (effects (font (size 1.27 1.27)) (justify left bottom))
    (uuid 7653a566-470b-46d5-b13d-0e15bda1a4d1)
  )
  (label "VSS" (at 184.15 63.5 0) (fields_autoplaced)
    (effects (font (size 1.27 1.27)) (justify left bottom))
    (uuid 84a081c8-5ffb-4777-8ff7-e262da6e1109)
  )
  (label "R0" (at 20.32 74.93 0) (fields_autoplaced)
    (effects (font (size 1.27 1.27)) (justify left bottom))
    (uuid 87ad84dd-f531-428b-bae9-1ce71f261bd4)
  )
  (label "PB2" (at 80.01 157.48 0) (fields_autoplaced)
    (effects (font (size 1.27 1.27)) (justify left bottom))
    (uuid 8df30b38-ab3c-4628-81d5-49bcdf507e34)
  )
  (label "PA0" (at 146.05 135.89 0) (fields_autoplaced)
    (effects (font (size 1.27 1.27)) (justify left bottom))
    (uuid 9685c41d-168a-48dd-84ff-c58b0917db3d)
  )
  (label "PB2" (at 69.85 157.48 0) (fields_autoplaced)
    (effects (font (size 1.27 1.27)) (justify left bottom))
    (uuid af7d9d1b-968c-438c-ada9-fe8ce2758621)
  )
  (label "R2" (at 34.29 157.48 0) (fields_autoplaced)
    (effects (font (size 1.27 1.27)) (justify left bottom))
    (uuid cc31c25b-4056-4ebf-a767-8f16ee97e38e)
  )
  (label "PB5" (at 116.84 184.15 180) (fields_autoplaced)
    (effects (font (size 1.27 1.27)) (justify right bottom))
    (uuid d8b966b0-b6d3-433e-a85b-33ae91d0a853)
  )
  (label "VDD" (at 184.15 50.8 0) (fields_autoplaced)
    (effects (font (size 1.27 1.27)) (justify left bottom))
    (uuid d943f587-ba30-43d1-8a87-f2d0f826c896)
  )
  (label "VDD" (at 130.81 100.33 0) (fields_autoplaced)
    (effects (font (size 1.27 1.27)) (justify left bottom))
    (uuid dbe93e06-4e86-4447-a103-942b42e0804c)
  )
  (label "R0" (at 34.29 133.35 0) (fields_autoplaced)
    (effects (font (size 1.27 1.27)) (justify left bottom))
    (uuid ddc58cb0-821f-47ca-bc9f-c5c9fd5a4ae4)
  )
  (label "PB3" (at 69.85 168.91 0) (fields_autoplaced)
    (effects (font (size 1.27 1.27)) (justify left bottom))
    (uuid ddcd0cc8-d1b3-4c02-9ab2-6b8aca48007f)
  )
  (label "PB0" (at 80.01 133.35 0) (fields_autoplaced)
    (effects (font (size 1.27 1.27)) (justify left bottom))
    (uuid ded5ab73-fc65-438e-b8b8-e90aef2c6a6f)
  )
  (label "PB0" (at 69.85 133.35 0) (fields_autoplaced)
    (effects (font (size 1.27 1.27)) (justify left bottom))
    (uuid e6949dbe-e702-4a9f-a7cf-69bc26598ba9)
  )
  (label "PB9" (at 204.47 66.04 0) (fields_autoplaced)
    (effects (font (size 1.27 1.27)) (justify left bottom))
    (uuid e8015022-6ad6-476d-87fe-b9ffbc245f68)
  )
  (label "PB4" (at 80.01 180.34 0) (fields_autoplaced)
    (effects (font (size 1.27 1.27)) (justify left bottom))
    (uuid e9bf09d2-2fce-405e-83b5-e2f4bba8b943)
  )
  (label "PB8" (at 204.47 58.42 0) (fields_autoplaced)
    (effects (font (size 1.27 1.27)) (justify left bottom))
    (uuid ebbb600f-7a9e-4f33-8b24-59e399ad4429)
  )
  (label "PB9" (at 101.6 63.5 0) (fields_autoplaced)
    (effects (font (size 1.27 1.27)) (justify left bottom))
    (uuid f47238e2-35fc-497a-83bc-c2c4ec49bd52)
  )
  (label "R2" (at 20.32 100.33 0) (fields_autoplaced)
    (effects (font (size 1.27 1.27)) (justify left bottom))
    (uuid f5b5b360-e432-41da-9889-45317d7708a8)
  )

  (hierarchical_label "PB2" (shape output) (at 91.44 157.48 0) (fields_autoplaced)
    (effects (font (size 1.27 1.27)) (justify left))
    (uuid 624658b8-67cd-4231-9a68-8b8c98f410c2)
  )
  (hierarchical_label "PB1" (shape output) (at 91.44 146.05 0) (fields_autoplaced)
    (effects (font (size 1.27 1.27)) (justify left))
    (uuid 74123894-e648-46be-b827-ce14a52c9b62)
  )
  (hierarchical_label "PB0" (shape output) (at 91.44 133.35 0) (fields_autoplaced)
    (effects (font (size 1.27 1.27)) (justify left))
    (uuid 859dc328-f4c0-4970-8dfd-6c76c6f2af1f)
  )
  (hierarchical_label "PB9" (shape output) (at 215.9 66.04 0) (fields_autoplaced)
    (effects (font (size 1.27 1.27)) (justify left))
    (uuid 8c28ef6a-a421-4a4e-ae5f-02fa9d8f4457)
  )
  (hierarchical_label "PB5" (shape output) (at 91.44 190.5 0) (fields_autoplaced)
    (effects (font (size 1.27 1.27)) (justify left))
    (uuid b271de40-d3f0-40b7-8ef9-82f4f1a3cd03)
  )
  (hierarchical_label "VSS" (shape input) (at 257.81 67.31 0) (fields_autoplaced)
    (effects (font (size 1.27 1.27)) (justify left))
    (uuid b5859f2c-e685-4f4e-bc5c-5582b49bdc76)
  )
  (hierarchical_label "PB4" (shape output) (at 91.44 180.34 0) (fields_autoplaced)
    (effects (font (size 1.27 1.27)) (justify left))
    (uuid ec8f58ec-36e8-4ed3-a5d0-6f1ace1e50f3)
  )
  (hierarchical_label "PA0" (shape output) (at 162.56 135.89 0) (fields_autoplaced)
    (effects (font (size 1.27 1.27)) (justify left))
    (uuid ed6aa1c8-bfc0-4963-b532-50167a457507)
  )
  (hierarchical_label "PB8" (shape output) (at 215.9 58.42 0) (fields_autoplaced)
    (effects (font (size 1.27 1.27)) (justify left))
    (uuid ee7b70ae-722a-4fcd-a6e3-a070f0fff1c0)
  )
  (hierarchical_label "VDD" (shape input) (at 257.81 57.15 0) (fields_autoplaced)
    (effects (font (size 1.27 1.27)) (justify left))
    (uuid ef0cabe5-56b9-4247-97a0-edfad75b637a)
  )
  (hierarchical_label "PB3" (shape output) (at 91.44 168.91 0) (fields_autoplaced)
    (effects (font (size 1.27 1.27)) (justify left))
    (uuid fb0f7c84-f2ed-4fe6-89b3-d855f9325a51)
  )

  (symbol (lib_id "SHTC3:SHTC3") (at 160.02 58.42 0) (unit 1)
    (in_bom yes) (on_board yes) (dnp no) (fields_autoplaced)
    (uuid 3f6ab888-db08-435d-be56-bb285d7238fa)
    (property "Reference" "U1" (at 160.02 44.45 0)
      (effects (font (size 1.27 1.27)))
    )
    (property "Value" "SHTC3" (at 160.02 46.99 0)
      (effects (font (size 1.27 1.27)))
    )
    (property "Footprint" "SHTC3:SON100P200X200X80-5N" (at 160.02 58.42 0)
      (effects (font (size 1.27 1.27)) (justify bottom) hide)
    )
    (property "Datasheet" "" (at 160.02 58.42 0)
      (effects (font (size 1.27 1.27)) hide)
    )
    (property "STANDARD" "IPC-7351B" (at 160.02 58.42 0)
      (effects (font (size 1.27 1.27)) (justify bottom) hide)
    )
    (property "PARTREV" "3" (at 160.02 58.42 0)
      (effects (font (size 1.27 1.27)) (justify bottom) hide)
    )
    (property "MANUFACTURER" "Sensirion" (at 160.02 58.42 0)
      (effects (font (size 1.27 1.27)) (justify bottom) hide)
    )
    (property "MAXIMUM_PACKAGE_HEIGHT" "0.80mm" (at 160.02 58.42 0)
      (effects (font (size 1.27 1.27)) (justify bottom) hide)
    )
    (property "Extended" "1" (at 160.02 58.42 0)
      (effects (font (size 1.27 1.27)) hide)
    )
    (property "Popluate" "1" (at 160.02 58.42 0)
      (effects (font (size 1.27 1.27)) hide)
    )
    (property "JLCPCB" "C2880044" (at 160.02 58.42 0)
      (effects (font (size 1.27 1.27)) hide)
    )
    (property "Price" "1,2945" (at 160.02 58.42 0)
      (effects (font (size 1.27 1.27)) hide)
    )
    (pin "1" (uuid cca4daf9-a99f-491e-85e9-d693470b11d6))
    (pin "2" (uuid 250a307a-dfcf-413b-adf0-ded7bf643257))
    (pin "3" (uuid 1f5551db-cd24-4bd1-83bb-b42d1ad01148))
    (pin "4" (uuid f34bfac9-8823-4d2b-937f-187a90aa1aa7))
    (pin "5" (uuid 7f72230c-1921-448e-a759-ebb2d5a3bc82))
    (instances
      (project "draft_sensor"
        (path "/676b723f-87ab-4e0b-b9fa-0f05ff6dc1ca"
          (reference "U1") (unit 1)
        )
      )
      (project "EEE3088F_Proj"
        (path "/f523ed7a-5296-4d26-9011-c5e23571cbe4/c6b06eb8-6241-4d4a-ba0a-a8578398d5aa"
          (reference "U7") (unit 1)
        )
      )
    )
  )

  (symbol (lib_id "Device:R_Small_US") (at 52.07 157.48 90) (unit 1)
    (in_bom yes) (on_board yes) (dnp no) (fields_autoplaced)
    (uuid 401ffd48-5e61-4197-9509-a5a5307d8851)
    (property "Reference" "R12" (at 52.07 152.4 90)
      (effects (font (size 1.27 1.27)))
    )
    (property "Value" "150R" (at 52.07 154.94 90)
      (effects (font (size 1.27 1.27)))
    )
    (property "Footprint" "R0805:R0805" (at 52.07 157.48 0)
      (effects (font (size 1.27 1.27)) hide)
    )
    (property "Datasheet" "~" (at 52.07 157.48 0)
      (effects (font (size 1.27 1.27)) hide)
    )
    (property "Extended" "1" (at 52.07 157.48 0)
      (effects (font (size 1.27 1.27)) hide)
    )
    (property "JLCPCB" "C228129" (at 52.07 157.48 0)
      (effects (font (size 1.27 1.27)) hide)
    )
    (property "Popluate" "1" (at 52.07 157.48 0)
      (effects (font (size 1.27 1.27)) hide)
    )
    (property "Price" "0,0016" (at 52.07 157.48 0)
      (effects (font (size 1.27 1.27)) hide)
    )
    (pin "1" (uuid ec3ec132-6aa4-4df0-9342-41a6d5259ddc))
    (pin "2" (uuid ff1a88c7-4e8f-41ec-b088-45e7f9587304))
    (instances
      (project "EEE3088F_Proj"
        (path "/f523ed7a-5296-4d26-9011-c5e23571cbe4/c6b06eb8-6241-4d4a-ba0a-a8578398d5aa"
          (reference "R12") (unit 1)
        )
      )
    )
  )

  (symbol (lib_id "LTST-C190KRKT:LTST-C190KRKT") (at 64.77 74.93 180) (unit 1)
    (in_bom yes) (on_board yes) (dnp no) (fields_autoplaced)
    (uuid 479f3785-130b-41bc-a222-306427098b63)
    (property "Reference" "D9" (at 63.5 69.85 0)
      (effects (font (size 1.27 1.27)))
    )
    (property "Value" "LTST-C190KRKT" (at 63.5 72.39 0)
      (effects (font (size 1.27 1.27)))
    )
    (property "Footprint" "LTST-C190KRKT:LEDC1608X35N" (at 64.77 74.93 0)
      (effects (font (size 1.27 1.27)) (justify bottom) hide)
    )
    (property "Datasheet" "" (at 64.77 74.93 0)
      (effects (font (size 1.27 1.27)) hide)
    )
    (property "Popluate" "1" (at 64.77 74.93 0)
      (effects (font (size 1.27 1.27)) hide)
    )
    (property "JLCPCB" "C94869" (at 64.77 74.93 0)
      (effects (font (size 1.27 1.27)) hide)
    )
    (property "Price" "0,0248" (at 64.77 74.93 0)
      (effects (font (size 1.27 1.27)) hide)
    )
    (property "Extended" "1" (at 64.77 74.93 0)
      (effects (font (size 1.27 1.27)) hide)
    )
    (pin "A" (uuid 3ccc2f2e-922e-4876-b4c3-b579525f036f))
    (pin "C" (uuid c57eac6f-b5ab-4d45-82ab-d1699b9fb693))
    (instances
      (project "EEE3088F_Proj"
        (path "/f523ed7a-5296-4d26-9011-c5e23571cbe4/c6b06eb8-6241-4d4a-ba0a-a8578398d5aa"
          (reference "D9") (unit 1)
        )
      )
    )
  )

  (symbol (lib_id "power:GND") (at 175.26 66.04 0) (unit 1)
    (in_bom yes) (on_board yes) (dnp no) (fields_autoplaced)
    (uuid 53da1d93-ed52-4002-bf9f-29f60cccca2d)
    (property "Reference" "#PWR07" (at 175.26 72.39 0)
      (effects (font (size 1.27 1.27)) hide)
    )
    (property "Value" "GND" (at 175.26 71.12 0)
      (effects (font (size 1.27 1.27)))
    )
    (property "Footprint" "" (at 175.26 66.04 0)
      (effects (font (size 1.27 1.27)) hide)
    )
    (property "Datasheet" "" (at 175.26 66.04 0)
      (effects (font (size 1.27 1.27)) hide)
    )
    (pin "1" (uuid 70822c86-dea1-4073-865d-16d6ad83640d))
    (instances
      (project "draft_sensor"
        (path "/676b723f-87ab-4e0b-b9fa-0f05ff6dc1ca"
          (reference "#PWR07") (unit 1)
        )
      )
      (project "EEE3088F_Proj"
        (path "/f523ed7a-5296-4d26-9011-c5e23571cbe4/c6b06eb8-6241-4d4a-ba0a-a8578398d5aa"
          (reference "#PWR022") (unit 1)
        )
      )
    )
  )

  (symbol (lib_id "Device:R_Small_US") (at 52.07 133.35 90) (unit 1)
    (in_bom yes) (on_board yes) (dnp no) (fields_autoplaced)
    (uuid 5adae4a9-d3fd-49dd-aa93-36861541a2bb)
    (property "Reference" "R10" (at 52.07 128.27 90)
      (effects (font (size 1.27 1.27)))
    )
    (property "Value" "150R" (at 52.07 130.81 90)
      (effects (font (size 1.27 1.27)))
    )
    (property "Footprint" "R0805:R0805" (at 52.07 133.35 0)
      (effects (font (size 1.27 1.27)) hide)
    )
    (property "Datasheet" "~" (at 52.07 133.35 0)
      (effects (font (size 1.27 1.27)) hide)
    )
    (property "Extended" "1" (at 52.07 133.35 0)
      (effects (font (size 1.27 1.27)) hide)
    )
    (property "JLCPCB" "C228129" (at 52.07 133.35 0)
      (effects (font (size 1.27 1.27)) hide)
    )
    (property "Popluate" "1" (at 52.07 133.35 0)
      (effects (font (size 1.27 1.27)) hide)
    )
    (property "Price" "0,0016" (at 52.07 133.35 0)
      (effects (font (size 1.27 1.27)) hide)
    )
    (pin "1" (uuid b963f1e7-fec4-4936-bf0a-a07579582b90))
    (pin "2" (uuid 7e8a5ee0-9387-4a8b-bd96-50124d43c329))
    (instances
      (project "EEE3088F_Proj"
        (path "/f523ed7a-5296-4d26-9011-c5e23571cbe4/c6b06eb8-6241-4d4a-ba0a-a8578398d5aa"
          (reference "R10") (unit 1)
        )
      )
    )
  )

  (symbol (lib_id "Device:R_Small_US") (at 52.07 180.34 90) (unit 1)
    (in_bom yes) (on_board yes) (dnp no) (fields_autoplaced)
    (uuid 5f44cd07-6b35-4118-9dfa-02275e0f9cec)
    (property "Reference" "R14" (at 52.07 175.26 90)
      (effects (font (size 1.27 1.27)))
    )
    (property "Value" "150R" (at 52.07 177.8 90)
      (effects (font (size 1.27 1.27)))
    )
    (property "Footprint" "R0805:R0805" (at 52.07 180.34 0)
      (effects (font (size 1.27 1.27)) hide)
    )
    (property "Datasheet" "~" (at 52.07 180.34 0)
      (effects (font (size 1.27 1.27)) hide)
    )
    (property "Extended" "1" (at 52.07 180.34 0)
      (effects (font (size 1.27 1.27)) hide)
    )
    (property "JLCPCB" "C228129" (at 52.07 180.34 0)
      (effects (font (size 1.27 1.27)) hide)
    )
    (property "Popluate" "1" (at 52.07 180.34 0)
      (effects (font (size 1.27 1.27)) hide)
    )
    (property "Price" "0,0016" (at 52.07 180.34 0)
      (effects (font (size 1.27 1.27)) hide)
    )
    (pin "1" (uuid 8a1645e1-efab-412f-902f-52faccc63c5b))
    (pin "2" (uuid f4fd910b-b3e8-4347-92f1-0212b317d0b0))
    (instances
      (project "EEE3088F_Proj"
        (path "/f523ed7a-5296-4d26-9011-c5e23571cbe4/c6b06eb8-6241-4d4a-ba0a-a8578398d5aa"
          (reference "R14") (unit 1)
        )
      )
    )
  )

  (symbol (lib_id "Device:R_Small_US") (at 110.49 41.91 180) (unit 1)
    (in_bom yes) (on_board yes) (dnp no) (fields_autoplaced)
    (uuid 6482ef04-4289-46d7-8e32-af3c564ab87a)
    (property "Reference" "R15" (at 113.03 41.275 0)
      (effects (font (size 1.27 1.27)) (justify right))
    )
    (property "Value" "10k" (at 113.03 43.815 0)
      (effects (font (size 1.27 1.27)) (justify right))
    )
    (property "Footprint" "R0805:R0805" (at 110.49 41.91 0)
      (effects (font (size 1.27 1.27)) hide)
    )
    (property "Datasheet" "~" (at 110.49 41.91 0)
      (effects (font (size 1.27 1.27)) hide)
    )
    (property "Extended" "1" (at 110.49 41.91 0)
      (effects (font (size 1.27 1.27)) hide)
    )
    (property "JLCPCB" "C98220" (at 110.49 41.91 0)
      (effects (font (size 1.27 1.27)) hide)
    )
    (property "Popluate" "1" (at 110.49 41.91 0)
      (effects (font (size 1.27 1.27)) hide)
    )
    (property "Price" "0,0010" (at 110.49 41.91 0)
      (effects (font (size 1.27 1.27)) hide)
    )
    (pin "1" (uuid df942aae-1514-41bc-9a1a-c3c28f6d3478))
    (pin "2" (uuid 8de51e65-e7f6-4a5c-9460-9177a34d283e))
    (instances
      (project "EEE3088F_Proj"
        (path "/f523ed7a-5296-4d26-9011-c5e23571cbe4/c6b06eb8-6241-4d4a-ba0a-a8578398d5aa"
          (reference "R15") (unit 1)
        )
      )
    )
  )

  (symbol (lib_id "LTST-C190KRKT:LTST-C190KRKT") (at 64.77 90.17 180) (unit 1)
    (in_bom yes) (on_board yes) (dnp no) (fields_autoplaced)
    (uuid 68c61964-69e8-4701-9743-10cd5a921490)
    (property "Reference" "D7" (at 63.5 85.09 0)
      (effects (font (size 1.27 1.27)))
    )
    (property "Value" "LTST-C190KRKT" (at 63.5 87.63 0)
      (effects (font (size 1.27 1.27)))
    )
    (property "Footprint" "LTST-C190KRKT:LEDC1608X35N" (at 64.77 90.17 0)
      (effects (font (size 1.27 1.27)) (justify bottom) hide)
    )
    (property "Datasheet" "" (at 64.77 90.17 0)
      (effects (font (size 1.27 1.27)) hide)
    )
    (property "Popluate" "1" (at 64.77 90.17 0)
      (effects (font (size 1.27 1.27)) hide)
    )
    (property "JLCPCB" "C94869" (at 64.77 90.17 0)
      (effects (font (size 1.27 1.27)) hide)
    )
    (property "Price" "0,0248" (at 64.77 90.17 0)
      (effects (font (size 1.27 1.27)) hide)
    )
    (property "Extended" "1" (at 64.77 90.17 0)
      (effects (font (size 1.27 1.27)) hide)
    )
    (pin "A" (uuid f1ec214e-45b3-40f5-ae67-743885b3f2ec))
    (pin "C" (uuid 3acf7cb3-8617-4174-8a9e-646a6875118f))
    (instances
      (project "EEE3088F_Proj"
        (path "/f523ed7a-5296-4d26-9011-c5e23571cbe4/c6b06eb8-6241-4d4a-ba0a-a8578398d5aa"
          (reference "D7") (unit 1)
        )
      )
    )
  )

  (symbol (lib_id "Device:R_Small_US") (at 134.62 41.91 180) (unit 1)
    (in_bom yes) (on_board yes) (dnp no) (fields_autoplaced)
    (uuid 70346d2a-ef60-4e4b-a796-33fae68f833d)
    (property "Reference" "R18" (at 137.16 41.275 0)
      (effects (font (size 1.27 1.27)) (justify right))
    )
    (property "Value" "10k" (at 137.16 43.815 0)
      (effects (font (size 1.27 1.27)) (justify right))
    )
    (property "Footprint" "R0805:R0805" (at 134.62 41.91 0)
      (effects (font (size 1.27 1.27)) hide)
    )
    (property "Datasheet" "~" (at 134.62 41.91 0)
      (effects (font (size 1.27 1.27)) hide)
    )
    (property "Extended" "1" (at 134.62 41.91 0)
      (effects (font (size 1.27 1.27)) hide)
    )
    (property "JLCPCB" "C98220" (at 134.62 41.91 0)
      (effects (font (size 1.27 1.27)) hide)
    )
    (property "Popluate" "1" (at 134.62 41.91 0)
      (effects (font (size 1.27 1.27)) hide)
    )
    (property "Price" "0,0010" (at 134.62 41.91 0)
      (effects (font (size 1.27 1.27)) hide)
    )
    (pin "1" (uuid cc6a4210-6f56-412f-98ab-508cdb70c336))
    (pin "2" (uuid 93e8014c-07bd-48bf-9669-87613b0f58d1))
    (instances
      (project "EEE3088F_Proj"
        (path "/f523ed7a-5296-4d26-9011-c5e23571cbe4/c6b06eb8-6241-4d4a-ba0a-a8578398d5aa"
          (reference "R18") (unit 1)
        )
      )
    )
  )

  (symbol (lib_id "LTST-C190KRKT:LTST-C190KRKT") (at 152.4 184.15 180) (unit 1)
    (in_bom yes) (on_board yes) (dnp no) (fields_autoplaced)
    (uuid 87fe855f-f79f-45cd-8faa-ffc97ca18d7b)
    (property "Reference" "D8" (at 151.13 179.07 0)
      (effects (font (size 1.27 1.27)))
    )
    (property "Value" "LTST-C190KRKT" (at 151.13 181.61 0)
      (effects (font (size 1.27 1.27)))
    )
    (property "Footprint" "LTST-C190KRKT:LEDC1608X35N" (at 152.4 184.15 0)
      (effects (font (size 1.27 1.27)) (justify bottom) hide)
    )
    (property "Datasheet" "" (at 152.4 184.15 0)
      (effects (font (size 1.27 1.27)) hide)
    )
    (property "Popluate" "1" (at 152.4 184.15 0)
      (effects (font (size 1.27 1.27)) hide)
    )
    (property "JLCPCB" "C94869" (at 152.4 184.15 0)
      (effects (font (size 1.27 1.27)) hide)
    )
    (property "Price" "0,0248" (at 152.4 184.15 0)
      (effects (font (size 1.27 1.27)) hide)
    )
    (property "Extended" "1" (at 152.4 184.15 0)
      (effects (font (size 1.27 1.27)) hide)
    )
    (pin "A" (uuid 9f5f134d-4f79-401d-b277-ad4b84aa98b6))
    (pin "C" (uuid 1dcebafc-70b6-4529-944b-e64bdc9864f0))
    (instances
      (project "EEE3088F_Proj"
        (path "/f523ed7a-5296-4d26-9011-c5e23571cbe4/c6b06eb8-6241-4d4a-ba0a-a8578398d5aa"
          (reference "D8") (unit 1)
        )
      )
    )
  )

  (symbol (lib_id "power:GND") (at 74.93 92.71 0) (unit 1)
    (in_bom yes) (on_board yes) (dnp no) (fields_autoplaced)
    (uuid 8b0d237f-459e-4cb2-88ef-29d58c08e7cf)
    (property "Reference" "#PWR01" (at 74.93 99.06 0)
      (effects (font (size 1.27 1.27)) hide)
    )
    (property "Value" "GND" (at 74.93 97.79 0)
      (effects (font (size 1.27 1.27)))
    )
    (property "Footprint" "" (at 74.93 92.71 0)
      (effects (font (size 1.27 1.27)) hide)
    )
    (property "Datasheet" "" (at 74.93 92.71 0)
      (effects (font (size 1.27 1.27)) hide)
    )
    (pin "1" (uuid ac3b897f-cf5a-454d-a83e-041323678cde))
    (instances
      (project "draft_sensor"
        (path "/676b723f-87ab-4e0b-b9fa-0f05ff6dc1ca"
          (reference "#PWR01") (unit 1)
        )
      )
      (project "EEE3088F_Proj"
        (path "/f523ed7a-5296-4d26-9011-c5e23571cbe4/c6b06eb8-6241-4d4a-ba0a-a8578398d5aa"
          (reference "#PWR019") (unit 1)
        )
      )
    )
  )

  (symbol (lib_id "GT36516:GT36516") (at 130.81 109.22 90) (unit 1)
    (in_bom yes) (on_board yes) (dnp no) (fields_autoplaced)
    (uuid 8da6abfb-e2a0-48db-96e3-25506fb0b690)
    (property "Reference" "U6" (at 133.35 108.585 90)
      (effects (font (size 1.27 1.27)) (justify right))
    )
    (property "Value" "GT36516" (at 133.35 111.125 90)
      (effects (font (size 1.27 1.27)) (justify right))
    )
    (property "Footprint" "GT36516:RES-SMD_L3.6-W2.4" (at 140.97 109.22 0)
      (effects (font (size 1.27 1.27) italic) hide)
    )
    (property "Datasheet" "https://atta.szlcsc.com/upload/public/pdf/source/20211015/E4E926A8609BA345C43880BD5DEBDBFD.pdf" (at 130.683 111.506 0)
      (effects (font (size 1.27 1.27)) (justify left) hide)
    )
    (property "LCSC" "C2904880" (at 130.81 109.22 0)
      (effects (font (size 1.27 1.27)) hide)
    )
    (property "Extended" "1" (at 130.81 109.22 0)
      (effects (font (size 1.27 1.27)) hide)
    )
    (property "Popluate" "1" (at 130.81 109.22 0)
      (effects (font (size 1.27 1.27)) hide)
    )
    (property "JLCPCB" "C2904880" (at 130.81 109.22 0)
      (effects (font (size 1.27 1.27)) hide)
    )
    (property "Price" "0,1583" (at 130.81 109.22 0)
      (effects (font (size 1.27 1.27)) hide)
    )
    (pin "1" (uuid 7b0d182a-34dd-4ac2-9288-bdf25db409c4))
    (pin "2" (uuid 174d1c81-2ca6-4b7c-a674-33859180fc25))
    (instances
      (project "EEE3088F_Proj"
        (path "/f523ed7a-5296-4d26-9011-c5e23571cbe4/c6b06eb8-6241-4d4a-ba0a-a8578398d5aa"
          (reference "U6") (unit 1)
        )
      )
    )
  )

  (symbol (lib_id "power:GND") (at 74.93 77.47 0) (unit 1)
    (in_bom yes) (on_board yes) (dnp no) (fields_autoplaced)
    (uuid 941292ba-9d8b-4c66-a2b2-885d6caab701)
    (property "Reference" "#PWR01" (at 74.93 83.82 0)
      (effects (font (size 1.27 1.27)) hide)
    )
    (property "Value" "GND" (at 74.93 82.55 0)
      (effects (font (size 1.27 1.27)))
    )
    (property "Footprint" "" (at 74.93 77.47 0)
      (effects (font (size 1.27 1.27)) hide)
    )
    (property "Datasheet" "" (at 74.93 77.47 0)
      (effects (font (size 1.27 1.27)) hide)
    )
    (pin "1" (uuid dfab4c0f-a5ab-4e36-a769-5dc319259eb4))
    (instances
      (project "draft_sensor"
        (path "/676b723f-87ab-4e0b-b9fa-0f05ff6dc1ca"
          (reference "#PWR01") (unit 1)
        )
      )
      (project "EEE3088F_Proj"
        (path "/f523ed7a-5296-4d26-9011-c5e23571cbe4/c6b06eb8-6241-4d4a-ba0a-a8578398d5aa"
          (reference "#PWR018") (unit 1)
        )
      )
    )
  )

  (symbol (lib_id "SML-D12FWT86:SML-D12FWT86") (at 33.02 74.93 0) (unit 1)
    (in_bom yes) (on_board yes) (dnp no) (fields_autoplaced)
    (uuid 98197e98-cda6-4f0a-b5df-2bbb1145cb68)
    (property "Reference" "D4" (at 31.0134 67.31 0)
      (effects (font (size 1.27 1.27)))
    )
    (property "Value" "SML-D12FWT86" (at 31.0134 69.85 0)
      (effects (font (size 1.27 1.27)))
    )
    (property "Footprint" "SML-D12FWT86:LED_SML-D12FWT86" (at 34.29 67.31 0)
      (effects (font (size 1.27 1.27)) (justify bottom) hide)
    )
    (property "Datasheet" "" (at 33.02 74.93 0)
      (effects (font (size 1.27 1.27)) hide)
    )
    (property "STANDARD" "Manufacturer Recommendation" (at 36.83 83.82 0)
      (effects (font (size 1.27 1.27)) (justify bottom) hide)
    )
    (property "MANUFACTURER" "ROHM Semiconductor" (at 34.29 81.28 0)
      (effects (font (size 1.27 1.27)) (justify bottom) hide)
    )
    (property "MAXIMUM_PACKAGE_HEIGHT" "0.65 mm" (at 40.64 72.39 0)
      (effects (font (size 1.27 1.27)) (justify bottom) hide)
    )
    (property "PARTREV" "007" (at 46.99 72.39 0)
      (effects (font (size 1.27 1.27)) (justify bottom) hide)
    )
    (property "Popluate" "1" (at 33.02 74.93 0)
      (effects (font (size 1.27 1.27)) hide)
    )
    (property "JLCPCB" "C2837818" (at 33.02 74.93 0)
      (effects (font (size 1.27 1.27)) hide)
    )
    (property "Price" "0,2332" (at 33.02 74.93 0)
      (effects (font (size 1.27 1.27)) hide)
    )
    (property "Extended" "1" (at 33.02 74.93 0)
      (effects (font (size 1.27 1.27)) hide)
    )
    (pin "A" (uuid 8614317e-a0d3-4e61-acb9-838f4c2d8f2d))
    (pin "C" (uuid 652644a7-30a6-4cb5-97e3-cad9c6688785))
    (instances
      (project "EEE3088F_Proj"
        (path "/f523ed7a-5296-4d26-9011-c5e23571cbe4/c6b06eb8-6241-4d4a-ba0a-a8578398d5aa"
          (reference "D4") (unit 1)
        )
      )
    )
  )

  (symbol (lib_id "Device:R_Small_US") (at 134.62 184.15 90) (unit 1)
    (in_bom yes) (on_board yes) (dnp no) (fields_autoplaced)
    (uuid 9abc755d-3578-477f-bb00-df08d22654dc)
    (property "Reference" "R17" (at 134.62 179.07 90)
      (effects (font (size 1.27 1.27)))
    )
    (property "Value" "150R" (at 134.62 181.61 90)
      (effects (font (size 1.27 1.27)))
    )
    (property "Footprint" "R0805:R0805" (at 134.62 184.15 0)
      (effects (font (size 1.27 1.27)) hide)
    )
    (property "Datasheet" "~" (at 134.62 184.15 0)
      (effects (font (size 1.27 1.27)) hide)
    )
    (property "Extended" "1" (at 134.62 184.15 0)
      (effects (font (size 1.27 1.27)) hide)
    )
    (property "JLCPCB" "C228129" (at 134.62 184.15 0)
      (effects (font (size 1.27 1.27)) hide)
    )
    (property "Popluate" "1" (at 134.62 184.15 0)
      (effects (font (size 1.27 1.27)) hide)
    )
    (property "Price" "0,0016" (at 134.62 184.15 0)
      (effects (font (size 1.27 1.27)) hide)
    )
    (pin "1" (uuid c6bec40a-f3bc-4856-9439-a06a19c6a8ac))
    (pin "2" (uuid 89558deb-e4f4-48c2-a85b-57588d82e00b))
    (instances
      (project "EEE3088F_Proj"
        (path "/f523ed7a-5296-4d26-9011-c5e23571cbe4/c6b06eb8-6241-4d4a-ba0a-a8578398d5aa"
          (reference "R17") (unit 1)
        )
      )
    )
  )

  (symbol (lib_id "power:GND") (at 162.56 186.69 0) (unit 1)
    (in_bom yes) (on_board yes) (dnp no) (fields_autoplaced)
    (uuid 9f54730b-64ef-4004-acfe-efc3a7976030)
    (property "Reference" "#PWR01" (at 162.56 193.04 0)
      (effects (font (size 1.27 1.27)) hide)
    )
    (property "Value" "GND" (at 162.56 191.77 0)
      (effects (font (size 1.27 1.27)))
    )
    (property "Footprint" "" (at 162.56 186.69 0)
      (effects (font (size 1.27 1.27)) hide)
    )
    (property "Datasheet" "" (at 162.56 186.69 0)
      (effects (font (size 1.27 1.27)) hide)
    )
    (pin "1" (uuid fcf53303-6f00-4356-8252-4eca89085068))
    (instances
      (project "draft_sensor"
        (path "/676b723f-87ab-4e0b-b9fa-0f05ff6dc1ca"
          (reference "#PWR01") (unit 1)
        )
      )
      (project "EEE3088F_Proj"
        (path "/f523ed7a-5296-4d26-9011-c5e23571cbe4/c6b06eb8-6241-4d4a-ba0a-a8578398d5aa"
          (reference "#PWR021") (unit 1)
        )
      )
    )
  )

  (symbol (lib_id "Device:C_Polarized_Small_US") (at 175.26 57.15 0) (unit 1)
    (in_bom yes) (on_board yes) (dnp no) (fields_autoplaced)
    (uuid a36ee95d-b947-4777-9ac9-832a1eed91af)
    (property "Reference" "C4" (at 177.8 56.0832 0)
      (effects (font (size 1.27 1.27)) (justify left))
    )
    (property "Value" "100nF" (at 177.8 58.6232 0)
      (effects (font (size 1.27 1.27)) (justify left))
    )
    (property "Footprint" "CC0603KRX7R9BB104:CAPC1608X90" (at 175.26 57.15 0)
      (effects (font (size 1.27 1.27)) hide)
    )
    (property "Datasheet" "~" (at 175.26 57.15 0)
      (effects (font (size 1.27 1.27)) hide)
    )
    (property "JLCPCB" "C14663" (at 175.26 57.15 0)
      (effects (font (size 1.27 1.27)) hide)
    )
    (property "Popluate" "1" (at 175.26 57.15 0)
      (effects (font (size 1.27 1.27)) hide)
    )
    (property "Price" "0,0024" (at 175.26 57.15 0)
      (effects (font (size 1.27 1.27)) hide)
    )
    (pin "1" (uuid f1ead48e-5ad4-4323-892b-c8c0ccf3c1eb))
    (pin "2" (uuid 97df6a8a-f4c5-44a6-b45a-436c36a6024d))
    (instances
      (project "EEE3088F_Proj"
        (path "/f523ed7a-5296-4d26-9011-c5e23571cbe4/c6b06eb8-6241-4d4a-ba0a-a8578398d5aa"
          (reference "C4") (unit 1)
        )
      )
    )
  )

  (symbol (lib_id "SML-D12FWT86:SML-D12FWT86") (at 33.02 87.63 0) (unit 1)
    (in_bom yes) (on_board yes) (dnp no) (fields_autoplaced)
    (uuid a3e87c7e-86da-4bf9-9802-59259fde1e19)
    (property "Reference" "D5" (at 31.0134 80.01 0)
      (effects (font (size 1.27 1.27)))
    )
    (property "Value" "SML-D12FWT86" (at 31.0134 82.55 0)
      (effects (font (size 1.27 1.27)))
    )
    (property "Footprint" "SML-D12FWT86:LED_SML-D12FWT86" (at 34.29 80.01 0)
      (effects (font (size 1.27 1.27)) (justify bottom) hide)
    )
    (property "Datasheet" "" (at 33.02 87.63 0)
      (effects (font (size 1.27 1.27)) hide)
    )
    (property "STANDARD" "Manufacturer Recommendation" (at 36.83 96.52 0)
      (effects (font (size 1.27 1.27)) (justify bottom) hide)
    )
    (property "MANUFACTURER" "ROHM Semiconductor" (at 34.29 93.98 0)
      (effects (font (size 1.27 1.27)) (justify bottom) hide)
    )
    (property "MAXIMUM_PACKAGE_HEIGHT" "0.65 mm" (at 40.64 85.09 0)
      (effects (font (size 1.27 1.27)) (justify bottom) hide)
    )
    (property "PARTREV" "007" (at 46.99 85.09 0)
      (effects (font (size 1.27 1.27)) (justify bottom) hide)
    )
    (property "Popluate" "1" (at 33.02 87.63 0)
      (effects (font (size 1.27 1.27)) hide)
    )
    (property "JLCPCB" "C2837818" (at 33.02 87.63 0)
      (effects (font (size 1.27 1.27)) hide)
    )
    (property "Price" "0,2332" (at 33.02 87.63 0)
      (effects (font (size 1.27 1.27)) hide)
    )
    (property "Extended" "1" (at 33.02 87.63 0)
      (effects (font (size 1.27 1.27)) hide)
    )
    (pin "A" (uuid 709a2dc1-653a-4cf7-87fe-c393c66dc71e))
    (pin "C" (uuid 8babfc80-f892-41a1-9545-e6355abb7622))
    (instances
      (project "EEE3088F_Proj"
        (path "/f523ed7a-5296-4d26-9011-c5e23571cbe4/c6b06eb8-6241-4d4a-ba0a-a8578398d5aa"
          (reference "D5") (unit 1)
        )
      )
    )
  )

  (symbol (lib_id "power:GND") (at 43.18 87.63 0) (unit 1)
    (in_bom yes) (on_board yes) (dnp no) (fields_autoplaced)
    (uuid a4e16d77-1d8d-447e-85eb-c9fb02f67af4)
    (property "Reference" "#PWR01" (at 43.18 93.98 0)
      (effects (font (size 1.27 1.27)) hide)
    )
    (property "Value" "GND" (at 43.18 92.71 0)
      (effects (font (size 1.27 1.27)))
    )
    (property "Footprint" "" (at 43.18 87.63 0)
      (effects (font (size 1.27 1.27)) hide)
    )
    (property "Datasheet" "" (at 43.18 87.63 0)
      (effects (font (size 1.27 1.27)) hide)
    )
    (pin "1" (uuid ba09fe12-cdb9-4c74-9ff3-cb698cbbc18a))
    (instances
      (project "draft_sensor"
        (path "/676b723f-87ab-4e0b-b9fa-0f05ff6dc1ca"
          (reference "#PWR01") (unit 1)
        )
      )
      (project "EEE3088F_Proj"
        (path "/f523ed7a-5296-4d26-9011-c5e23571cbe4/c6b06eb8-6241-4d4a-ba0a-a8578398d5aa"
          (reference "#PWR016") (unit 1)
        )
      )
    )
  )

  (symbol (lib_id "SML-D12FWT86:SML-D12FWT86") (at 33.02 100.33 0) (unit 1)
    (in_bom yes) (on_board yes) (dnp no) (fields_autoplaced)
    (uuid be82f13e-86a8-4477-ac16-9e558e860b20)
    (property "Reference" "D6" (at 31.0134 92.71 0)
      (effects (font (size 1.27 1.27)))
    )
    (property "Value" "SML-D12FWT86" (at 31.0134 95.25 0)
      (effects (font (size 1.27 1.27)))
    )
    (property "Footprint" "SML-D12FWT86:LED_SML-D12FWT86" (at 34.29 92.71 0)
      (effects (font (size 1.27 1.27)) (justify bottom) hide)
    )
    (property "Datasheet" "" (at 33.02 100.33 0)
      (effects (font (size 1.27 1.27)) hide)
    )
    (property "STANDARD" "Manufacturer Recommendation" (at 36.83 109.22 0)
      (effects (font (size 1.27 1.27)) (justify bottom) hide)
    )
    (property "MANUFACTURER" "ROHM Semiconductor" (at 34.29 106.68 0)
      (effects (font (size 1.27 1.27)) (justify bottom) hide)
    )
    (property "MAXIMUM_PACKAGE_HEIGHT" "0.65 mm" (at 40.64 97.79 0)
      (effects (font (size 1.27 1.27)) (justify bottom) hide)
    )
    (property "PARTREV" "007" (at 46.99 97.79 0)
      (effects (font (size 1.27 1.27)) (justify bottom) hide)
    )
    (property "Popluate" "1" (at 33.02 100.33 0)
      (effects (font (size 1.27 1.27)) hide)
    )
    (property "JLCPCB" "C2837818" (at 33.02 100.33 0)
      (effects (font (size 1.27 1.27)) hide)
    )
    (property "Price" "0,2332" (at 33.02 100.33 0)
      (effects (font (size 1.27 1.27)) hide)
    )
    (property "Extended" "1" (at 33.02 100.33 0)
      (effects (font (size 1.27 1.27)) hide)
    )
    (pin "A" (uuid c280244e-907d-496e-b60e-cb4469a28a0f))
    (pin "C" (uuid b817c102-bb33-402d-a053-3f9e80304075))
    (instances
      (project "EEE3088F_Proj"
        (path "/f523ed7a-5296-4d26-9011-c5e23571cbe4/c6b06eb8-6241-4d4a-ba0a-a8578398d5aa"
          (reference "D6") (unit 1)
        )
      )
    )
  )

  (symbol (lib_id "Device:R_Small_US") (at 52.07 168.91 90) (unit 1)
    (in_bom yes) (on_board yes) (dnp no) (fields_autoplaced)
    (uuid d9765ead-1e44-45b2-859c-be3c90a96f1c)
    (property "Reference" "R13" (at 52.07 163.83 90)
      (effects (font (size 1.27 1.27)))
    )
    (property "Value" "150R" (at 52.07 166.37 90)
      (effects (font (size 1.27 1.27)))
    )
    (property "Footprint" "R0805:R0805" (at 52.07 168.91 0)
      (effects (font (size 1.27 1.27)) hide)
    )
    (property "Datasheet" "~" (at 52.07 168.91 0)
      (effects (font (size 1.27 1.27)) hide)
    )
    (property "Extended" "1" (at 52.07 168.91 0)
      (effects (font (size 1.27 1.27)) hide)
    )
    (property "JLCPCB" "C228129" (at 52.07 168.91 0)
      (effects (font (size 1.27 1.27)) hide)
    )
    (property "Popluate" "1" (at 52.07 168.91 0)
      (effects (font (size 1.27 1.27)) hide)
    )
    (property "Price" "0,0016" (at 52.07 168.91 0)
      (effects (font (size 1.27 1.27)) hide)
    )
    (pin "1" (uuid d3bb95a3-2b4f-46e3-b4af-8bec4f03aa74))
    (pin "2" (uuid 3f7411d6-823e-4353-9389-3d15b914083a))
    (instances
      (project "EEE3088F_Proj"
        (path "/f523ed7a-5296-4d26-9011-c5e23571cbe4/c6b06eb8-6241-4d4a-ba0a-a8578398d5aa"
          (reference "R13") (unit 1)
        )
      )
    )
  )

  (symbol (lib_id "power:GND") (at 43.18 100.33 0) (unit 1)
    (in_bom yes) (on_board yes) (dnp no) (fields_autoplaced)
    (uuid dd27bb6e-fabd-42aa-8918-00d89808d25f)
    (property "Reference" "#PWR01" (at 43.18 106.68 0)
      (effects (font (size 1.27 1.27)) hide)
    )
    (property "Value" "GND" (at 43.18 105.41 0)
      (effects (font (size 1.27 1.27)))
    )
    (property "Footprint" "" (at 43.18 100.33 0)
      (effects (font (size 1.27 1.27)) hide)
    )
    (property "Datasheet" "" (at 43.18 100.33 0)
      (effects (font (size 1.27 1.27)) hide)
    )
    (pin "1" (uuid 2812c9e4-026b-4a42-8df2-4fe9ef7de978))
    (instances
      (project "draft_sensor"
        (path "/676b723f-87ab-4e0b-b9fa-0f05ff6dc1ca"
          (reference "#PWR01") (unit 1)
        )
      )
      (project "EEE3088F_Proj"
        (path "/f523ed7a-5296-4d26-9011-c5e23571cbe4/c6b06eb8-6241-4d4a-ba0a-a8578398d5aa"
          (reference "#PWR017") (unit 1)
        )
      )
    )
  )

  (symbol (lib_id "power:GND") (at 130.81 142.24 0) (unit 1)
    (in_bom yes) (on_board yes) (dnp no) (fields_autoplaced)
    (uuid e45fe48c-f11c-4d94-9c7b-303f9879e1d3)
    (property "Reference" "#PWR08" (at 130.81 148.59 0)
      (effects (font (size 1.27 1.27)) hide)
    )
    (property "Value" "GND" (at 130.81 147.32 0)
      (effects (font (size 1.27 1.27)))
    )
    (property "Footprint" "" (at 130.81 142.24 0)
      (effects (font (size 1.27 1.27)) hide)
    )
    (property "Datasheet" "" (at 130.81 142.24 0)
      (effects (font (size 1.27 1.27)) hide)
    )
    (pin "1" (uuid 041fa91c-fc94-4961-8395-ce28f18d0a61))
    (instances
      (project "draft_sensor"
        (path "/676b723f-87ab-4e0b-b9fa-0f05ff6dc1ca"
          (reference "#PWR08") (unit 1)
        )
      )
      (project "EEE3088F_Proj"
        (path "/f523ed7a-5296-4d26-9011-c5e23571cbe4/c6b06eb8-6241-4d4a-ba0a-a8578398d5aa"
          (reference "#PWR020") (unit 1)
        )
      )
    )
  )

  (symbol (lib_id "power:GND") (at 43.18 74.93 0) (unit 1)
    (in_bom yes) (on_board yes) (dnp no) (fields_autoplaced)
    (uuid e9729da0-35ad-4b4a-ab79-ea454a72c8a4)
    (property "Reference" "#PWR01" (at 43.18 81.28 0)
      (effects (font (size 1.27 1.27)) hide)
    )
    (property "Value" "GND" (at 43.18 80.01 0)
      (effects (font (size 1.27 1.27)))
    )
    (property "Footprint" "" (at 43.18 74.93 0)
      (effects (font (size 1.27 1.27)) hide)
    )
    (property "Datasheet" "" (at 43.18 74.93 0)
      (effects (font (size 1.27 1.27)) hide)
    )
    (pin "1" (uuid 59382555-f0fd-462c-9f3c-b22b775dac0e))
    (instances
      (project "draft_sensor"
        (path "/676b723f-87ab-4e0b-b9fa-0f05ff6dc1ca"
          (reference "#PWR01") (unit 1)
        )
      )
      (project "EEE3088F_Proj"
        (path "/f523ed7a-5296-4d26-9011-c5e23571cbe4/c6b06eb8-6241-4d4a-ba0a-a8578398d5aa"
          (reference "#PWR015") (unit 1)
        )
      )
    )
  )

  (symbol (lib_id "Device:R_Small_US") (at 130.81 129.54 0) (unit 1)
    (in_bom yes) (on_board yes) (dnp no) (fields_autoplaced)
    (uuid eab5a80e-8512-4a91-8404-d74b3288e88b)
    (property "Reference" "R16" (at 133.35 128.905 0)
      (effects (font (size 1.27 1.27)) (justify left))
    )
    (property "Value" "100k" (at 133.35 131.445 0)
      (effects (font (size 1.27 1.27)) (justify left))
    )
    (property "Footprint" "R0603:R0603" (at 130.81 129.54 0)
      (effects (font (size 1.27 1.27)) hide)
    )
    (property "Datasheet" "~" (at 130.81 129.54 0)
      (effects (font (size 1.27 1.27)) hide)
    )
    (property "JLCPCB" "C25803" (at 130.81 129.54 0)
      (effects (font (size 1.27 1.27)) hide)
    )
    (property "Popluate" "1" (at 130.81 129.54 0)
      (effects (font (size 1.27 1.27)) hide)
    )
    (property "Price" "0,0011" (at 130.81 129.54 0)
      (effects (font (size 1.27 1.27)) hide)
    )
    (pin "1" (uuid 609ef1a2-de36-41aa-8ee3-1d4009513574))
    (pin "2" (uuid 707ab1c9-0610-493c-b423-a64837e84a54))
    (instances
      (project "EEE3088F_Proj"
        (path "/f523ed7a-5296-4d26-9011-c5e23571cbe4/c6b06eb8-6241-4d4a-ba0a-a8578398d5aa"
          (reference "R16") (unit 1)
        )
      )
    )
  )

  (symbol (lib_id "Device:R_Small_US") (at 52.07 146.05 90) (unit 1)
    (in_bom yes) (on_board yes) (dnp no) (fields_autoplaced)
    (uuid f0e2596d-fd3c-4888-bbc9-1605f7b6a8c2)
    (property "Reference" "R11" (at 52.07 140.97 90)
      (effects (font (size 1.27 1.27)))
    )
    (property "Value" "150R" (at 52.07 143.51 90)
      (effects (font (size 1.27 1.27)))
    )
    (property "Footprint" "R0805:R0805" (at 52.07 146.05 0)
      (effects (font (size 1.27 1.27)) hide)
    )
    (property "Datasheet" "~" (at 52.07 146.05 0)
      (effects (font (size 1.27 1.27)) hide)
    )
    (property "Extended" "1" (at 52.07 146.05 0)
      (effects (font (size 1.27 1.27)) hide)
    )
    (property "JLCPCB" "C228129" (at 52.07 146.05 0)
      (effects (font (size 1.27 1.27)) hide)
    )
    (property "Popluate" "1" (at 52.07 146.05 0)
      (effects (font (size 1.27 1.27)) hide)
    )
    (property "Price" "0,0016" (at 52.07 146.05 0)
      (effects (font (size 1.27 1.27)) hide)
    )
    (pin "1" (uuid a5ffb15f-2625-4e07-97f7-7eaf69421506))
    (pin "2" (uuid 3492fddd-a30e-4f6c-bcc1-3eaa14eaf767))
    (instances
      (project "EEE3088F_Proj"
        (path "/f523ed7a-5296-4d26-9011-c5e23571cbe4/c6b06eb8-6241-4d4a-ba0a-a8578398d5aa"
          (reference "R11") (unit 1)
        )
      )
    )
  )
)
