
(kicad_symbol_lib (version 20211014) (generator kicad_symbol_editor)
  (symbol "STM32F051C6T6" (pin_names (offset 1.016)) (in_bom yes) (on_board yes)
    (property "Reference" "U" (id 0) (at -5.0822 30.1629 0.0)
      (effects (font (size 1.27 1.27)) (justify bottom left))
    )
    (property "Value" "STM32F051C6T6" (id 1) (at -7.31773 -38.85 0.0)
      (effects (font (size 1.27 1.27)) (justify bottom left))
    )
    (property "Footprint" "QFP50P900X900X160-48N" (id 2) (at 0 0 0)
      (effects (font (size 1.27 1.27)) (justify bottom) hide)
    )
    (property "PACKAGE" "LQFP-48" (id 4) (at 0 0 0)
      (effects (font (size 1.27 1.27)) (justify bottom) hide)
    )
    (property "SUPPLIER" "STMICROELECTRONICS" (id 5) (at 0 0 0)
      (effects (font (size 1.27 1.27)) (justify bottom) hide)
    )
    (property "MPN" "STM32F051C6T6" (id 6) (at 0 0 0)
      (effects (font (size 1.27 1.27)) (justify bottom) hide)
    )
    (property "OC_FARNELL" "2115064" (id 7) (at 0 0 0)
      (effects (font (size 1.27 1.27)) (justify bottom) hide)
    )
    (property "OC_NEWARK" "05W5801" (id 8) (at 0 0 0)
      (effects (font (size 1.27 1.27)) (justify bottom) hide)
    )
    (symbol "STM32F051C6T6_1_0"
      (rectangle (start -17.78 -35.56) (end 17.78 27.94)
        (stroke (width 0.4064)) (fill (type background))
      )
      (pin bidirectional line (at -22.86 -7.62 0) (length 5.08)
        (name "NRST"
          (effects (font (size 1.016 1.016)))
        )
        (number "7"
          (effects (font (size 1.016 1.016)))
        )
      )
      (pin bidirectional line (at -22.86 12.7 0) (length 5.08)
        (name "PA0"
          (effects (font (size 1.016 1.016)))
        )
        (number "10"
          (effects (font (size 1.016 1.016)))
        )
      )
      (pin bidirectional line (at -22.86 10.16 0) (length 5.08)
        (name "PA1"
          (effects (font (size 1.016 1.016)))
        )
        (number "11"
          (effects (font (size 1.016 1.016)))
        )
      )
      (pin bidirectional line (at -22.86 7.62 0) (length 5.08)
        (name "PA2"
          (effects (font (size 1.016 1.016)))
        )
        (number "12"
          (effects (font (size 1.016 1.016)))
        )
      )
      (pin bidirectional line (at -22.86 5.08 0) (length 5.08)
        (name "PA3"
          (effects (font (size 1.016 1.016)))
        )
        (number "13"
          (effects (font (size 1.016 1.016)))
        )
      )
      (pin bidirectional line (at -22.86 2.54 0) (length 5.08)
        (name "PA4"
          (effects (font (size 1.016 1.016)))
        )
        (number "14"
          (effects (font (size 1.016 1.016)))
        )
      )
      (pin bidirectional line (at -22.86 0.0 0) (length 5.08)
        (name "PA5"
          (effects (font (size 1.016 1.016)))
        )
        (number "15"
          (effects (font (size 1.016 1.016)))
        )
      )
      (pin bidirectional line (at -22.86 -2.54 0) (length 5.08)
        (name "PA6"
          (effects (font (size 1.016 1.016)))
        )
        (number "16"
          (effects (font (size 1.016 1.016)))
        )
      )
      (pin bidirectional line (at -22.86 -5.08 0) (length 5.08)
        (name "PA7"
          (effects (font (size 1.016 1.016)))
        )
        (number "17"
          (effects (font (size 1.016 1.016)))
        )
      )
      (pin bidirectional line (at 22.86 22.86 180.0) (length 5.08)
        (name "PB0"
          (effects (font (size 1.016 1.016)))
        )
        (number "18"
          (effects (font (size 1.016 1.016)))
        )
      )
      (pin bidirectional line (at 22.86 20.32 180.0) (length 5.08)
        (name "PB1"
          (effects (font (size 1.016 1.016)))
        )
        (number "19"
          (effects (font (size 1.016 1.016)))
        )
      )
      (pin bidirectional line (at 22.86 17.78 180.0) (length 5.08)
        (name "PB2"
          (effects (font (size 1.016 1.016)))
        )
        (number "20"
          (effects (font (size 1.016 1.016)))
        )
      )
      (pin bidirectional line (at 22.86 15.24 180.0) (length 5.08)
        (name "PB10"
          (effects (font (size 1.016 1.016)))
        )
        (number "21"
          (effects (font (size 1.016 1.016)))
        )
      )
      (pin bidirectional line (at 22.86 12.7 180.0) (length 5.08)
        (name "PB11"
          (effects (font (size 1.016 1.016)))
        )
        (number "22"
          (effects (font (size 1.016 1.016)))
        )
      )
      (pin bidirectional line (at -22.86 -17.78 0) (length 5.08)
        (name "PC13"
          (effects (font (size 1.016 1.016)))
        )
        (number "2"
          (effects (font (size 1.016 1.016)))
        )
      )
      (pin bidirectional line (at -22.86 -20.32 0) (length 5.08)
        (name "PC14/OSC32_N"
          (effects (font (size 1.016 1.016)))
        )
        (number "3"
          (effects (font (size 1.016 1.016)))
        )
      )
      (pin bidirectional line (at -22.86 -22.86 0) (length 5.08)
        (name "PC15/OSC32_OUT"
          (effects (font (size 1.016 1.016)))
        )
        (number "4"
          (effects (font (size 1.016 1.016)))
        )
      )
      (pin bidirectional line (at -22.86 -12.7 0) (length 5.08)
        (name "PF0/OSC_IN"
          (effects (font (size 1.016 1.016)))
        )
        (number "5"
          (effects (font (size 1.016 1.016)))
        )
      )
      (pin bidirectional line (at -22.86 -15.24 0) (length 5.08)
        (name "PF1/OSC_OUT"
          (effects (font (size 1.016 1.016)))
        )
        (number "6"
          (effects (font (size 1.016 1.016)))
        )
      )
      (pin power_in line (at -22.86 17.78 0) (length 5.08)
        (name "VBAT"
          (effects (font (size 1.016 1.016)))
        )
        (number "1"
          (effects (font (size 1.016 1.016)))
        )
      )
      (pin power_in line (at -22.86 22.86 0) (length 5.08)
        (name "VDD"
          (effects (font (size 1.016 1.016)))
        )
        (number "24"
          (effects (font (size 1.016 1.016)))
        )
      )
      (pin power_in line (at -22.86 20.32 0) (length 5.08)
        (name "VDDA"
          (effects (font (size 1.016 1.016)))
        )
        (number "9"
          (effects (font (size 1.016 1.016)))
        )
      )
      (pin passive line (at -22.86 -27.94 0) (length 5.08)
        (name "VSS"
          (effects (font (size 1.016 1.016)))
        )
        (number "23"
          (effects (font (size 1.016 1.016)))
        )
      )
      (pin passive line (at -22.86 -30.48 0) (length 5.08)
        (name "VSSA"
          (effects (font (size 1.016 1.016)))
        )
        (number "8"
          (effects (font (size 1.016 1.016)))
        )
      )
    )
    (symbol "STM32F051C6T6_2_0"
      (rectangle (start -12.7 -27.94) (end 12.7 22.86)
        (stroke (width 0.4064)) (fill (type background))
      )
      (pin input line (at -17.78 12.7 0) (length 5.08)
        (name "BOOT0"
          (effects (font (size 1.016 1.016)))
        )
        (number "44"
          (effects (font (size 1.016 1.016)))
        )
      )
      (pin bidirectional line (at -17.78 7.62 0) (length 5.08)
        (name "PA8"
          (effects (font (size 1.016 1.016)))
        )
        (number "29"
          (effects (font (size 1.016 1.016)))
        )
      )
      (pin bidirectional line (at -17.78 5.08 0) (length 5.08)
        (name "PA9"
          (effects (font (size 1.016 1.016)))
        )
        (number "30"
          (effects (font (size 1.016 1.016)))
        )
      )
      (pin bidirectional line (at -17.78 2.54 0) (length 5.08)
        (name "PA10"
          (effects (font (size 1.016 1.016)))
        )
        (number "31"
          (effects (font (size 1.016 1.016)))
        )
      )
      (pin bidirectional line (at -17.78 0.0 0) (length 5.08)
        (name "PA11"
          (effects (font (size 1.016 1.016)))
        )
        (number "32"
          (effects (font (size 1.016 1.016)))
        )
      )
      (pin bidirectional line (at -17.78 -2.54 0) (length 5.08)
        (name "PA12"
          (effects (font (size 1.016 1.016)))
        )
        (number "33"
          (effects (font (size 1.016 1.016)))
        )
      )
      (pin bidirectional line (at -17.78 -5.08 0) (length 5.08)
        (name "PA13"
          (effects (font (size 1.016 1.016)))
        )
        (number "34"
          (effects (font (size 1.016 1.016)))
        )
      )
      (pin bidirectional line (at -17.78 -7.62 0) (length 5.08)
        (name "PA14"
          (effects (font (size 1.016 1.016)))
        )
        (number "37"
          (effects (font (size 1.016 1.016)))
        )
      )
      (pin bidirectional line (at -17.78 -10.16 0) (length 5.08)
        (name "PA15"
          (effects (font (size 1.016 1.016)))
        )
        (number "38"
          (effects (font (size 1.016 1.016)))
        )
      )
      (pin bidirectional line (at 17.78 17.78 180.0) (length 5.08)
        (name "PB3"
          (effects (font (size 1.016 1.016)))
        )
        (number "39"
          (effects (font (size 1.016 1.016)))
        )
      )
      (pin bidirectional line (at 17.78 15.24 180.0) (length 5.08)
        (name "PB4"
          (effects (font (size 1.016 1.016)))
        )
        (number "40"
          (effects (font (size 1.016 1.016)))
        )
      )
      (pin bidirectional line (at 17.78 12.7 180.0) (length 5.08)
        (name "PB5"
          (effects (font (size 1.016 1.016)))
        )
        (number "41"
          (effects (font (size 1.016 1.016)))
        )
      )
      (pin bidirectional line (at 17.78 10.16 180.0) (length 5.08)
        (name "PB6"
          (effects (font (size 1.016 1.016)))
        )
        (number "42"
          (effects (font (size 1.016 1.016)))
        )
      )
      (pin bidirectional line (at 17.78 7.62 180.0) (length 5.08)
        (name "PB7"
          (effects (font (size 1.016 1.016)))
        )
        (number "43"
          (effects (font (size 1.016 1.016)))
        )
      )
      (pin bidirectional line (at 17.78 5.08 180.0) (length 5.08)
        (name "PB8"
          (effects (font (size 1.016 1.016)))
        )
        (number "45"
          (effects (font (size 1.016 1.016)))
        )
      )
      (pin bidirectional line (at 17.78 2.54 180.0) (length 5.08)
        (name "PB9"
          (effects (font (size 1.016 1.016)))
        )
        (number "46"
          (effects (font (size 1.016 1.016)))
        )
      )
      (pin bidirectional line (at 17.78 0.0 180.0) (length 5.08)
        (name "PB12"
          (effects (font (size 1.016 1.016)))
        )
        (number "25"
          (effects (font (size 1.016 1.016)))
        )
      )
      (pin bidirectional line (at 17.78 -2.54 180.0) (length 5.08)
        (name "PB13"
          (effects (font (size 1.016 1.016)))
        )
        (number "26"
          (effects (font (size 1.016 1.016)))
        )
      )
      (pin bidirectional line (at 17.78 -5.08 180.0) (length 5.08)
        (name "PB14"
          (effects (font (size 1.016 1.016)))
        )
        (number "27"
          (effects (font (size 1.016 1.016)))
        )
      )
      (pin bidirectional line (at 17.78 -7.62 180.0) (length 5.08)
        (name "PB15"
          (effects (font (size 1.016 1.016)))
        )
        (number "28"
          (effects (font (size 1.016 1.016)))
        )
      )
      (pin bidirectional line (at -17.78 -15.24 0) (length 5.08)
        (name "PF6"
          (effects (font (size 1.016 1.016)))
        )
        (number "35"
          (effects (font (size 1.016 1.016)))
        )
      )
      (pin bidirectional line (at -17.78 -17.78 0) (length 5.08)
        (name "PF7"
          (effects (font (size 1.016 1.016)))
        )
        (number "36"
          (effects (font (size 1.016 1.016)))
        )
      )
      (pin power_in line (at -17.78 17.78 0) (length 5.08)
        (name "VDD"
          (effects (font (size 1.016 1.016)))
        )
        (number "48"
          (effects (font (size 1.016 1.016)))
        )
      )
      (pin passive line (at -17.78 -22.86 0) (length 5.08)
        (name "VSS"
          (effects (font (size 1.016 1.016)))
        )
        (number "47"
          (effects (font (size 1.016 1.016)))
        )
      )
    )
  )
)